Analysis & Synthesis report for counters_struct
Wed Apr 26 15:27:08 2017
Quartus II Version 9.1 Build 350 03/24/2010 Service Pack 2 SJ Full Version


---------------------
; Table of Contents ;
---------------------
  1. Legal Notice
  2. Analysis & Synthesis Summary
  3. Analysis & Synthesis Settings
  4. Parallel Compilation
  5. Analysis & Synthesis Source Files Read
  6. Analysis & Synthesis Resource Usage Summary
  7. Analysis & Synthesis Resource Utilization by Entity
  8. Registers Removed During Synthesis
  9. General Register Statistics
 10. Inverted Register Statistics
 11. Parameter Settings for User Entity Instance: Top-level Entity: |counters_struct
 12. Parameter Settings for User Entity Instance: T_Flop:flop_0
 13. Analysis & Synthesis Messages



----------------
; Legal Notice ;
----------------
Copyright (C) 1991-2010 Altera Corporation
Your use of Altera Corporation's design tools, logic functions 
and other software and tools, and its AMPP partner logic 
functions, and any output files from any of the foregoing 
(including device programming or simulation files), and any 
associated documentation or information are expressly subject 
to the terms and conditions of the Altera Program License 
Subscription Agreement, Altera MegaCore Function License 
Agreement, or other applicable license agreement, including, 
without limitation, that your use is for the sole purpose of 
programming logic devices manufactured by Altera and sold by 
Altera or its authorized distributors.  Please refer to the 
applicable agreement for further details.



+------------------------------------------------------------------------------------+
; Analysis & Synthesis Summary                                                       ;
+------------------------------------+-----------------------------------------------+
; Analysis & Synthesis Status        ; Successful - Wed Apr 26 15:27:08 2017         ;
; Quartus II Version                 ; 9.1 Build 350 03/24/2010 SP 2 SJ Full Version ;
; Revision Name                      ; counters_struct                               ;
; Top-level Entity Name              ; counters_struct                               ;
; Family                             ; Cyclone II                                    ;
; Total logic elements               ; 25                                            ;
;     Total combinational functions  ; 25                                            ;
;     Dedicated logic registers      ; 18                                            ;
; Total registers                    ; 18                                            ;
; Total pins                         ; 20                                            ;
; Total virtual pins                 ; 0                                             ;
; Total memory bits                  ; 0                                             ;
; Embedded Multiplier 9-bit elements ; 0                                             ;
; Total PLLs                         ; 0                                             ;
+------------------------------------+-----------------------------------------------+


+----------------------------------------------------------------------------------------------------------------------+
; Analysis & Synthesis Settings                                                                                        ;
+----------------------------------------------------------------------------+--------------------+--------------------+
; Option                                                                     ; Setting            ; Default Value      ;
+----------------------------------------------------------------------------+--------------------+--------------------+
; Device                                                                     ; EP2C20F484C7       ;                    ;
; Top-level entity name                                                      ; counters_struct    ; counters_struct    ;
; Family name                                                                ; Cyclone II         ; Stratix II         ;
; Use Generated Physical Constraints File                                    ; Off                ;                    ;
; Use smart compilation                                                      ; Off                ; Off                ;
; Enable parallel Assembler and TimeQuest Timing Analyzer during compilation ; On                 ; On                 ;
; Enable compact report table                                                ; Off                ; Off                ;
; Restructure Multiplexers                                                   ; Auto               ; Auto               ;
; Create Debugging Nodes for IP Cores                                        ; Off                ; Off                ;
; Preserve fewer node names                                                  ; On                 ; On                 ;
; Disable OpenCore Plus hardware evaluation                                  ; Off                ; Off                ;
; Verilog Version                                                            ; Verilog_2001       ; Verilog_2001       ;
; VHDL Version                                                               ; VHDL_1993          ; VHDL_1993          ;
; State Machine Processing                                                   ; Auto               ; Auto               ;
; Safe State Machine                                                         ; Off                ; Off                ;
; Extract Verilog State Machines                                             ; On                 ; On                 ;
; Extract VHDL State Machines                                                ; On                 ; On                 ;
; Ignore Verilog initial constructs                                          ; Off                ; Off                ;
; Iteration limit for constant Verilog loops                                 ; 5000               ; 5000               ;
; Iteration limit for non-constant Verilog loops                             ; 250                ; 250                ;
; Add Pass-Through Logic to Inferred RAMs                                    ; On                 ; On                 ;
; Parallel Synthesis                                                         ; Off                ; Off                ;
; DSP Block Balancing                                                        ; Auto               ; Auto               ;
; NOT Gate Push-Back                                                         ; On                 ; On                 ;
; Power-Up Don't Care                                                        ; On                 ; On                 ;
; Remove Redundant Logic Cells                                               ; Off                ; Off                ;
; Remove Duplicate Registers                                                 ; On                 ; On                 ;
; Ignore CARRY Buffers                                                       ; Off                ; Off                ;
; Ignore CASCADE Buffers                                                     ; Off                ; Off                ;
; Ignore GLOBAL Buffers                                                      ; Off                ; Off                ;
; Ignore ROW GLOBAL Buffers                                                  ; Off                ; Off                ;
; Ignore LCELL Buffers                                                       ; Off                ; Off                ;
; Ignore SOFT Buffers                                                        ; On                 ; On                 ;
; Limit AHDL Integers to 32 Bits                                             ; Off                ; Off                ;
; Optimization Technique                                                     ; Balanced           ; Balanced           ;
; Carry Chain Length                                                         ; 70                 ; 70                 ;
; Auto Carry Chains                                                          ; On                 ; On                 ;
; Auto Open-Drain Pins                                                       ; On                 ; On                 ;
; Perform WYSIWYG Primitive Resynthesis                                      ; Off                ; Off                ;
; Auto ROM Replacement                                                       ; On                 ; On                 ;
; Auto RAM Replacement                                                       ; On                 ; On                 ;
; Auto Shift Register Replacement                                            ; Auto               ; Auto               ;
; Auto Clock Enable Replacement                                              ; On                 ; On                 ;
; Strict RAM Replacement                                                     ; Off                ; Off                ;
; Allow Synchronous Control Signals                                          ; On                 ; On                 ;
; Force Use of Synchronous Clear Signals                                     ; Off                ; Off                ;
; Auto RAM to Logic Cell Conversion                                          ; Off                ; Off                ;
; Auto Resource Sharing                                                      ; Off                ; Off                ;
; Allow Any RAM Size For Recognition                                         ; Off                ; Off                ;
; Allow Any ROM Size For Recognition                                         ; Off                ; Off                ;
; Allow Any Shift Register Size For Recognition                              ; Off                ; Off                ;
; Use LogicLock Constraints during Resource Balancing                        ; On                 ; On                 ;
; Ignore translate_off and synthesis_off directives                          ; Off                ; Off                ;
; Timing-Driven Synthesis                                                    ; Off                ; Off                ;
; Show Parameter Settings Tables in Synthesis Report                         ; On                 ; On                 ;
; Ignore Maximum Fan-Out Assignments                                         ; Off                ; Off                ;
; Synchronization Register Chain Length                                      ; 2                  ; 2                  ;
; PowerPlay Power Optimization                                               ; Normal compilation ; Normal compilation ;
; HDL message level                                                          ; Level2             ; Level2             ;
; Suppress Register Optimization Related Messages                            ; Off                ; Off                ;
; Number of Removed Registers Reported in Synthesis Report                   ; 5000               ; 5000               ;
; Number of Inverted Registers Reported in Synthesis Report                  ; 100                ; 100                ;
; Clock MUX Protection                                                       ; On                 ; On                 ;
; Auto Gated Clock Conversion                                                ; Off                ; Off                ;
; Block Design Naming                                                        ; Auto               ; Auto               ;
; SDC constraint protection                                                  ; Off                ; Off                ;
; Synthesis Effort                                                           ; Auto               ; Auto               ;
; Shift Register Replacement - Allow Asynchronous Clear Signal               ; On                 ; On                 ;
; Analysis & Synthesis Message Level                                         ; Medium             ; Medium             ;
; Disable Register Merging Across Hierarchies                                ; Auto               ; Auto               ;
; Resource Aware Inference For Block RAM                                     ; On                 ; On                 ;
+----------------------------------------------------------------------------+--------------------+--------------------+


+------------------------------------------+
; Parallel Compilation                     ;
+----------------------------+-------------+
; Processors                 ; Number      ;
+----------------------------+-------------+
; Number detected on machine ; 4           ;
; Maximum allowed            ; 4           ;
;                            ;             ;
; Average used               ; 1.00        ;
; Maximum used               ; 1           ;
;                            ;             ;
; Usage by Processor         ; % Time Used ;
;     1 processor            ; 100.0%      ;
;     2-4 processors         ;   0.0%      ;
+----------------------------+-------------+


+---------------------------------------------------------------------------------------------------------------------------------------------------------+
; Analysis & Synthesis Source Files Read                                                                                                                  ;
+----------------------------------+-----------------+-----------------+----------------------------------------------------------------------------------+
; File Name with User-Entered Path ; Used in Netlist ; File Type       ; File Name with Absolute Path                                                     ;
+----------------------------------+-----------------+-----------------+----------------------------------------------------------------------------------+
; counters_struct.vhd              ; yes             ; User VHDL File  ; H:/ADD/advanced-digital-design/lab2/lab2_counters_structural/counters_struct.vhd ;
+----------------------------------+-----------------+-----------------+----------------------------------------------------------------------------------+


+-----------------------------------------------------+
; Analysis & Synthesis Resource Usage Summary         ;
+---------------------------------------------+-------+
; Resource                                    ; Usage ;
+---------------------------------------------+-------+
; Estimated Total logic elements              ; 25    ;
;                                             ;       ;
; Total combinational functions               ; 25    ;
; Logic element usage by number of LUT inputs ;       ;
;     -- 4 input functions                    ; 11    ;
;     -- 3 input functions                    ; 5     ;
;     -- <=2 input functions                  ; 9     ;
;                                             ;       ;
; Logic elements by mode                      ;       ;
;     -- normal mode                          ; 25    ;
;     -- arithmetic mode                      ; 0     ;
;                                             ;       ;
; Total registers                             ; 18    ;
;     -- Dedicated logic registers            ; 18    ;
;     -- I/O registers                        ; 0     ;
;                                             ;       ;
; I/O pins                                    ; 20    ;
; Maximum fan-out node                        ; Clk   ;
; Maximum fan-out                             ; 18    ;
; Total fan-out                               ; 148   ;
; Average fan-out                             ; 2.35  ;
+---------------------------------------------+-------+


+-----------------------------------------------------------------------------------------------------------------------------------------------------------------------------------------------------------------------------------------------------+
; Analysis & Synthesis Resource Utilization by Entity                                                                                                                                                                                                 ;
+-------------------------------------------------+-------------------+--------------+-------------+--------------+---------+-----------+------+--------------+------------------------------------------------------------------------+--------------+
; Compilation Hierarchy Node                      ; LC Combinationals ; LC Registers ; Memory Bits ; DSP Elements ; DSP 9x9 ; DSP 18x18 ; Pins ; Virtual Pins ; Full Hierarchy Name                                                    ; Library Name ;
+-------------------------------------------------+-------------------+--------------+-------------+--------------+---------+-----------+------+--------------+------------------------------------------------------------------------+--------------+
; |counters_struct                                ; 25 (0)            ; 18 (0)       ; 0           ; 0            ; 0       ; 0         ; 20   ; 0            ; |counters_struct                                                       ; work         ;
;    |T_Flop:flop_0|                              ; 25 (7)            ; 18 (0)       ; 0           ; 0            ; 0       ; 0         ; 0    ; 0            ; |counters_struct|T_Flop:flop_0                                         ;              ;
;       |T_Flop_comp:\T_flop_part:0:actual_flop|  ; 1 (1)             ; 1 (1)        ; 0           ; 0            ; 0       ; 0         ; 0    ; 0            ; |counters_struct|T_Flop:flop_0|T_Flop_comp:\T_flop_part:0:actual_flop  ;              ;
;       |T_Flop_comp:\T_flop_part:10:actual_flop| ; 1 (1)             ; 1 (1)        ; 0           ; 0            ; 0       ; 0         ; 0    ; 0            ; |counters_struct|T_Flop:flop_0|T_Flop_comp:\T_flop_part:10:actual_flop ;              ;
;       |T_Flop_comp:\T_flop_part:11:actual_flop| ; 1 (1)             ; 1 (1)        ; 0           ; 0            ; 0       ; 0         ; 0    ; 0            ; |counters_struct|T_Flop:flop_0|T_Flop_comp:\T_flop_part:11:actual_flop ;              ;
;       |T_Flop_comp:\T_flop_part:12:actual_flop| ; 1 (1)             ; 1 (1)        ; 0           ; 0            ; 0       ; 0         ; 0    ; 0            ; |counters_struct|T_Flop:flop_0|T_Flop_comp:\T_flop_part:12:actual_flop ;              ;
;       |T_Flop_comp:\T_flop_part:13:actual_flop| ; 1 (1)             ; 1 (1)        ; 0           ; 0            ; 0       ; 0         ; 0    ; 0            ; |counters_struct|T_Flop:flop_0|T_Flop_comp:\T_flop_part:13:actual_flop ;              ;
;       |T_Flop_comp:\T_flop_part:14:actual_flop| ; 1 (1)             ; 1 (1)        ; 0           ; 0            ; 0       ; 0         ; 0    ; 0            ; |counters_struct|T_Flop:flop_0|T_Flop_comp:\T_flop_part:14:actual_flop ;              ;
;       |T_Flop_comp:\T_flop_part:15:actual_flop| ; 1 (1)             ; 1 (1)        ; 0           ; 0            ; 0       ; 0         ; 0    ; 0            ; |counters_struct|T_Flop:flop_0|T_Flop_comp:\T_flop_part:15:actual_flop ;              ;
;       |T_Flop_comp:\T_flop_part:16:actual_flop| ; 2 (2)             ; 2 (2)        ; 0           ; 0            ; 0       ; 0         ; 0    ; 0            ; |counters_struct|T_Flop:flop_0|T_Flop_comp:\T_flop_part:16:actual_flop ;              ;
;       |T_Flop_comp:\T_flop_part:1:actual_flop|  ; 1 (1)             ; 1 (1)        ; 0           ; 0            ; 0       ; 0         ; 0    ; 0            ; |counters_struct|T_Flop:flop_0|T_Flop_comp:\T_flop_part:1:actual_flop  ;              ;
;       |T_Flop_comp:\T_flop_part:2:actual_flop|  ; 1 (1)             ; 1 (1)        ; 0           ; 0            ; 0       ; 0         ; 0    ; 0            ; |counters_struct|T_Flop:flop_0|T_Flop_comp:\T_flop_part:2:actual_flop  ;              ;
;       |T_Flop_comp:\T_flop_part:3:actual_flop|  ; 1 (1)             ; 1 (1)        ; 0           ; 0            ; 0       ; 0         ; 0    ; 0            ; |counters_struct|T_Flop:flop_0|T_Flop_comp:\T_flop_part:3:actual_flop  ;              ;
;       |T_Flop_comp:\T_flop_part:4:actual_flop|  ; 1 (1)             ; 1 (1)        ; 0           ; 0            ; 0       ; 0         ; 0    ; 0            ; |counters_struct|T_Flop:flop_0|T_Flop_comp:\T_flop_part:4:actual_flop  ;              ;
;       |T_Flop_comp:\T_flop_part:5:actual_flop|  ; 1 (1)             ; 1 (1)        ; 0           ; 0            ; 0       ; 0         ; 0    ; 0            ; |counters_struct|T_Flop:flop_0|T_Flop_comp:\T_flop_part:5:actual_flop  ;              ;
;       |T_Flop_comp:\T_flop_part:6:actual_flop|  ; 1 (1)             ; 1 (1)        ; 0           ; 0            ; 0       ; 0         ; 0    ; 0            ; |counters_struct|T_Flop:flop_0|T_Flop_comp:\T_flop_part:6:actual_flop  ;              ;
;       |T_Flop_comp:\T_flop_part:7:actual_flop|  ; 1 (1)             ; 1 (1)        ; 0           ; 0            ; 0       ; 0         ; 0    ; 0            ; |counters_struct|T_Flop:flop_0|T_Flop_comp:\T_flop_part:7:actual_flop  ;              ;
;       |T_Flop_comp:\T_flop_part:8:actual_flop|  ; 1 (1)             ; 1 (1)        ; 0           ; 0            ; 0       ; 0         ; 0    ; 0            ; |counters_struct|T_Flop:flop_0|T_Flop_comp:\T_flop_part:8:actual_flop  ;              ;
;       |T_Flop_comp:\T_flop_part:9:actual_flop|  ; 1 (1)             ; 1 (1)        ; 0           ; 0            ; 0       ; 0         ; 0    ; 0            ; |counters_struct|T_Flop:flop_0|T_Flop_comp:\T_flop_part:9:actual_flop  ;              ;
+-------------------------------------------------+-------------------+--------------+-------------+--------------+---------+-----------+------+--------------+------------------------------------------------------------------------+--------------+
Note: For table entries with two numbers listed, the numbers in parentheses indicate the number of resources of the given type used by the specific entity alone. The numbers listed outside of parentheses indicate the total resources of the given type used by the specific entity and all of its sub-entities in the hierarchy.


+-------------------------------------------------------------------------------------------------------------------------------------+
; Registers Removed During Synthesis                                                                                                  ;
+--------------------------------------------------------------+----------------------------------------------------------------------+
; Register name                                                ; Reason for Removal                                                   ;
+--------------------------------------------------------------+----------------------------------------------------------------------+
; T_Flop:flop_0|T_Flop_comp:\T_flop_part:15:actual_flop|not_op ; Merged with T_Flop:flop_0|T_Flop_comp:\T_flop_part:15:actual_flop|op ;
; T_Flop:flop_0|T_Flop_comp:\T_flop_part:14:actual_flop|not_op ; Merged with T_Flop:flop_0|T_Flop_comp:\T_flop_part:14:actual_flop|op ;
; T_Flop:flop_0|T_Flop_comp:\T_flop_part:13:actual_flop|not_op ; Merged with T_Flop:flop_0|T_Flop_comp:\T_flop_part:13:actual_flop|op ;
; T_Flop:flop_0|T_Flop_comp:\T_flop_part:12:actual_flop|not_op ; Merged with T_Flop:flop_0|T_Flop_comp:\T_flop_part:12:actual_flop|op ;
; T_Flop:flop_0|T_Flop_comp:\T_flop_part:11:actual_flop|not_op ; Merged with T_Flop:flop_0|T_Flop_comp:\T_flop_part:11:actual_flop|op ;
; T_Flop:flop_0|T_Flop_comp:\T_flop_part:10:actual_flop|not_op ; Merged with T_Flop:flop_0|T_Flop_comp:\T_flop_part:10:actual_flop|op ;
; T_Flop:flop_0|T_Flop_comp:\T_flop_part:9:actual_flop|not_op  ; Merged with T_Flop:flop_0|T_Flop_comp:\T_flop_part:9:actual_flop|op  ;
; T_Flop:flop_0|T_Flop_comp:\T_flop_part:8:actual_flop|not_op  ; Merged with T_Flop:flop_0|T_Flop_comp:\T_flop_part:8:actual_flop|op  ;
; T_Flop:flop_0|T_Flop_comp:\T_flop_part:7:actual_flop|not_op  ; Merged with T_Flop:flop_0|T_Flop_comp:\T_flop_part:7:actual_flop|op  ;
; T_Flop:flop_0|T_Flop_comp:\T_flop_part:6:actual_flop|not_op  ; Merged with T_Flop:flop_0|T_Flop_comp:\T_flop_part:6:actual_flop|op  ;
; T_Flop:flop_0|T_Flop_comp:\T_flop_part:5:actual_flop|not_op  ; Merged with T_Flop:flop_0|T_Flop_comp:\T_flop_part:5:actual_flop|op  ;
; T_Flop:flop_0|T_Flop_comp:\T_flop_part:4:actual_flop|not_op  ; Merged with T_Flop:flop_0|T_Flop_comp:\T_flop_part:4:actual_flop|op  ;
; T_Flop:flop_0|T_Flop_comp:\T_flop_part:3:actual_flop|not_op  ; Merged with T_Flop:flop_0|T_Flop_comp:\T_flop_part:3:actual_flop|op  ;
; T_Flop:flop_0|T_Flop_comp:\T_flop_part:2:actual_flop|not_op  ; Merged with T_Flop:flop_0|T_Flop_comp:\T_flop_part:2:actual_flop|op  ;
; T_Flop:flop_0|T_Flop_comp:\T_flop_part:1:actual_flop|not_op  ; Merged with T_Flop:flop_0|T_Flop_comp:\T_flop_part:1:actual_flop|op  ;
; T_Flop:flop_0|T_Flop_comp:\T_flop_part:0:actual_flop|not_op  ; Merged with T_Flop:flop_0|T_Flop_comp:\T_flop_part:0:actual_flop|op  ;
; Total Number of Removed Registers = 16                       ;                                                                      ;
+--------------------------------------------------------------+----------------------------------------------------------------------+


+------------------------------------------------------+
; General Register Statistics                          ;
+----------------------------------------------+-------+
; Statistic                                    ; Value ;
+----------------------------------------------+-------+
; Total registers                              ; 18    ;
; Number of registers using Synchronous Clear  ; 0     ;
; Number of registers using Synchronous Load   ; 0     ;
; Number of registers using Asynchronous Clear ; 18    ;
; Number of registers using Asynchronous Load  ; 0     ;
; Number of registers using Clock Enable       ; 2     ;
; Number of registers using Preset             ; 0     ;
+----------------------------------------------+-------+


+------------------------------------------------------------------------+
; Inverted Register Statistics                                           ;
+--------------------------------------------------------------+---------+
; Inverted Register                                            ; Fan out ;
+--------------------------------------------------------------+---------+
; T_Flop:flop_0|T_Flop_comp:\T_flop_part:16:actual_flop|not_op ; 2       ;
; Total number of inverted registers = 1                       ;         ;
+--------------------------------------------------------------+---------+


+---------------------------------------------------------------------------------+
; Parameter Settings for User Entity Instance: Top-level Entity: |counters_struct ;
+----------------+-------+--------------------------------------------------------+
; Parameter Name ; Value ; Type                                                   ;
+----------------+-------+--------------------------------------------------------+
; count_len      ; 16    ; Signed Integer                                         ;
+----------------+-------+--------------------------------------------------------+
Note: In order to hide this table in the UI and the text report file, please set the "Show Parameter Settings Tables in Synthesis Report" option in "Analysis and Synthesis Settings -> More Settings" to "Off".


+------------------------------------------------------------+
; Parameter Settings for User Entity Instance: T_Flop:flop_0 ;
+----------------+-------+-----------------------------------+
; Parameter Name ; Value ; Type                              ;
+----------------+-------+-----------------------------------+
; count_len      ; 16    ; Signed Integer                    ;
+----------------+-------+-----------------------------------+
Note: In order to hide this table in the UI and the text report file, please set the "Show Parameter Settings Tables in Synthesis Report" option in "Analysis and Synthesis Settings -> More Settings" to "Off".


+-------------------------------+
; Analysis & Synthesis Messages ;
+-------------------------------+
Info: *******************************************************************
Info: Running Quartus II Analysis & Synthesis
    Info: Version 9.1 Build 350 03/24/2010 Service Pack 2 SJ Full Version
    Info: Processing started: Wed Apr 26 15:27:03 2017
Info: Command: quartus_map --read_settings_files=on --write_settings_files=off counters_struct -c counters_struct
Info: Parallel compilation is enabled and will use 4 of the 4 processors detected
Info: Found 6 design units, including 3 entities, in source file counters_struct.vhd
    Info: Found design unit 1: counters_struct-structure
    Info: Found design unit 2: T_Flop-flop_behav
    Info: Found design unit 3: T_Flop_comp-arch
    Info: Found entity 1: counters_struct
    Info: Found entity 2: T_Flop
    Info: Found entity 3: T_Flop_comp
Info: Elaborating entity "counters_struct" for the top level hierarchy
Info: Elaborating entity "T_Flop" for hierarchy "T_Flop:flop_0"
Info: Elaborating entity "T_Flop_comp" for hierarchy "T_Flop:flop_0|T_Flop_comp:\T_flop_part:0:actual_flop"
Info: Registers with preset signals will power-up high
Info: DEV_CLRn pin will set, and not reset, register with preset signal due to NOT Gate Push-Back
Info: Implemented 45 device resources after synthesis - the final resource count might be different
    Info: Implemented 3 input pins
    Info: Implemented 17 output pins
    Info: Implemented 25 logic cells
Info: Quartus II Analysis & Synthesis was successful. 0 errors, 0 warnings
    Info: Peak virtual memory: 247 megabytes
    Info: Processing ended: Wed Apr 26 15:27:08 2017
    Info: Elapsed time: 00:00:05
    Info: Total CPU time (on all processors): 00:00:01


