Simulator report for counters_struct
Sun Apr 16 14:52:52 2017
Quartus II Version 9.0 Build 184 04/29/2009 Service Pack 1 SJ Web Edition


---------------------
; Table of Contents ;
---------------------
  1. Legal Notice
  2. Simulator Summary
  3. Simulator Settings
  4. Simulation Waveforms
  5. Coverage Summary
  6. Complete 1/0-Value Coverage
  7. Missing 1-Value Coverage
  8. Missing 0-Value Coverage
  9. Simulator INI Usage
 10. Simulator Messages



----------------
; Legal Notice ;
----------------
Copyright (C) 1991-2009 Altera Corporation
Your use of Altera Corporation's design tools, logic functions 
and other software and tools, and its AMPP partner logic 
functions, and any output files from any of the foregoing 
(including device programming or simulation files), and any 
associated documentation or information are expressly subject 
to the terms and conditions of the Altera Program License 
Subscription Agreement, Altera MegaCore Function License 
Agreement, or other applicable license agreement, including, 
without limitation, that your use is for the sole purpose of 
programming logic devices manufactured by Altera and sold by 
Altera or its authorized distributors.  Please refer to the 
applicable agreement for further details.



+--------------------------------------------+
; Simulator Summary                          ;
+-----------------------------+--------------+
; Type                        ; Value        ;
+-----------------------------+--------------+
; Simulation Start Time       ; 0 ps         ;
; Simulation End Time         ; 1.0 us       ;
; Simulation Netlist Size     ; 66 nodes     ;
; Simulation Coverage         ;      39.39 % ;
; Total Number of Transitions ; 1160         ;
; Simulation Breakpoints      ; 0            ;
; Family                      ; Cyclone II   ;
+-----------------------------+--------------+


+-------------------------------------------------------------------------------------------------------------------------+
; Simulator Settings                                                                                                      ;
+--------------------------------------------------------------------------------------------+------------+---------------+
; Option                                                                                     ; Setting    ; Default Value ;
+--------------------------------------------------------------------------------------------+------------+---------------+
; Simulation mode                                                                            ; Functional ; Timing        ;
; Start time                                                                                 ; 0 ns       ; 0 ns          ;
; Simulation results format                                                                  ; CVWF       ;               ;
; Add pins automatically to simulation output waveforms                                      ; On         ; On            ;
; Check outputs                                                                              ; Off        ; Off           ;
; Report simulation coverage                                                                 ; On         ; On            ;
; Display complete 1/0 value coverage report                                                 ; On         ; On            ;
; Display missing 1-value coverage report                                                    ; On         ; On            ;
; Display missing 0-value coverage report                                                    ; On         ; On            ;
; Detect setup and hold time violations                                                      ; Off        ; Off           ;
; Detect glitches                                                                            ; Off        ; Off           ;
; Disable timing delays in Timing Simulation                                                 ; Off        ; Off           ;
; Generate Signal Activity File                                                              ; Off        ; Off           ;
; Generate VCD File for PowerPlay Power Analyzer                                             ; Off        ; Off           ;
; Group bus channels in simulation results                                                   ; Off        ; Off           ;
; Preserve fewer signal transitions to reduce memory requirements                            ; On         ; On            ;
; Trigger vector comparison with the specified mode                                          ; INPUT_EDGE ; INPUT_EDGE    ;
; Disable setup and hold time violations detection in input registers of bi-directional pins ; Off        ; Off           ;
; Overwrite Waveform Inputs With Simulation Outputs                                          ; Off        ;               ;
; Perform Glitch Filtering in Timing Simulation                                              ; Auto       ; Auto          ;
+--------------------------------------------------------------------------------------------+------------+---------------+


+----------------------+
; Simulation Waveforms ;
+----------------------+
Waveform report data cannot be output to ASCII.
Please use Quartus II to view the waveform report data.


+--------------------------------------------------------------------+
; Coverage Summary                                                   ;
+-----------------------------------------------------+--------------+
; Type                                                ; Value        ;
+-----------------------------------------------------+--------------+
; Total coverage as a percentage                      ;      39.39 % ;
; Total nodes checked                                 ; 66           ;
; Total output ports checked                          ; 66           ;
; Total output ports with complete 1/0-value coverage ; 26           ;
; Total output ports with no 1/0-value coverage       ; 37           ;
; Total output ports with no 1-value coverage         ; 38           ;
; Total output ports with no 0-value coverage         ; 39           ;
+-----------------------------------------------------+--------------+


The following table displays output ports that toggle between 1 and 0 during simulation.
+--------------------------------------------------------------------------------------------------------------------------------------------------------------------------------+
; Complete 1/0-Value Coverage                                                                                                                                                    ;
+------------------------------------------------------------------------------+------------------------------------------------------------------------------+------------------+
; Node Name                                                                    ; Output Port Name                                                             ; Output Port Type ;
+------------------------------------------------------------------------------+------------------------------------------------------------------------------+------------------+
; |counters_struct|Clk                                                         ; |counters_struct|Clk                                                         ; out              ;
; |counters_struct|Count[0]                                                    ; |counters_struct|Count[0]                                                    ; pin_out          ;
; |counters_struct|Count[1]                                                    ; |counters_struct|Count[1]                                                    ; pin_out          ;
; |counters_struct|Count[2]                                                    ; |counters_struct|Count[2]                                                    ; pin_out          ;
; |counters_struct|Count[3]                                                    ; |counters_struct|Count[3]                                                    ; pin_out          ;
; |counters_struct|Count[4]                                                    ; |counters_struct|Count[4]                                                    ; pin_out          ;
; |counters_struct|Count[5]                                                    ; |counters_struct|Count[5]                                                    ; pin_out          ;
; |counters_struct|T_Flop:flop_0|en_vector[1]                                  ; |counters_struct|T_Flop:flop_0|en_vector[1]                                  ; out0             ;
; |counters_struct|T_Flop:flop_0|en_vector[2]                                  ; |counters_struct|T_Flop:flop_0|en_vector[2]                                  ; out0             ;
; |counters_struct|T_Flop:flop_0|en_vector[3]                                  ; |counters_struct|T_Flop:flop_0|en_vector[3]                                  ; out0             ;
; |counters_struct|T_Flop:flop_0|en_vector[4]                                  ; |counters_struct|T_Flop:flop_0|en_vector[4]                                  ; out0             ;
; |counters_struct|T_Flop:flop_0|en_vector[5]                                  ; |counters_struct|T_Flop:flop_0|en_vector[5]                                  ; out0             ;
; |counters_struct|T_Flop:flop_0|en_vector[6]                                  ; |counters_struct|T_Flop:flop_0|en_vector[6]                                  ; out0             ;
; |counters_struct|T_Flop:flop_0|en_vector[7]                                  ; |counters_struct|T_Flop:flop_0|en_vector[7]                                  ; out0             ;
; |counters_struct|T_Flop:flop_0|T_Flop_comp:\T_flop_part:5:actual_flop|op     ; |counters_struct|T_Flop:flop_0|T_Flop_comp:\T_flop_part:5:actual_flop|op     ; regout           ;
; |counters_struct|T_Flop:flop_0|T_Flop_comp:\T_flop_part:5:actual_flop|not_op ; |counters_struct|T_Flop:flop_0|T_Flop_comp:\T_flop_part:5:actual_flop|not_op ; regout           ;
; |counters_struct|T_Flop:flop_0|T_Flop_comp:\T_flop_part:4:actual_flop|op     ; |counters_struct|T_Flop:flop_0|T_Flop_comp:\T_flop_part:4:actual_flop|op     ; regout           ;
; |counters_struct|T_Flop:flop_0|T_Flop_comp:\T_flop_part:4:actual_flop|not_op ; |counters_struct|T_Flop:flop_0|T_Flop_comp:\T_flop_part:4:actual_flop|not_op ; regout           ;
; |counters_struct|T_Flop:flop_0|T_Flop_comp:\T_flop_part:3:actual_flop|op     ; |counters_struct|T_Flop:flop_0|T_Flop_comp:\T_flop_part:3:actual_flop|op     ; regout           ;
; |counters_struct|T_Flop:flop_0|T_Flop_comp:\T_flop_part:3:actual_flop|not_op ; |counters_struct|T_Flop:flop_0|T_Flop_comp:\T_flop_part:3:actual_flop|not_op ; regout           ;
; |counters_struct|T_Flop:flop_0|T_Flop_comp:\T_flop_part:2:actual_flop|op     ; |counters_struct|T_Flop:flop_0|T_Flop_comp:\T_flop_part:2:actual_flop|op     ; regout           ;
; |counters_struct|T_Flop:flop_0|T_Flop_comp:\T_flop_part:2:actual_flop|not_op ; |counters_struct|T_Flop:flop_0|T_Flop_comp:\T_flop_part:2:actual_flop|not_op ; regout           ;
; |counters_struct|T_Flop:flop_0|T_Flop_comp:\T_flop_part:1:actual_flop|op     ; |counters_struct|T_Flop:flop_0|T_Flop_comp:\T_flop_part:1:actual_flop|op     ; regout           ;
; |counters_struct|T_Flop:flop_0|T_Flop_comp:\T_flop_part:1:actual_flop|not_op ; |counters_struct|T_Flop:flop_0|T_Flop_comp:\T_flop_part:1:actual_flop|not_op ; regout           ;
; |counters_struct|T_Flop:flop_0|T_Flop_comp:\T_flop_part:0:actual_flop|op     ; |counters_struct|T_Flop:flop_0|T_Flop_comp:\T_flop_part:0:actual_flop|op     ; regout           ;
; |counters_struct|T_Flop:flop_0|T_Flop_comp:\T_flop_part:0:actual_flop|not_op ; |counters_struct|T_Flop:flop_0|T_Flop_comp:\T_flop_part:0:actual_flop|not_op ; regout           ;
+------------------------------------------------------------------------------+------------------------------------------------------------------------------+------------------+


The following table displays output ports that do not toggle to 1 during simulation.
+----------------------------------------------------------------------------------------------------------------------------------------------------------------------------------+
; Missing 1-Value Coverage                                                                                                                                                         ;
+-------------------------------------------------------------------------------+-------------------------------------------------------------------------------+------------------+
; Node Name                                                                     ; Output Port Name                                                              ; Output Port Type ;
+-------------------------------------------------------------------------------+-------------------------------------------------------------------------------+------------------+
; |counters_struct|En                                                           ; |counters_struct|En                                                           ; out              ;
; |counters_struct|Rst                                                          ; |counters_struct|Rst                                                          ; out              ;
; |counters_struct|Count[7]                                                     ; |counters_struct|Count[7]                                                     ; pin_out          ;
; |counters_struct|Count[8]                                                     ; |counters_struct|Count[8]                                                     ; pin_out          ;
; |counters_struct|Count[9]                                                     ; |counters_struct|Count[9]                                                     ; pin_out          ;
; |counters_struct|Count[10]                                                    ; |counters_struct|Count[10]                                                    ; pin_out          ;
; |counters_struct|Count[11]                                                    ; |counters_struct|Count[11]                                                    ; pin_out          ;
; |counters_struct|Count[12]                                                    ; |counters_struct|Count[12]                                                    ; pin_out          ;
; |counters_struct|Count[13]                                                    ; |counters_struct|Count[13]                                                    ; pin_out          ;
; |counters_struct|Count[14]                                                    ; |counters_struct|Count[14]                                                    ; pin_out          ;
; |counters_struct|Count[15]                                                    ; |counters_struct|Count[15]                                                    ; pin_out          ;
; |counters_struct|T_Flop:flop_0|en_vector[8]                                   ; |counters_struct|T_Flop:flop_0|en_vector[8]                                   ; out0             ;
; |counters_struct|T_Flop:flop_0|en_vector[9]                                   ; |counters_struct|T_Flop:flop_0|en_vector[9]                                   ; out0             ;
; |counters_struct|T_Flop:flop_0|en_vector[10]                                  ; |counters_struct|T_Flop:flop_0|en_vector[10]                                  ; out0             ;
; |counters_struct|T_Flop:flop_0|en_vector[11]                                  ; |counters_struct|T_Flop:flop_0|en_vector[11]                                  ; out0             ;
; |counters_struct|T_Flop:flop_0|en_vector[12]                                  ; |counters_struct|T_Flop:flop_0|en_vector[12]                                  ; out0             ;
; |counters_struct|T_Flop:flop_0|en_vector[13]                                  ; |counters_struct|T_Flop:flop_0|en_vector[13]                                  ; out0             ;
; |counters_struct|T_Flop:flop_0|en_vector[14]                                  ; |counters_struct|T_Flop:flop_0|en_vector[14]                                  ; out0             ;
; |counters_struct|T_Flop:flop_0|en_vector[15]                                  ; |counters_struct|T_Flop:flop_0|en_vector[15]                                  ; out0             ;
; |counters_struct|T_Flop:flop_0|T_Flop_comp:\T_flop_part:15:actual_flop|op     ; |counters_struct|T_Flop:flop_0|T_Flop_comp:\T_flop_part:15:actual_flop|op     ; regout           ;
; |counters_struct|T_Flop:flop_0|T_Flop_comp:\T_flop_part:15:actual_flop|not_op ; |counters_struct|T_Flop:flop_0|T_Flop_comp:\T_flop_part:15:actual_flop|not_op ; regout           ;
; |counters_struct|T_Flop:flop_0|T_Flop_comp:\T_flop_part:14:actual_flop|op     ; |counters_struct|T_Flop:flop_0|T_Flop_comp:\T_flop_part:14:actual_flop|op     ; regout           ;
; |counters_struct|T_Flop:flop_0|T_Flop_comp:\T_flop_part:14:actual_flop|not_op ; |counters_struct|T_Flop:flop_0|T_Flop_comp:\T_flop_part:14:actual_flop|not_op ; regout           ;
; |counters_struct|T_Flop:flop_0|T_Flop_comp:\T_flop_part:13:actual_flop|op     ; |counters_struct|T_Flop:flop_0|T_Flop_comp:\T_flop_part:13:actual_flop|op     ; regout           ;
; |counters_struct|T_Flop:flop_0|T_Flop_comp:\T_flop_part:13:actual_flop|not_op ; |counters_struct|T_Flop:flop_0|T_Flop_comp:\T_flop_part:13:actual_flop|not_op ; regout           ;
; |counters_struct|T_Flop:flop_0|T_Flop_comp:\T_flop_part:12:actual_flop|op     ; |counters_struct|T_Flop:flop_0|T_Flop_comp:\T_flop_part:12:actual_flop|op     ; regout           ;
; |counters_struct|T_Flop:flop_0|T_Flop_comp:\T_flop_part:12:actual_flop|not_op ; |counters_struct|T_Flop:flop_0|T_Flop_comp:\T_flop_part:12:actual_flop|not_op ; regout           ;
; |counters_struct|T_Flop:flop_0|T_Flop_comp:\T_flop_part:11:actual_flop|op     ; |counters_struct|T_Flop:flop_0|T_Flop_comp:\T_flop_part:11:actual_flop|op     ; regout           ;
; |counters_struct|T_Flop:flop_0|T_Flop_comp:\T_flop_part:11:actual_flop|not_op ; |counters_struct|T_Flop:flop_0|T_Flop_comp:\T_flop_part:11:actual_flop|not_op ; regout           ;
; |counters_struct|T_Flop:flop_0|T_Flop_comp:\T_flop_part:10:actual_flop|op     ; |counters_struct|T_Flop:flop_0|T_Flop_comp:\T_flop_part:10:actual_flop|op     ; regout           ;
; |counters_struct|T_Flop:flop_0|T_Flop_comp:\T_flop_part:10:actual_flop|not_op ; |counters_struct|T_Flop:flop_0|T_Flop_comp:\T_flop_part:10:actual_flop|not_op ; regout           ;
; |counters_struct|T_Flop:flop_0|T_Flop_comp:\T_flop_part:9:actual_flop|op      ; |counters_struct|T_Flop:flop_0|T_Flop_comp:\T_flop_part:9:actual_flop|op      ; regout           ;
; |counters_struct|T_Flop:flop_0|T_Flop_comp:\T_flop_part:9:actual_flop|not_op  ; |counters_struct|T_Flop:flop_0|T_Flop_comp:\T_flop_part:9:actual_flop|not_op  ; regout           ;
; |counters_struct|T_Flop:flop_0|T_Flop_comp:\T_flop_part:8:actual_flop|op      ; |counters_struct|T_Flop:flop_0|T_Flop_comp:\T_flop_part:8:actual_flop|op      ; regout           ;
; |counters_struct|T_Flop:flop_0|T_Flop_comp:\T_flop_part:8:actual_flop|not_op  ; |counters_struct|T_Flop:flop_0|T_Flop_comp:\T_flop_part:8:actual_flop|not_op  ; regout           ;
; |counters_struct|T_Flop:flop_0|T_Flop_comp:\T_flop_part:7:actual_flop|op      ; |counters_struct|T_Flop:flop_0|T_Flop_comp:\T_flop_part:7:actual_flop|op      ; regout           ;
; |counters_struct|T_Flop:flop_0|T_Flop_comp:\T_flop_part:7:actual_flop|not_op  ; |counters_struct|T_Flop:flop_0|T_Flop_comp:\T_flop_part:7:actual_flop|not_op  ; regout           ;
; |counters_struct|T_Flop:flop_0|T_Flop_comp:\T_flop_part:6:actual_flop|not_op  ; |counters_struct|T_Flop:flop_0|T_Flop_comp:\T_flop_part:6:actual_flop|not_op  ; regout           ;
+-------------------------------------------------------------------------------+-------------------------------------------------------------------------------+------------------+


The following table displays output ports that do not toggle to 0 during simulation.
+----------------------------------------------------------------------------------------------------------------------------------------------------------------------------------+
; Missing 0-Value Coverage                                                                                                                                                         ;
+-------------------------------------------------------------------------------+-------------------------------------------------------------------------------+------------------+
; Node Name                                                                     ; Output Port Name                                                              ; Output Port Type ;
+-------------------------------------------------------------------------------+-------------------------------------------------------------------------------+------------------+
; |counters_struct|En                                                           ; |counters_struct|En                                                           ; out              ;
; |counters_struct|Rst                                                          ; |counters_struct|Rst                                                          ; out              ;
; |counters_struct|Count[6]                                                     ; |counters_struct|Count[6]                                                     ; pin_out          ;
; |counters_struct|Count[7]                                                     ; |counters_struct|Count[7]                                                     ; pin_out          ;
; |counters_struct|Count[8]                                                     ; |counters_struct|Count[8]                                                     ; pin_out          ;
; |counters_struct|Count[9]                                                     ; |counters_struct|Count[9]                                                     ; pin_out          ;
; |counters_struct|Count[10]                                                    ; |counters_struct|Count[10]                                                    ; pin_out          ;
; |counters_struct|Count[11]                                                    ; |counters_struct|Count[11]                                                    ; pin_out          ;
; |counters_struct|Count[12]                                                    ; |counters_struct|Count[12]                                                    ; pin_out          ;
; |counters_struct|Count[13]                                                    ; |counters_struct|Count[13]                                                    ; pin_out          ;
; |counters_struct|Count[14]                                                    ; |counters_struct|Count[14]                                                    ; pin_out          ;
; |counters_struct|Count[15]                                                    ; |counters_struct|Count[15]                                                    ; pin_out          ;
; |counters_struct|T_Flop:flop_0|en_vector[8]                                   ; |counters_struct|T_Flop:flop_0|en_vector[8]                                   ; out0             ;
; |counters_struct|T_Flop:flop_0|en_vector[9]                                   ; |counters_struct|T_Flop:flop_0|en_vector[9]                                   ; out0             ;
; |counters_struct|T_Flop:flop_0|en_vector[10]                                  ; |counters_struct|T_Flop:flop_0|en_vector[10]                                  ; out0             ;
; |counters_struct|T_Flop:flop_0|en_vector[11]                                  ; |counters_struct|T_Flop:flop_0|en_vector[11]                                  ; out0             ;
; |counters_struct|T_Flop:flop_0|en_vector[12]                                  ; |counters_struct|T_Flop:flop_0|en_vector[12]                                  ; out0             ;
; |counters_struct|T_Flop:flop_0|en_vector[13]                                  ; |counters_struct|T_Flop:flop_0|en_vector[13]                                  ; out0             ;
; |counters_struct|T_Flop:flop_0|en_vector[14]                                  ; |counters_struct|T_Flop:flop_0|en_vector[14]                                  ; out0             ;
; |counters_struct|T_Flop:flop_0|en_vector[15]                                  ; |counters_struct|T_Flop:flop_0|en_vector[15]                                  ; out0             ;
; |counters_struct|T_Flop:flop_0|T_Flop_comp:\T_flop_part:15:actual_flop|op     ; |counters_struct|T_Flop:flop_0|T_Flop_comp:\T_flop_part:15:actual_flop|op     ; regout           ;
; |counters_struct|T_Flop:flop_0|T_Flop_comp:\T_flop_part:15:actual_flop|not_op ; |counters_struct|T_Flop:flop_0|T_Flop_comp:\T_flop_part:15:actual_flop|not_op ; regout           ;
; |counters_struct|T_Flop:flop_0|T_Flop_comp:\T_flop_part:14:actual_flop|op     ; |counters_struct|T_Flop:flop_0|T_Flop_comp:\T_flop_part:14:actual_flop|op     ; regout           ;
; |counters_struct|T_Flop:flop_0|T_Flop_comp:\T_flop_part:14:actual_flop|not_op ; |counters_struct|T_Flop:flop_0|T_Flop_comp:\T_flop_part:14:actual_flop|not_op ; regout           ;
; |counters_struct|T_Flop:flop_0|T_Flop_comp:\T_flop_part:13:actual_flop|op     ; |counters_struct|T_Flop:flop_0|T_Flop_comp:\T_flop_part:13:actual_flop|op     ; regout           ;
; |counters_struct|T_Flop:flop_0|T_Flop_comp:\T_flop_part:13:actual_flop|not_op ; |counters_struct|T_Flop:flop_0|T_Flop_comp:\T_flop_part:13:actual_flop|not_op ; regout           ;
; |counters_struct|T_Flop:flop_0|T_Flop_comp:\T_flop_part:12:actual_flop|op     ; |counters_struct|T_Flop:flop_0|T_Flop_comp:\T_flop_part:12:actual_flop|op     ; regout           ;
; |counters_struct|T_Flop:flop_0|T_Flop_comp:\T_flop_part:12:actual_flop|not_op ; |counters_struct|T_Flop:flop_0|T_Flop_comp:\T_flop_part:12:actual_flop|not_op ; regout           ;
; |counters_struct|T_Flop:flop_0|T_Flop_comp:\T_flop_part:11:actual_flop|op     ; |counters_struct|T_Flop:flop_0|T_Flop_comp:\T_flop_part:11:actual_flop|op     ; regout           ;
; |counters_struct|T_Flop:flop_0|T_Flop_comp:\T_flop_part:11:actual_flop|not_op ; |counters_struct|T_Flop:flop_0|T_Flop_comp:\T_flop_part:11:actual_flop|not_op ; regout           ;
; |counters_struct|T_Flop:flop_0|T_Flop_comp:\T_flop_part:10:actual_flop|op     ; |counters_struct|T_Flop:flop_0|T_Flop_comp:\T_flop_part:10:actual_flop|op     ; regout           ;
; |counters_struct|T_Flop:flop_0|T_Flop_comp:\T_flop_part:10:actual_flop|not_op ; |counters_struct|T_Flop:flop_0|T_Flop_comp:\T_flop_part:10:actual_flop|not_op ; regout           ;
; |counters_struct|T_Flop:flop_0|T_Flop_comp:\T_flop_part:9:actual_flop|op      ; |counters_struct|T_Flop:flop_0|T_Flop_comp:\T_flop_part:9:actual_flop|op      ; regout           ;
; |counters_struct|T_Flop:flop_0|T_Flop_comp:\T_flop_part:9:actual_flop|not_op  ; |counters_struct|T_Flop:flop_0|T_Flop_comp:\T_flop_part:9:actual_flop|not_op  ; regout           ;
; |counters_struct|T_Flop:flop_0|T_Flop_comp:\T_flop_part:8:actual_flop|op      ; |counters_struct|T_Flop:flop_0|T_Flop_comp:\T_flop_part:8:actual_flop|op      ; regout           ;
; |counters_struct|T_Flop:flop_0|T_Flop_comp:\T_flop_part:8:actual_flop|not_op  ; |counters_struct|T_Flop:flop_0|T_Flop_comp:\T_flop_part:8:actual_flop|not_op  ; regout           ;
; |counters_struct|T_Flop:flop_0|T_Flop_comp:\T_flop_part:7:actual_flop|op      ; |counters_struct|T_Flop:flop_0|T_Flop_comp:\T_flop_part:7:actual_flop|op      ; regout           ;
; |counters_struct|T_Flop:flop_0|T_Flop_comp:\T_flop_part:7:actual_flop|not_op  ; |counters_struct|T_Flop:flop_0|T_Flop_comp:\T_flop_part:7:actual_flop|not_op  ; regout           ;
; |counters_struct|T_Flop:flop_0|T_Flop_comp:\T_flop_part:6:actual_flop|op      ; |counters_struct|T_Flop:flop_0|T_Flop_comp:\T_flop_part:6:actual_flop|op      ; regout           ;
+-------------------------------------------------------------------------------+-------------------------------------------------------------------------------+------------------+


+---------------------+
; Simulator INI Usage ;
+--------+------------+
; Option ; Usage      ;
+--------+------------+


+--------------------+
; Simulator Messages ;
+--------------------+
Info: *******************************************************************
Info: Running Quartus II Simulator
    Info: Version 9.0 Build 184 04/29/2009 Service Pack 1 SJ Web Edition
    Info: Processing started: Sun Apr 16 14:52:51 2017
Info: Command: quartus_sim --read_settings_files=on --write_settings_files=off counters_struct -c counters_struct
Info: Using vector source file "C:/Users/Sulz/workspace/advanced-digital-design/lab2/lab2_counters_structural/counters_struct.vwf"
Info: Option to preserve fewer signal transitions to reduce memory requirements is enabled
    Info: Simulation has been partitioned into sub-simulations according to the maximum transition count determined by the engine. Transitions from memory will be flushed out to disk at the end of each sub-simulation to reduce memory requirements.
Info: Simulation partitioned into 1 sub-simulations
Info: Simulation coverage is      39.39 %
Info: Number of transitions in simulation is 1160
Info: Quartus II Simulator was successful. 0 errors, 0 warnings
    Info: Peak virtual memory: 168 megabytes
    Info: Processing ended: Sun Apr 16 14:52:52 2017
    Info: Elapsed time: 00:00:01
    Info: Total CPU time (on all processors): 00:00:00


