Classic Timing Analyzer report for BCD_again
Wed Apr 26 12:01:42 2017
Quartus II Version 9.1 Build 350 03/24/2010 Service Pack 2 SJ Full Version


---------------------
; Table of Contents ;
---------------------
  1. Legal Notice
  2. Timing Analyzer Summary
  3. Timing Analyzer Settings
  4. Clock Settings Summary
  5. Parallel Compilation
  6. Clock Setup: 'CLOCK_50'
  7. tco
  8. Timing Analyzer Messages



----------------
; Legal Notice ;
----------------
Copyright (C) 1991-2010 Altera Corporation
Your use of Altera Corporation's design tools, logic functions 
and other software and tools, and its AMPP partner logic 
functions, and any output files from any of the foregoing 
(including device programming or simulation files), and any 
associated documentation or information are expressly subject 
to the terms and conditions of the Altera Program License 
Subscription Agreement, Altera MegaCore Function License 
Agreement, or other applicable license agreement, including, 
without limitation, that your use is for the sole purpose of 
programming logic devices manufactured by Altera and sold by 
Altera or its authorized distributors.  Please refer to the 
applicable agreement for further details.



+----------------------------------------------------------------------------------------------------------------------------------------------------------------------+
; Timing Analyzer Summary                                                                                                                                              ;
+------------------------------+-------+---------------+----------------------------------+------------------+------------------+------------+----------+--------------+
; Type                         ; Slack ; Required Time ; Actual Time                      ; From             ; To               ; From Clock ; To Clock ; Failed Paths ;
+------------------------------+-------+---------------+----------------------------------+------------------+------------------+------------+----------+--------------+
; Worst-case tco               ; N/A   ; None          ; 12.010 ns                        ; count_val_hun[3] ; Count_hun[3]     ; CLOCK_50   ; --       ; 0            ;
; Clock Setup: 'CLOCK_50'      ; N/A   ; None          ; 305.25 MHz ( period = 3.276 ns ) ; count_val_ten[3] ; count_val_hun[0] ; CLOCK_50   ; CLOCK_50 ; 0            ;
; Total number of failed paths ;       ;               ;                                  ;                  ;                  ;            ;          ; 0            ;
+------------------------------+-------+---------------+----------------------------------+------------------+------------------+------------+----------+--------------+


+-----------------------------------------------------------------------------------------------------------------------------------------------------+
; Timing Analyzer Settings                                                                                                                            ;
+------------------------------------------------------------------------------------------------------+--------------------+------+----+-------------+
; Option                                                                                               ; Setting            ; From ; To ; Entity Name ;
+------------------------------------------------------------------------------------------------------+--------------------+------+----+-------------+
; Device Name                                                                                          ; EP2C20F484C7       ;      ;    ;             ;
; Timing Models                                                                                        ; Final              ;      ;    ;             ;
; Default hold multicycle                                                                              ; Same as Multicycle ;      ;    ;             ;
; Cut paths between unrelated clock domains                                                            ; On                 ;      ;    ;             ;
; Cut off read during write signal paths                                                               ; On                 ;      ;    ;             ;
; Cut off feedback from I/O pins                                                                       ; On                 ;      ;    ;             ;
; Report Combined Fast/Slow Timing                                                                     ; Off                ;      ;    ;             ;
; Ignore Clock Settings                                                                                ; Off                ;      ;    ;             ;
; Analyze latches as synchronous elements                                                              ; On                 ;      ;    ;             ;
; Enable Recovery/Removal analysis                                                                     ; Off                ;      ;    ;             ;
; Enable Clock Latency                                                                                 ; Off                ;      ;    ;             ;
; Use TimeQuest Timing Analyzer                                                                        ; Off                ;      ;    ;             ;
; Minimum Core Junction Temperature                                                                    ; 0                  ;      ;    ;             ;
; Maximum Core Junction Temperature                                                                    ; 85                 ;      ;    ;             ;
; Number of source nodes to report per destination node                                                ; 10                 ;      ;    ;             ;
; Number of destination nodes to report                                                                ; 10                 ;      ;    ;             ;
; Number of paths to report                                                                            ; 200                ;      ;    ;             ;
; Report Minimum Timing Checks                                                                         ; Off                ;      ;    ;             ;
; Use Fast Timing Models                                                                               ; Off                ;      ;    ;             ;
; Report IO Paths Separately                                                                           ; Off                ;      ;    ;             ;
; Perform Multicorner Analysis                                                                         ; On                 ;      ;    ;             ;
; Reports the worst-case path for each clock domain and analysis                                       ; Off                ;      ;    ;             ;
; Reports worst-case timing paths for each clock domain and analysis                                   ; On                 ;      ;    ;             ;
; Specifies the maximum number of worst-case timing paths to report for each clock domain and analysis ; 100                ;      ;    ;             ;
; Removes common clock path pessimism (CCPP) during slack computation                                  ; Off                ;      ;    ;             ;
; Output I/O Timing Endpoint                                                                           ; Near End           ;      ;    ;             ;
+------------------------------------------------------------------------------------------------------+--------------------+------+----+-------------+


+------------------------------------------------------------------------------------------------------------------------------------------------------------------------------------+
; Clock Settings Summary                                                                                                                                                             ;
+-----------------+--------------------+----------+------------------+---------------+--------------+----------+-----------------------+---------------------+--------+--------------+
; Clock Node Name ; Clock Setting Name ; Type     ; Fmax Requirement ; Early Latency ; Late Latency ; Based on ; Multiply Base Fmax by ; Divide Base Fmax by ; Offset ; Phase offset ;
+-----------------+--------------------+----------+------------------+---------------+--------------+----------+-----------------------+---------------------+--------+--------------+
; CLOCK_50        ;                    ; User Pin ; None             ; 0.000 ns      ; 0.000 ns     ; --       ; N/A                   ; N/A                 ; N/A    ;              ;
+-----------------+--------------------+----------+------------------+---------------+--------------+----------+-----------------------+---------------------+--------+--------------+


+------------------------------------------+
; Parallel Compilation                     ;
+----------------------------+-------------+
; Processors                 ; Number      ;
+----------------------------+-------------+
; Number detected on machine ; 4           ;
; Maximum allowed            ; 4           ;
;                            ;             ;
; Average used               ; 1.00        ;
; Maximum used               ; 1           ;
;                            ;             ;
; Usage by Processor         ; % Time Used ;
;     1 processor            ; 100.0%      ;
;     2-4 processors         ;   0.0%      ;
+----------------------------+-------------+


+------------------------------------------------------------------------------------------------------------------------------------------------------------------------------------------------------------+
; Clock Setup: 'CLOCK_50'                                                                                                                                                                                    ;
+-------+------------------------------------------------+-------------------+-------------------+------------+----------+-----------------------------+---------------------------+-------------------------+
; Slack ; Actual fmax (period)                           ; From              ; To                ; From Clock ; To Clock ; Required Setup Relationship ; Required Longest P2P Time ; Actual Longest P2P Time ;
+-------+------------------------------------------------+-------------------+-------------------+------------+----------+-----------------------------+---------------------------+-------------------------+
; N/A   ; 305.25 MHz ( period = 3.276 ns )               ; count_val_ten[3]  ; count_val_hun[3]  ; CLOCK_50   ; CLOCK_50 ; None                        ; None                      ; 3.038 ns                ;
; N/A   ; 305.25 MHz ( period = 3.276 ns )               ; count_val_ten[3]  ; count_val_hun[1]  ; CLOCK_50   ; CLOCK_50 ; None                        ; None                      ; 3.038 ns                ;
; N/A   ; 305.25 MHz ( period = 3.276 ns )               ; count_val_ten[3]  ; count_val_hun[0]  ; CLOCK_50   ; CLOCK_50 ; None                        ; None                      ; 3.038 ns                ;
; N/A   ; 310.27 MHz ( period = 3.223 ns )               ; count_val_unit[1] ; count_val_ten[3]  ; CLOCK_50   ; CLOCK_50 ; None                        ; None                      ; 2.982 ns                ;
; N/A   ; 310.27 MHz ( period = 3.223 ns )               ; count_val_unit[1] ; count_val_ten[1]  ; CLOCK_50   ; CLOCK_50 ; None                        ; None                      ; 2.982 ns                ;
; N/A   ; 310.27 MHz ( period = 3.223 ns )               ; count_val_unit[1] ; count_val_ten[0]  ; CLOCK_50   ; CLOCK_50 ; None                        ; None                      ; 2.982 ns                ;
; N/A   ; 312.40 MHz ( period = 3.201 ns )               ; count_val_ten[1]  ; count_val_hun[3]  ; CLOCK_50   ; CLOCK_50 ; None                        ; None                      ; 2.963 ns                ;
; N/A   ; 312.40 MHz ( period = 3.201 ns )               ; count_val_ten[1]  ; count_val_hun[1]  ; CLOCK_50   ; CLOCK_50 ; None                        ; None                      ; 2.963 ns                ;
; N/A   ; 312.40 MHz ( period = 3.201 ns )               ; count_val_ten[1]  ; count_val_hun[0]  ; CLOCK_50   ; CLOCK_50 ; None                        ; None                      ; 2.963 ns                ;
; N/A   ; 321.23 MHz ( period = 3.113 ns )               ; count_val_unit[3] ; count_val_ten[3]  ; CLOCK_50   ; CLOCK_50 ; None                        ; None                      ; 2.872 ns                ;
; N/A   ; 321.23 MHz ( period = 3.113 ns )               ; count_val_unit[3] ; count_val_ten[1]  ; CLOCK_50   ; CLOCK_50 ; None                        ; None                      ; 2.872 ns                ;
; N/A   ; 321.23 MHz ( period = 3.113 ns )               ; count_val_unit[3] ; count_val_ten[0]  ; CLOCK_50   ; CLOCK_50 ; None                        ; None                      ; 2.872 ns                ;
; N/A   ; 324.89 MHz ( period = 3.078 ns )               ; count_val_unit[1] ; count_val_hun[3]  ; CLOCK_50   ; CLOCK_50 ; None                        ; None                      ; 2.838 ns                ;
; N/A   ; 324.89 MHz ( period = 3.078 ns )               ; count_val_unit[1] ; count_val_hun[1]  ; CLOCK_50   ; CLOCK_50 ; None                        ; None                      ; 2.838 ns                ;
; N/A   ; 324.89 MHz ( period = 3.078 ns )               ; count_val_unit[1] ; count_val_hun[0]  ; CLOCK_50   ; CLOCK_50 ; None                        ; None                      ; 2.838 ns                ;
; N/A   ; 326.16 MHz ( period = 3.066 ns )               ; count_val_ten[0]  ; count_val_hun[3]  ; CLOCK_50   ; CLOCK_50 ; None                        ; None                      ; 2.828 ns                ;
; N/A   ; 326.16 MHz ( period = 3.066 ns )               ; count_val_ten[0]  ; count_val_hun[1]  ; CLOCK_50   ; CLOCK_50 ; None                        ; None                      ; 2.828 ns                ;
; N/A   ; 326.16 MHz ( period = 3.066 ns )               ; count_val_ten[0]  ; count_val_hun[0]  ; CLOCK_50   ; CLOCK_50 ; None                        ; None                      ; 2.828 ns                ;
; N/A   ; 333.78 MHz ( period = 2.996 ns )               ; count_val_unit[0] ; count_val_ten[3]  ; CLOCK_50   ; CLOCK_50 ; None                        ; None                      ; 2.755 ns                ;
; N/A   ; 333.78 MHz ( period = 2.996 ns )               ; count_val_unit[0] ; count_val_ten[1]  ; CLOCK_50   ; CLOCK_50 ; None                        ; None                      ; 2.755 ns                ;
; N/A   ; 333.78 MHz ( period = 2.996 ns )               ; count_val_unit[0] ; count_val_ten[0]  ; CLOCK_50   ; CLOCK_50 ; None                        ; None                      ; 2.755 ns                ;
; N/A   ; 336.93 MHz ( period = 2.968 ns )               ; count_val_unit[3] ; count_val_hun[3]  ; CLOCK_50   ; CLOCK_50 ; None                        ; None                      ; 2.728 ns                ;
; N/A   ; 336.93 MHz ( period = 2.968 ns )               ; count_val_unit[3] ; count_val_hun[1]  ; CLOCK_50   ; CLOCK_50 ; None                        ; None                      ; 2.728 ns                ;
; N/A   ; 336.93 MHz ( period = 2.968 ns )               ; count_val_unit[3] ; count_val_hun[0]  ; CLOCK_50   ; CLOCK_50 ; None                        ; None                      ; 2.728 ns                ;
; N/A   ; 350.75 MHz ( period = 2.851 ns )               ; count_val_unit[0] ; count_val_hun[3]  ; CLOCK_50   ; CLOCK_50 ; None                        ; None                      ; 2.611 ns                ;
; N/A   ; 350.75 MHz ( period = 2.851 ns )               ; count_val_unit[0] ; count_val_hun[1]  ; CLOCK_50   ; CLOCK_50 ; None                        ; None                      ; 2.611 ns                ;
; N/A   ; 350.75 MHz ( period = 2.851 ns )               ; count_val_unit[0] ; count_val_hun[0]  ; CLOCK_50   ; CLOCK_50 ; None                        ; None                      ; 2.611 ns                ;
; N/A   ; 359.45 MHz ( period = 2.782 ns )               ; count_val_unit[2] ; count_val_ten[3]  ; CLOCK_50   ; CLOCK_50 ; None                        ; None                      ; 2.542 ns                ;
; N/A   ; 359.45 MHz ( period = 2.782 ns )               ; count_val_unit[2] ; count_val_ten[1]  ; CLOCK_50   ; CLOCK_50 ; None                        ; None                      ; 2.542 ns                ;
; N/A   ; 359.45 MHz ( period = 2.782 ns )               ; count_val_unit[2] ; count_val_ten[0]  ; CLOCK_50   ; CLOCK_50 ; None                        ; None                      ; 2.542 ns                ;
; N/A   ; 370.78 MHz ( period = 2.697 ns )               ; count_val_unit[1] ; count_val_ten[2]  ; CLOCK_50   ; CLOCK_50 ; None                        ; None                      ; 2.457 ns                ;
; N/A   ; 370.78 MHz ( period = 2.697 ns )               ; count_val_unit[1] ; count_val_hun[2]  ; CLOCK_50   ; CLOCK_50 ; None                        ; None                      ; 2.457 ns                ;
; N/A   ; 373.55 MHz ( period = 2.677 ns )               ; count_val_ten[2]  ; count_val_hun[3]  ; CLOCK_50   ; CLOCK_50 ; None                        ; None                      ; 2.438 ns                ;
; N/A   ; 373.55 MHz ( period = 2.677 ns )               ; count_val_ten[2]  ; count_val_hun[1]  ; CLOCK_50   ; CLOCK_50 ; None                        ; None                      ; 2.438 ns                ;
; N/A   ; 373.55 MHz ( period = 2.677 ns )               ; count_val_ten[2]  ; count_val_hun[0]  ; CLOCK_50   ; CLOCK_50 ; None                        ; None                      ; 2.438 ns                ;
; N/A   ; 379.22 MHz ( period = 2.637 ns )               ; count_val_unit[2] ; count_val_hun[3]  ; CLOCK_50   ; CLOCK_50 ; None                        ; None                      ; 2.398 ns                ;
; N/A   ; 379.22 MHz ( period = 2.637 ns )               ; count_val_unit[2] ; count_val_hun[1]  ; CLOCK_50   ; CLOCK_50 ; None                        ; None                      ; 2.398 ns                ;
; N/A   ; 379.22 MHz ( period = 2.637 ns )               ; count_val_unit[2] ; count_val_hun[0]  ; CLOCK_50   ; CLOCK_50 ; None                        ; None                      ; 2.398 ns                ;
; N/A   ; Restricted to 380.08 MHz ( period = 2.631 ns ) ; count_val_unit[3] ; count_val_ten[2]  ; CLOCK_50   ; CLOCK_50 ; None                        ; None                      ; 2.347 ns                ;
; N/A   ; Restricted to 380.08 MHz ( period = 2.631 ns ) ; count_val_unit[3] ; count_val_hun[2]  ; CLOCK_50   ; CLOCK_50 ; None                        ; None                      ; 2.347 ns                ;
; N/A   ; Restricted to 380.08 MHz ( period = 2.631 ns ) ; count_val_unit[0] ; count_val_ten[2]  ; CLOCK_50   ; CLOCK_50 ; None                        ; None                      ; 2.230 ns                ;
; N/A   ; Restricted to 380.08 MHz ( period = 2.631 ns ) ; count_val_unit[0] ; count_val_hun[2]  ; CLOCK_50   ; CLOCK_50 ; None                        ; None                      ; 2.230 ns                ;
; N/A   ; Restricted to 380.08 MHz ( period = 2.631 ns ) ; count_val_ten[3]  ; count_val_hun[2]  ; CLOCK_50   ; CLOCK_50 ; None                        ; None                      ; 2.122 ns                ;
; N/A   ; Restricted to 380.08 MHz ( period = 2.631 ns ) ; count_val_ten[1]  ; count_val_hun[2]  ; CLOCK_50   ; CLOCK_50 ; None                        ; None                      ; 2.047 ns                ;
; N/A   ; Restricted to 380.08 MHz ( period = 2.631 ns ) ; count_val_unit[2] ; count_val_ten[2]  ; CLOCK_50   ; CLOCK_50 ; None                        ; None                      ; 2.017 ns                ;
; N/A   ; Restricted to 380.08 MHz ( period = 2.631 ns ) ; count_val_unit[2] ; count_val_hun[2]  ; CLOCK_50   ; CLOCK_50 ; None                        ; None                      ; 2.017 ns                ;
; N/A   ; Restricted to 380.08 MHz ( period = 2.631 ns ) ; count_val_ten[0]  ; count_val_hun[2]  ; CLOCK_50   ; CLOCK_50 ; None                        ; None                      ; 1.912 ns                ;
; N/A   ; Restricted to 380.08 MHz ( period = 2.631 ns ) ; count_val_ten[1]  ; count_val_ten[2]  ; CLOCK_50   ; CLOCK_50 ; None                        ; None                      ; 1.909 ns                ;
; N/A   ; Restricted to 380.08 MHz ( period = 2.631 ns ) ; count_val_unit[2] ; count_val_unit[3] ; CLOCK_50   ; CLOCK_50 ; None                        ; None                      ; 1.603 ns                ;
; N/A   ; Restricted to 380.08 MHz ( period = 2.631 ns ) ; count_val_unit[2] ; count_val_unit[1] ; CLOCK_50   ; CLOCK_50 ; None                        ; None                      ; 1.598 ns                ;
; N/A   ; Restricted to 380.08 MHz ( period = 2.631 ns ) ; count_val_unit[1] ; count_val_unit[2] ; CLOCK_50   ; CLOCK_50 ; None                        ; None                      ; 1.552 ns                ;
; N/A   ; Restricted to 380.08 MHz ( period = 2.631 ns ) ; count_val_ten[2]  ; count_val_hun[2]  ; CLOCK_50   ; CLOCK_50 ; None                        ; None                      ; 1.522 ns                ;
; N/A   ; Restricted to 380.08 MHz ( period = 2.631 ns ) ; count_val_unit[0] ; count_val_unit[2] ; CLOCK_50   ; CLOCK_50 ; None                        ; None                      ; 1.520 ns                ;
; N/A   ; Restricted to 380.08 MHz ( period = 2.631 ns ) ; count_val_hun[0]  ; count_val_hun[2]  ; CLOCK_50   ; CLOCK_50 ; None                        ; None                      ; 1.517 ns                ;
; N/A   ; Restricted to 380.08 MHz ( period = 2.631 ns ) ; count_val_ten[2]  ; count_val_ten[3]  ; CLOCK_50   ; CLOCK_50 ; None                        ; None                      ; 1.384 ns                ;
; N/A   ; Restricted to 380.08 MHz ( period = 2.631 ns ) ; count_val_ten[2]  ; count_val_ten[1]  ; CLOCK_50   ; CLOCK_50 ; None                        ; None                      ; 1.376 ns                ;
; N/A   ; Restricted to 380.08 MHz ( period = 2.631 ns ) ; count_val_hun[1]  ; count_val_hun[2]  ; CLOCK_50   ; CLOCK_50 ; None                        ; None                      ; 1.313 ns                ;
; N/A   ; Restricted to 380.08 MHz ( period = 2.631 ns ) ; count_val_ten[0]  ; count_val_ten[2]  ; CLOCK_50   ; CLOCK_50 ; None                        ; None                      ; 1.282 ns                ;
; N/A   ; Restricted to 380.08 MHz ( period = 2.631 ns ) ; count_val_hun[0]  ; count_val_hun[1]  ; CLOCK_50   ; CLOCK_50 ; None                        ; None                      ; 1.263 ns                ;
; N/A   ; Restricted to 380.08 MHz ( period = 2.631 ns ) ; count_val_hun[1]  ; count_val_hun[3]  ; CLOCK_50   ; CLOCK_50 ; None                        ; None                      ; 1.066 ns                ;
; N/A   ; Restricted to 380.08 MHz ( period = 2.631 ns ) ; count_val_ten[1]  ; count_val_ten[3]  ; CLOCK_50   ; CLOCK_50 ; None                        ; None                      ; 1.048 ns                ;
; N/A   ; Restricted to 380.08 MHz ( period = 2.631 ns ) ; count_val_unit[1] ; count_val_unit[3] ; CLOCK_50   ; CLOCK_50 ; None                        ; None                      ; 1.036 ns                ;
; N/A   ; Restricted to 380.08 MHz ( period = 2.631 ns ) ; count_val_unit[3] ; count_val_unit[1] ; CLOCK_50   ; CLOCK_50 ; None                        ; None                      ; 1.036 ns                ;
; N/A   ; Restricted to 380.08 MHz ( period = 2.631 ns ) ; count_val_ten[0]  ; count_val_ten[1]  ; CLOCK_50   ; CLOCK_50 ; None                        ; None                      ; 1.035 ns                ;
; N/A   ; Restricted to 380.08 MHz ( period = 2.631 ns ) ; count_val_hun[2]  ; count_val_hun[1]  ; CLOCK_50   ; CLOCK_50 ; None                        ; None                      ; 1.019 ns                ;
; N/A   ; Restricted to 380.08 MHz ( period = 2.631 ns ) ; count_val_hun[2]  ; count_val_hun[3]  ; CLOCK_50   ; CLOCK_50 ; None                        ; None                      ; 1.018 ns                ;
; N/A   ; Restricted to 380.08 MHz ( period = 2.631 ns ) ; count_val_ten[0]  ; count_val_ten[3]  ; CLOCK_50   ; CLOCK_50 ; None                        ; None                      ; 0.687 ns                ;
; N/A   ; Restricted to 380.08 MHz ( period = 2.631 ns ) ; count_val_hun[0]  ; count_val_hun[3]  ; CLOCK_50   ; CLOCK_50 ; None                        ; None                      ; 0.680 ns                ;
; N/A   ; Restricted to 380.08 MHz ( period = 2.631 ns ) ; count_val_hun[3]  ; count_val_hun[1]  ; CLOCK_50   ; CLOCK_50 ; None                        ; None                      ; 0.663 ns                ;
; N/A   ; Restricted to 380.08 MHz ( period = 2.631 ns ) ; count_val_ten[3]  ; count_val_ten[1]  ; CLOCK_50   ; CLOCK_50 ; None                        ; None                      ; 0.650 ns                ;
; N/A   ; Restricted to 380.08 MHz ( period = 2.631 ns ) ; count_val_unit[0] ; count_val_unit[3] ; CLOCK_50   ; CLOCK_50 ; None                        ; None                      ; 0.649 ns                ;
; N/A   ; Restricted to 380.08 MHz ( period = 2.631 ns ) ; count_val_unit[0] ; count_val_unit[1] ; CLOCK_50   ; CLOCK_50 ; None                        ; None                      ; 0.646 ns                ;
; N/A   ; Restricted to 380.08 MHz ( period = 2.631 ns ) ; count_val_unit[3] ; count_val_unit[3] ; CLOCK_50   ; CLOCK_50 ; None                        ; None                      ; 0.454 ns                ;
; N/A   ; Restricted to 380.08 MHz ( period = 2.631 ns ) ; count_val_unit[2] ; count_val_unit[2] ; CLOCK_50   ; CLOCK_50 ; None                        ; None                      ; 0.454 ns                ;
; N/A   ; Restricted to 380.08 MHz ( period = 2.631 ns ) ; count_val_unit[1] ; count_val_unit[1] ; CLOCK_50   ; CLOCK_50 ; None                        ; None                      ; 0.454 ns                ;
; N/A   ; Restricted to 380.08 MHz ( period = 2.631 ns ) ; count_val_unit[0] ; count_val_unit[0] ; CLOCK_50   ; CLOCK_50 ; None                        ; None                      ; 0.454 ns                ;
; N/A   ; Restricted to 380.08 MHz ( period = 2.631 ns ) ; count_val_ten[3]  ; count_val_ten[3]  ; CLOCK_50   ; CLOCK_50 ; None                        ; None                      ; 0.454 ns                ;
; N/A   ; Restricted to 380.08 MHz ( period = 2.631 ns ) ; count_val_ten[2]  ; count_val_ten[2]  ; CLOCK_50   ; CLOCK_50 ; None                        ; None                      ; 0.454 ns                ;
; N/A   ; Restricted to 380.08 MHz ( period = 2.631 ns ) ; count_val_ten[1]  ; count_val_ten[1]  ; CLOCK_50   ; CLOCK_50 ; None                        ; None                      ; 0.454 ns                ;
; N/A   ; Restricted to 380.08 MHz ( period = 2.631 ns ) ; count_val_ten[0]  ; count_val_ten[0]  ; CLOCK_50   ; CLOCK_50 ; None                        ; None                      ; 0.454 ns                ;
; N/A   ; Restricted to 380.08 MHz ( period = 2.631 ns ) ; count_val_hun[3]  ; count_val_hun[3]  ; CLOCK_50   ; CLOCK_50 ; None                        ; None                      ; 0.454 ns                ;
; N/A   ; Restricted to 380.08 MHz ( period = 2.631 ns ) ; count_val_hun[1]  ; count_val_hun[1]  ; CLOCK_50   ; CLOCK_50 ; None                        ; None                      ; 0.454 ns                ;
; N/A   ; Restricted to 380.08 MHz ( period = 2.631 ns ) ; count_val_hun[2]  ; count_val_hun[2]  ; CLOCK_50   ; CLOCK_50 ; None                        ; None                      ; 0.454 ns                ;
; N/A   ; Restricted to 380.08 MHz ( period = 2.631 ns ) ; count_val_hun[0]  ; count_val_hun[0]  ; CLOCK_50   ; CLOCK_50 ; None                        ; None                      ; 0.454 ns                ;
+-------+------------------------------------------------+-------------------+-------------------+------------+----------+-----------------------------+---------------------------+-------------------------+


+------------------------------------------------------------------------------------+
; tco                                                                                ;
+-------+--------------+------------+-------------------+---------------+------------+
; Slack ; Required tco ; Actual tco ; From              ; To            ; From Clock ;
+-------+--------------+------------+-------------------+---------------+------------+
; N/A   ; None         ; 12.010 ns  ; count_val_hun[3]  ; Count_hun[3]  ; CLOCK_50   ;
; N/A   ; None         ; 10.611 ns  ; count_val_ten[1]  ; Count_ten[1]  ; CLOCK_50   ;
; N/A   ; None         ; 10.601 ns  ; count_val_unit[2] ; Count_unit[2] ; CLOCK_50   ;
; N/A   ; None         ; 10.436 ns  ; count_val_hun[2]  ; HEX2[6]       ; CLOCK_50   ;
; N/A   ; None         ; 10.394 ns  ; count_val_hun[3]  ; HEX2[6]       ; CLOCK_50   ;
; N/A   ; None         ; 10.386 ns  ; count_val_hun[2]  ; HEX2[5]       ; CLOCK_50   ;
; N/A   ; None         ; 10.356 ns  ; count_val_hun[0]  ; HEX2[6]       ; CLOCK_50   ;
; N/A   ; None         ; 10.351 ns  ; count_val_hun[3]  ; HEX2[5]       ; CLOCK_50   ;
; N/A   ; None         ; 10.310 ns  ; count_val_hun[0]  ; HEX2[5]       ; CLOCK_50   ;
; N/A   ; None         ; 10.177 ns  ; count_val_hun[1]  ; Count_hun[1]  ; CLOCK_50   ;
; N/A   ; None         ; 9.958 ns   ; count_val_hun[1]  ; HEX2[6]       ; CLOCK_50   ;
; N/A   ; None         ; 9.927 ns   ; count_val_ten[2]  ; Count_ten[2]  ; CLOCK_50   ;
; N/A   ; None         ; 9.911 ns   ; count_val_hun[1]  ; HEX2[5]       ; CLOCK_50   ;
; N/A   ; None         ; 9.531 ns   ; count_val_ten[3]  ; Count_ten[3]  ; CLOCK_50   ;
; N/A   ; None         ; 9.474 ns   ; count_val_hun[2]  ; HEX2[0]       ; CLOCK_50   ;
; N/A   ; None         ; 9.426 ns   ; count_val_hun[3]  ; HEX2[0]       ; CLOCK_50   ;
; N/A   ; None         ; 9.418 ns   ; count_val_unit[0] ; Count_unit[0] ; CLOCK_50   ;
; N/A   ; None         ; 9.313 ns   ; count_val_unit[2] ; HEX0[2]       ; CLOCK_50   ;
; N/A   ; None         ; 9.140 ns   ; count_val_unit[2] ; HEX0[3]       ; CLOCK_50   ;
; N/A   ; None         ; 9.139 ns   ; count_val_unit[2] ; HEX0[1]       ; CLOCK_50   ;
; N/A   ; None         ; 9.039 ns   ; count_val_hun[0]  ; Count_hun[0]  ; CLOCK_50   ;
; N/A   ; None         ; 9.027 ns   ; count_val_unit[2] ; HEX0[6]       ; CLOCK_50   ;
; N/A   ; None         ; 9.027 ns   ; count_val_unit[2] ; HEX0[5]       ; CLOCK_50   ;
; N/A   ; None         ; 8.992 ns   ; count_val_unit[1] ; Count_unit[1] ; CLOCK_50   ;
; N/A   ; None         ; 8.992 ns   ; count_val_hun[1]  ; HEX2[0]       ; CLOCK_50   ;
; N/A   ; None         ; 8.873 ns   ; count_val_unit[2] ; HEX0[0]       ; CLOCK_50   ;
; N/A   ; None         ; 8.850 ns   ; count_val_ten[2]  ; HEX1[4]       ; CLOCK_50   ;
; N/A   ; None         ; 8.831 ns   ; count_val_ten[2]  ; HEX1[1]       ; CLOCK_50   ;
; N/A   ; None         ; 8.784 ns   ; count_val_unit[0] ; HEX0[2]       ; CLOCK_50   ;
; N/A   ; None         ; 8.745 ns   ; count_val_unit[3] ; HEX0[2]       ; CLOCK_50   ;
; N/A   ; None         ; 8.728 ns   ; count_val_ten[2]  ; HEX1[2]       ; CLOCK_50   ;
; N/A   ; None         ; 8.698 ns   ; count_val_unit[2] ; HEX0[4]       ; CLOCK_50   ;
; N/A   ; None         ; 8.689 ns   ; count_val_ten[2]  ; HEX1[5]       ; CLOCK_50   ;
; N/A   ; None         ; 8.685 ns   ; count_val_ten[2]  ; HEX1[6]       ; CLOCK_50   ;
; N/A   ; None         ; 8.636 ns   ; count_val_ten[2]  ; HEX1[3]       ; CLOCK_50   ;
; N/A   ; None         ; 8.632 ns   ; count_val_hun[1]  ; HEX2[3]       ; CLOCK_50   ;
; N/A   ; None         ; 8.620 ns   ; count_val_hun[1]  ; HEX2[2]       ; CLOCK_50   ;
; N/A   ; None         ; 8.615 ns   ; count_val_ten[3]  ; HEX1[4]       ; CLOCK_50   ;
; N/A   ; None         ; 8.613 ns   ; count_val_unit[0] ; HEX0[1]       ; CLOCK_50   ;
; N/A   ; None         ; 8.611 ns   ; count_val_unit[0] ; HEX0[3]       ; CLOCK_50   ;
; N/A   ; None         ; 8.597 ns   ; count_val_hun[1]  ; HEX2[4]       ; CLOCK_50   ;
; N/A   ; None         ; 8.596 ns   ; count_val_ten[3]  ; HEX1[1]       ; CLOCK_50   ;
; N/A   ; None         ; 8.590 ns   ; count_val_hun[1]  ; HEX2[1]       ; CLOCK_50   ;
; N/A   ; None         ; 8.584 ns   ; count_val_unit[3] ; HEX0[1]       ; CLOCK_50   ;
; N/A   ; None         ; 8.578 ns   ; count_val_hun[3]  ; HEX2[3]       ; CLOCK_50   ;
; N/A   ; None         ; 8.571 ns   ; count_val_unit[3] ; HEX0[3]       ; CLOCK_50   ;
; N/A   ; None         ; 8.565 ns   ; count_val_hun[3]  ; HEX2[2]       ; CLOCK_50   ;
; N/A   ; None         ; 8.543 ns   ; count_val_hun[3]  ; HEX2[4]       ; CLOCK_50   ;
; N/A   ; None         ; 8.534 ns   ; count_val_hun[3]  ; HEX2[1]       ; CLOCK_50   ;
; N/A   ; None         ; 8.522 ns   ; count_val_unit[1] ; HEX0[0]       ; CLOCK_50   ;
; N/A   ; None         ; 8.520 ns   ; count_val_ten[2]  ; HEX1[0]       ; CLOCK_50   ;
; N/A   ; None         ; 8.513 ns   ; count_val_ten[1]  ; HEX1[4]       ; CLOCK_50   ;
; N/A   ; None         ; 8.501 ns   ; count_val_unit[0] ; HEX0[6]       ; CLOCK_50   ;
; N/A   ; None         ; 8.497 ns   ; count_val_unit[0] ; HEX0[5]       ; CLOCK_50   ;
; N/A   ; None         ; 8.492 ns   ; count_val_ten[1]  ; HEX1[1]       ; CLOCK_50   ;
; N/A   ; None         ; 8.480 ns   ; count_val_ten[3]  ; HEX1[2]       ; CLOCK_50   ;
; N/A   ; None         ; 8.471 ns   ; count_val_unit[3] ; HEX0[6]       ; CLOCK_50   ;
; N/A   ; None         ; 8.451 ns   ; count_val_unit[3] ; HEX0[5]       ; CLOCK_50   ;
; N/A   ; None         ; 8.447 ns   ; count_val_ten[3]  ; HEX1[6]       ; CLOCK_50   ;
; N/A   ; None         ; 8.441 ns   ; count_val_ten[3]  ; HEX1[5]       ; CLOCK_50   ;
; N/A   ; None         ; 8.403 ns   ; count_val_unit[3] ; HEX0[0]       ; CLOCK_50   ;
; N/A   ; None         ; 8.399 ns   ; count_val_unit[1] ; HEX0[2]       ; CLOCK_50   ;
; N/A   ; None         ; 8.392 ns   ; count_val_ten[3]  ; HEX1[3]       ; CLOCK_50   ;
; N/A   ; None         ; 8.390 ns   ; count_val_ten[1]  ; HEX1[2]       ; CLOCK_50   ;
; N/A   ; None         ; 8.386 ns   ; count_val_hun[2]  ; HEX2[3]       ; CLOCK_50   ;
; N/A   ; None         ; 8.373 ns   ; count_val_hun[2]  ; HEX2[2]       ; CLOCK_50   ;
; N/A   ; None         ; 8.353 ns   ; count_val_ten[1]  ; HEX1[5]       ; CLOCK_50   ;
; N/A   ; None         ; 8.348 ns   ; count_val_hun[2]  ; HEX2[4]       ; CLOCK_50   ;
; N/A   ; None         ; 8.345 ns   ; count_val_ten[1]  ; HEX1[6]       ; CLOCK_50   ;
; N/A   ; None         ; 8.342 ns   ; count_val_hun[2]  ; HEX2[1]       ; CLOCK_50   ;
; N/A   ; None         ; 8.300 ns   ; count_val_ten[1]  ; HEX1[3]       ; CLOCK_50   ;
; N/A   ; None         ; 8.250 ns   ; count_val_hun[0]  ; HEX2[3]       ; CLOCK_50   ;
; N/A   ; None         ; 8.238 ns   ; count_val_hun[0]  ; HEX2[2]       ; CLOCK_50   ;
; N/A   ; None         ; 8.230 ns   ; count_val_unit[1] ; HEX0[1]       ; CLOCK_50   ;
; N/A   ; None         ; 8.225 ns   ; count_val_unit[1] ; HEX0[3]       ; CLOCK_50   ;
; N/A   ; None         ; 8.215 ns   ; count_val_hun[0]  ; HEX2[4]       ; CLOCK_50   ;
; N/A   ; None         ; 8.207 ns   ; count_val_hun[0]  ; HEX2[1]       ; CLOCK_50   ;
; N/A   ; None         ; 8.189 ns   ; count_val_hun[2]  ; Count_hun[2]  ; CLOCK_50   ;
; N/A   ; None         ; 8.186 ns   ; count_val_ten[1]  ; HEX1[0]       ; CLOCK_50   ;
; N/A   ; None         ; 8.160 ns   ; count_val_ten[0]  ; HEX1[4]       ; CLOCK_50   ;
; N/A   ; None         ; 8.139 ns   ; count_val_ten[0]  ; HEX1[1]       ; CLOCK_50   ;
; N/A   ; None         ; 8.129 ns   ; count_val_unit[3] ; HEX0[4]       ; CLOCK_50   ;
; N/A   ; None         ; 8.124 ns   ; count_val_unit[0] ; HEX0[4]       ; CLOCK_50   ;
; N/A   ; None         ; 8.118 ns   ; count_val_unit[1] ; HEX0[6]       ; CLOCK_50   ;
; N/A   ; None         ; 8.111 ns   ; count_val_unit[1] ; HEX0[5]       ; CLOCK_50   ;
; N/A   ; None         ; 8.029 ns   ; count_val_ten[0]  ; HEX1[2]       ; CLOCK_50   ;
; N/A   ; None         ; 7.992 ns   ; count_val_ten[0]  ; HEX1[5]       ; CLOCK_50   ;
; N/A   ; None         ; 7.989 ns   ; count_val_ten[0]  ; HEX1[6]       ; CLOCK_50   ;
; N/A   ; None         ; 7.939 ns   ; count_val_ten[0]  ; HEX1[3]       ; CLOCK_50   ;
; N/A   ; None         ; 7.885 ns   ; count_val_ten[0]  ; Count_ten[0]  ; CLOCK_50   ;
; N/A   ; None         ; 7.814 ns   ; count_val_ten[3]  ; HEX1[0]       ; CLOCK_50   ;
; N/A   ; None         ; 7.783 ns   ; count_val_unit[1] ; HEX0[4]       ; CLOCK_50   ;
; N/A   ; None         ; 7.594 ns   ; count_val_unit[3] ; Count_unit[3] ; CLOCK_50   ;
+-------+--------------+------------+-------------------+---------------+------------+


+--------------------------+
; Timing Analyzer Messages ;
+--------------------------+
Info: *******************************************************************
Info: Running Quartus II Classic Timing Analyzer
    Info: Version 9.1 Build 350 03/24/2010 Service Pack 2 SJ Full Version
    Info: Processing started: Wed Apr 26 12:01:42 2017
Info: Command: quartus_tan --read_settings_files=off --write_settings_files=off BCD_again -c BCD_again --timing_analysis_only
Info: Parallel compilation is enabled and will use 4 of the 4 processors detected
Warning: Found combinational loop of 1 nodes
    Warning: Node "new_clk~1"
Warning: Found pins functioning as undefined clocks and/or memory enables
    Info: Assuming node "CLOCK_50" is an undefined clock
Info: Clock "CLOCK_50" has Internal fmax of 305.25 MHz between source register "count_val_ten[3]" and destination register "count_val_hun[3]" (period= 3.276 ns)
    Info: + Longest register to register delay is 3.038 ns
        Info: 1: + IC(0.000 ns) + CELL(0.000 ns) = 0.000 ns; Loc. = LCFF_X9_Y20_N1; Fanout = 11; REG Node = 'count_val_ten[3]'
        Info: 2: + IC(0.612 ns) + CELL(0.545 ns) = 1.157 ns; Loc. = LCCOMB_X10_Y20_N10; Fanout = 2; COMB Node = 'Equal18~0'
        Info: 3: + IC(0.327 ns) + CELL(0.507 ns) = 1.991 ns; Loc. = LCCOMB_X10_Y20_N20; Fanout = 3; COMB Node = 'count_val_hun[0]~2'
        Info: 4: + IC(0.289 ns) + CELL(0.758 ns) = 3.038 ns; Loc. = LCFF_X10_Y20_N29; Fanout = 10; REG Node = 'count_val_hun[3]'
        Info: Total cell delay = 1.810 ns ( 59.58 % )
        Info: Total interconnect delay = 1.228 ns ( 40.42 % )
    Info: - Smallest clock skew is 0.001 ns
        Info: + Shortest clock path from clock "CLOCK_50" to destination register is 2.844 ns
            Info: 1: + IC(0.000 ns) + CELL(1.026 ns) = 1.026 ns; Loc. = PIN_L1; Fanout = 1; CLK Node = 'CLOCK_50'
            Info: 2: + IC(0.238 ns) + CELL(0.000 ns) = 1.264 ns; Loc. = CLKCTRL_G2; Fanout = 12; COMB Node = 'CLOCK_50~clkctrl'
            Info: 3: + IC(0.978 ns) + CELL(0.602 ns) = 2.844 ns; Loc. = LCFF_X10_Y20_N29; Fanout = 10; REG Node = 'count_val_hun[3]'
            Info: Total cell delay = 1.628 ns ( 57.24 % )
            Info: Total interconnect delay = 1.216 ns ( 42.76 % )
        Info: - Longest clock path from clock "CLOCK_50" to source register is 2.843 ns
            Info: 1: + IC(0.000 ns) + CELL(1.026 ns) = 1.026 ns; Loc. = PIN_L1; Fanout = 1; CLK Node = 'CLOCK_50'
            Info: 2: + IC(0.238 ns) + CELL(0.000 ns) = 1.264 ns; Loc. = CLKCTRL_G2; Fanout = 12; COMB Node = 'CLOCK_50~clkctrl'
            Info: 3: + IC(0.977 ns) + CELL(0.602 ns) = 2.843 ns; Loc. = LCFF_X9_Y20_N1; Fanout = 11; REG Node = 'count_val_ten[3]'
            Info: Total cell delay = 1.628 ns ( 57.26 % )
            Info: Total interconnect delay = 1.215 ns ( 42.74 % )
    Info: + Micro clock to output delay of source is 0.277 ns
    Info: + Micro setup delay of destination is -0.038 ns
Info: tco from clock "CLOCK_50" to destination pin "Count_hun[3]" through register "count_val_hun[3]" is 12.010 ns
    Info: + Longest clock path from clock "CLOCK_50" to source register is 2.844 ns
        Info: 1: + IC(0.000 ns) + CELL(1.026 ns) = 1.026 ns; Loc. = PIN_L1; Fanout = 1; CLK Node = 'CLOCK_50'
        Info: 2: + IC(0.238 ns) + CELL(0.000 ns) = 1.264 ns; Loc. = CLKCTRL_G2; Fanout = 12; COMB Node = 'CLOCK_50~clkctrl'
        Info: 3: + IC(0.978 ns) + CELL(0.602 ns) = 2.844 ns; Loc. = LCFF_X10_Y20_N29; Fanout = 10; REG Node = 'count_val_hun[3]'
        Info: Total cell delay = 1.628 ns ( 57.24 % )
        Info: Total interconnect delay = 1.216 ns ( 42.76 % )
    Info: + Micro clock to output delay of source is 0.277 ns
    Info: + Longest register to pin delay is 8.889 ns
        Info: 1: + IC(0.000 ns) + CELL(0.000 ns) = 0.000 ns; Loc. = LCFF_X10_Y20_N29; Fanout = 10; REG Node = 'count_val_hun[3]'
        Info: 2: + IC(6.039 ns) + CELL(2.850 ns) = 8.889 ns; Loc. = PIN_V21; Fanout = 0; PIN Node = 'Count_hun[3]'
        Info: Total cell delay = 2.850 ns ( 32.06 % )
        Info: Total interconnect delay = 6.039 ns ( 67.94 % )
Info: Quartus II Classic Timing Analyzer was successful. 0 errors, 3 warnings
    Info: Peak virtual memory: 184 megabytes
    Info: Processing ended: Wed Apr 26 12:01:42 2017
    Info: Elapsed time: 00:00:00
    Info: Total CPU time (on all processors): 00:00:00


