Analysis & Synthesis report for BCD_counter
Wed Apr 26 13:44:06 2017
Quartus II Version 9.1 Build 350 03/24/2010 Service Pack 2 SJ Full Version


---------------------
; Table of Contents ;
---------------------
  1. Legal Notice
  2. Analysis & Synthesis Summary
  3. Analysis & Synthesis Settings
  4. Parallel Compilation
  5. Analysis & Synthesis Messages



----------------
; Legal Notice ;
----------------
Copyright (C) 1991-2010 Altera Corporation
Your use of Altera Corporation's design tools, logic functions 
and other software and tools, and its AMPP partner logic 
functions, and any output files from any of the foregoing 
(including device programming or simulation files), and any 
associated documentation or information are expressly subject 
to the terms and conditions of the Altera Program License 
Subscription Agreement, Altera MegaCore Function License 
Agreement, or other applicable license agreement, including, 
without limitation, that your use is for the sole purpose of 
programming logic devices manufactured by Altera and sold by 
Altera or its authorized distributors.  Please refer to the 
applicable agreement for further details.



+------------------------------------------------------------------------------------+
; Analysis & Synthesis Summary                                                       ;
+------------------------------------+-----------------------------------------------+
; Analysis & Synthesis Status        ; Failed - Wed Apr 26 13:44:06 2017             ;
; Quartus II Version                 ; 9.1 Build 350 03/24/2010 SP 2 SJ Full Version ;
; Revision Name                      ; BCD_counter                                   ;
; Top-level Entity Name              ; BCD_counter                                   ;
; Family                             ; Cyclone II                                    ;
; Total logic elements               ; N/A until Partition Merge                     ;
;     Total combinational functions  ; N/A until Partition Merge                     ;
;     Dedicated logic registers      ; N/A until Partition Merge                     ;
; Total registers                    ; N/A until Partition Merge                     ;
; Total pins                         ; N/A until Partition Merge                     ;
; Total virtual pins                 ; N/A until Partition Merge                     ;
; Total memory bits                  ; N/A until Partition Merge                     ;
; Embedded Multiplier 9-bit elements ; N/A until Partition Merge                     ;
; Total PLLs                         ; N/A until Partition Merge                     ;
+------------------------------------+-----------------------------------------------+


+----------------------------------------------------------------------------------------------------------------------+
; Analysis & Synthesis Settings                                                                                        ;
+----------------------------------------------------------------------------+--------------------+--------------------+
; Option                                                                     ; Setting            ; Default Value      ;
+----------------------------------------------------------------------------+--------------------+--------------------+
; Device                                                                     ; EP2C20F484C7       ;                    ;
; Top-level entity name                                                      ; BCD_counter        ; BCD_counter        ;
; Family name                                                                ; Cyclone II         ; Stratix II         ;
; Use Generated Physical Constraints File                                    ; Off                ;                    ;
; Use smart compilation                                                      ; Off                ; Off                ;
; Enable parallel Assembler and TimeQuest Timing Analyzer during compilation ; On                 ; On                 ;
; Enable compact report table                                                ; Off                ; Off                ;
; Restructure Multiplexers                                                   ; Auto               ; Auto               ;
; Create Debugging Nodes for IP Cores                                        ; Off                ; Off                ;
; Preserve fewer node names                                                  ; On                 ; On                 ;
; Disable OpenCore Plus hardware evaluation                                  ; Off                ; Off                ;
; Verilog Version                                                            ; Verilog_2001       ; Verilog_2001       ;
; VHDL Version                                                               ; VHDL_1993          ; VHDL_1993          ;
; State Machine Processing                                                   ; Auto               ; Auto               ;
; Safe State Machine                                                         ; Off                ; Off                ;
; Extract Verilog State Machines                                             ; On                 ; On                 ;
; Extract VHDL State Machines                                                ; On                 ; On                 ;
; Ignore Verilog initial constructs                                          ; Off                ; Off                ;
; Iteration limit for constant Verilog loops                                 ; 5000               ; 5000               ;
; Iteration limit for non-constant Verilog loops                             ; 250                ; 250                ;
; Add Pass-Through Logic to Inferred RAMs                                    ; On                 ; On                 ;
; Parallel Synthesis                                                         ; Off                ; Off                ;
; DSP Block Balancing                                                        ; Auto               ; Auto               ;
; NOT Gate Push-Back                                                         ; On                 ; On                 ;
; Power-Up Don't Care                                                        ; On                 ; On                 ;
; Remove Redundant Logic Cells                                               ; Off                ; Off                ;
; Remove Duplicate Registers                                                 ; On                 ; On                 ;
; Ignore CARRY Buffers                                                       ; Off                ; Off                ;
; Ignore CASCADE Buffers                                                     ; Off                ; Off                ;
; Ignore GLOBAL Buffers                                                      ; Off                ; Off                ;
; Ignore ROW GLOBAL Buffers                                                  ; Off                ; Off                ;
; Ignore LCELL Buffers                                                       ; Off                ; Off                ;
; Ignore SOFT Buffers                                                        ; On                 ; On                 ;
; Limit AHDL Integers to 32 Bits                                             ; Off                ; Off                ;
; Optimization Technique                                                     ; Balanced           ; Balanced           ;
; Carry Chain Length                                                         ; 70                 ; 70                 ;
; Auto Carry Chains                                                          ; On                 ; On                 ;
; Auto Open-Drain Pins                                                       ; On                 ; On                 ;
; Perform WYSIWYG Primitive Resynthesis                                      ; Off                ; Off                ;
; Auto ROM Replacement                                                       ; On                 ; On                 ;
; Auto RAM Replacement                                                       ; On                 ; On                 ;
; Auto Shift Register Replacement                                            ; Auto               ; Auto               ;
; Auto Clock Enable Replacement                                              ; On                 ; On                 ;
; Strict RAM Replacement                                                     ; Off                ; Off                ;
; Allow Synchronous Control Signals                                          ; On                 ; On                 ;
; Force Use of Synchronous Clear Signals                                     ; Off                ; Off                ;
; Auto RAM to Logic Cell Conversion                                          ; Off                ; Off                ;
; Auto Resource Sharing                                                      ; Off                ; Off                ;
; Allow Any RAM Size For Recognition                                         ; Off                ; Off                ;
; Allow Any ROM Size For Recognition                                         ; Off                ; Off                ;
; Allow Any Shift Register Size For Recognition                              ; Off                ; Off                ;
; Use LogicLock Constraints during Resource Balancing                        ; On                 ; On                 ;
; Ignore translate_off and synthesis_off directives                          ; Off                ; Off                ;
; Timing-Driven Synthesis                                                    ; Off                ; Off                ;
; Show Parameter Settings Tables in Synthesis Report                         ; On                 ; On                 ;
; Ignore Maximum Fan-Out Assignments                                         ; Off                ; Off                ;
; Synchronization Register Chain Length                                      ; 2                  ; 2                  ;
; PowerPlay Power Optimization                                               ; Normal compilation ; Normal compilation ;
; HDL message level                                                          ; Level2             ; Level2             ;
; Suppress Register Optimization Related Messages                            ; Off                ; Off                ;
; Number of Removed Registers Reported in Synthesis Report                   ; 5000               ; 5000               ;
; Number of Inverted Registers Reported in Synthesis Report                  ; 100                ; 100                ;
; Clock MUX Protection                                                       ; On                 ; On                 ;
; Auto Gated Clock Conversion                                                ; Off                ; Off                ;
; Block Design Naming                                                        ; Auto               ; Auto               ;
; SDC constraint protection                                                  ; Off                ; Off                ;
; Synthesis Effort                                                           ; Auto               ; Auto               ;
; Shift Register Replacement - Allow Asynchronous Clear Signal               ; On                 ; On                 ;
; Analysis & Synthesis Message Level                                         ; Medium             ; Medium             ;
; Disable Register Merging Across Hierarchies                                ; Auto               ; Auto               ;
; Resource Aware Inference For Block RAM                                     ; On                 ; On                 ;
+----------------------------------------------------------------------------+--------------------+--------------------+


+------------------------------------------+
; Parallel Compilation                     ;
+----------------------------+-------------+
; Processors                 ; Number      ;
+----------------------------+-------------+
; Number detected on machine ; 4           ;
; Maximum allowed            ; 4           ;
;                            ;             ;
; Average used               ; 1.00        ;
; Maximum used               ; 1           ;
;                            ;             ;
; Usage by Processor         ; % Time Used ;
;     1 processor            ; 100.0%      ;
;     2-4 processors         ;   0.0%      ;
+----------------------------+-------------+


+-------------------------------+
; Analysis & Synthesis Messages ;
+-------------------------------+
Info: *******************************************************************
Info: Running Quartus II Analysis & Synthesis
    Info: Version 9.1 Build 350 03/24/2010 Service Pack 2 SJ Full Version
    Info: Processing started: Wed Apr 26 13:44:03 2017
Info: Command: quartus_map --read_settings_files=on --write_settings_files=off BCD_counter -c BCD_counter
Info: Parallel compilation is enabled and will use 4 of the 4 processors detected
Info: Found 2 design units, including 1 entities, in source file bcd_counter.vhd
    Info: Found design unit 1: BCD_counter-behavior
    Info: Found entity 1: BCD_counter
Info: Elaborating entity "BCD_counter" for the top level hierarchy
Warning (10492): VHDL Process Statement warning at bcd_counter.vhd(34): signal "KEY" is read inside the Process Statement but isn't in the Process Statement's sensitivity list
Warning (10492): VHDL Process Statement warning at bcd_counter.vhd(49): signal "flag" is read inside the Process Statement but isn't in the Process Statement's sensitivity list
Warning (10492): VHDL Process Statement warning at bcd_counter.vhd(50): signal "count_val_unit" is read inside the Process Statement but isn't in the Process Statement's sensitivity list
Warning (10492): VHDL Process Statement warning at bcd_counter.vhd(52): signal "count_val_ten" is read inside the Process Statement but isn't in the Process Statement's sensitivity list
Warning (10492): VHDL Process Statement warning at bcd_counter.vhd(54): signal "count_val_ten" is read inside the Process Statement but isn't in the Process Statement's sensitivity list
Warning (10492): VHDL Process Statement warning at bcd_counter.vhd(56): signal "count_val_hun" is read inside the Process Statement but isn't in the Process Statement's sensitivity list
Warning (10492): VHDL Process Statement warning at bcd_counter.vhd(59): signal "count_val_hun" is read inside the Process Statement but isn't in the Process Statement's sensitivity list
Warning (10492): VHDL Process Statement warning at bcd_counter.vhd(66): signal "count_val_unit" is read inside the Process Statement but isn't in the Process Statement's sensitivity list
Warning (10492): VHDL Process Statement warning at bcd_counter.vhd(72): signal "count_val_unit" is read inside the Process Statement but isn't in the Process Statement's sensitivity list
Warning (10492): VHDL Process Statement warning at bcd_counter.vhd(74): signal "count_val_unit" is read inside the Process Statement but isn't in the Process Statement's sensitivity list
Warning (10492): VHDL Process Statement warning at bcd_counter.vhd(76): signal "count_val_unit" is read inside the Process Statement but isn't in the Process Statement's sensitivity list
Warning (10492): VHDL Process Statement warning at bcd_counter.vhd(78): signal "count_val_unit" is read inside the Process Statement but isn't in the Process Statement's sensitivity list
Warning (10492): VHDL Process Statement warning at bcd_counter.vhd(80): signal "count_val_unit" is read inside the Process Statement but isn't in the Process Statement's sensitivity list
Warning (10492): VHDL Process Statement warning at bcd_counter.vhd(82): signal "count_val_unit" is read inside the Process Statement but isn't in the Process Statement's sensitivity list
Warning (10492): VHDL Process Statement warning at bcd_counter.vhd(84): signal "count_val_unit" is read inside the Process Statement but isn't in the Process Statement's sensitivity list
Warning (10492): VHDL Process Statement warning at bcd_counter.vhd(86): signal "count_val_unit" is read inside the Process Statement but isn't in the Process Statement's sensitivity list
Warning (10492): VHDL Process Statement warning at bcd_counter.vhd(88): signal "count_val_unit" is read inside the Process Statement but isn't in the Process Statement's sensitivity list
Warning (10492): VHDL Process Statement warning at bcd_counter.vhd(93): signal "count_val_ten" is read inside the Process Statement but isn't in the Process Statement's sensitivity list
Warning (10492): VHDL Process Statement warning at bcd_counter.vhd(95): signal "count_val_ten" is read inside the Process Statement but isn't in the Process Statement's sensitivity list
Warning (10492): VHDL Process Statement warning at bcd_counter.vhd(97): signal "count_val_ten" is read inside the Process Statement but isn't in the Process Statement's sensitivity list
Warning (10492): VHDL Process Statement warning at bcd_counter.vhd(99): signal "count_val_ten" is read inside the Process Statement but isn't in the Process Statement's sensitivity list
Warning (10492): VHDL Process Statement warning at bcd_counter.vhd(101): signal "count_val_ten" is read inside the Process Statement but isn't in the Process Statement's sensitivity list
Warning (10492): VHDL Process Statement warning at bcd_counter.vhd(103): signal "count_val_ten" is read inside the Process Statement but isn't in the Process Statement's sensitivity list
Warning (10492): VHDL Process Statement warning at bcd_counter.vhd(105): signal "count_val_ten" is read inside the Process Statement but isn't in the Process Statement's sensitivity list
Warning (10492): VHDL Process Statement warning at bcd_counter.vhd(107): signal "count_val_ten" is read inside the Process Statement but isn't in the Process Statement's sensitivity list
Warning (10492): VHDL Process Statement warning at bcd_counter.vhd(109): signal "count_val_ten" is read inside the Process Statement but isn't in the Process Statement's sensitivity list
Warning (10492): VHDL Process Statement warning at bcd_counter.vhd(114): signal "count_val_hun" is read inside the Process Statement but isn't in the Process Statement's sensitivity list
Warning (10492): VHDL Process Statement warning at bcd_counter.vhd(116): signal "count_val_hun" is read inside the Process Statement but isn't in the Process Statement's sensitivity list
Warning (10492): VHDL Process Statement warning at bcd_counter.vhd(118): signal "count_val_hun" is read inside the Process Statement but isn't in the Process Statement's sensitivity list
Warning (10492): VHDL Process Statement warning at bcd_counter.vhd(120): signal "count_val_hun" is read inside the Process Statement but isn't in the Process Statement's sensitivity list
Warning (10492): VHDL Process Statement warning at bcd_counter.vhd(122): signal "count_val_hun" is read inside the Process Statement but isn't in the Process Statement's sensitivity list
Warning (10492): VHDL Process Statement warning at bcd_counter.vhd(124): signal "count_val_hun" is read inside the Process Statement but isn't in the Process Statement's sensitivity list
Warning (10492): VHDL Process Statement warning at bcd_counter.vhd(126): signal "count_val_hun" is read inside the Process Statement but isn't in the Process Statement's sensitivity list
Warning (10492): VHDL Process Statement warning at bcd_counter.vhd(128): signal "count_val_hun" is read inside the Process Statement but isn't in the Process Statement's sensitivity list
Warning (10492): VHDL Process Statement warning at bcd_counter.vhd(130): signal "count_val_hun" is read inside the Process Statement but isn't in the Process Statement's sensitivity list
Error (10818): Can't infer register for "count_val_hun[0]" at bcd_counter.vhd(40) because it does not hold its value outside the clock edge File: H:/ADD/advanced-digital-design/lab2/BCD_counter/bcd_counter.vhd Line: 40
Info (10041): Inferred latch for "count_val_hun[0]" at bcd_counter.vhd(32)
Error (10818): Can't infer register for "count_val_hun[1]" at bcd_counter.vhd(40) because it does not hold its value outside the clock edge File: H:/ADD/advanced-digital-design/lab2/BCD_counter/bcd_counter.vhd Line: 40
Info (10041): Inferred latch for "count_val_hun[1]" at bcd_counter.vhd(32)
Error (10818): Can't infer register for "count_val_hun[2]" at bcd_counter.vhd(40) because it does not hold its value outside the clock edge File: H:/ADD/advanced-digital-design/lab2/BCD_counter/bcd_counter.vhd Line: 40
Info (10041): Inferred latch for "count_val_hun[2]" at bcd_counter.vhd(32)
Error (10818): Can't infer register for "count_val_hun[3]" at bcd_counter.vhd(40) because it does not hold its value outside the clock edge File: H:/ADD/advanced-digital-design/lab2/BCD_counter/bcd_counter.vhd Line: 40
Info (10041): Inferred latch for "count_val_hun[3]" at bcd_counter.vhd(32)
Error (10818): Can't infer register for "count_val_ten[0]" at bcd_counter.vhd(40) because it does not hold its value outside the clock edge File: H:/ADD/advanced-digital-design/lab2/BCD_counter/bcd_counter.vhd Line: 40
Info (10041): Inferred latch for "count_val_ten[0]" at bcd_counter.vhd(32)
Error (10818): Can't infer register for "count_val_ten[1]" at bcd_counter.vhd(40) because it does not hold its value outside the clock edge File: H:/ADD/advanced-digital-design/lab2/BCD_counter/bcd_counter.vhd Line: 40
Info (10041): Inferred latch for "count_val_ten[1]" at bcd_counter.vhd(32)
Error (10818): Can't infer register for "count_val_ten[2]" at bcd_counter.vhd(40) because it does not hold its value outside the clock edge File: H:/ADD/advanced-digital-design/lab2/BCD_counter/bcd_counter.vhd Line: 40
Info (10041): Inferred latch for "count_val_ten[2]" at bcd_counter.vhd(32)
Error (10818): Can't infer register for "count_val_ten[3]" at bcd_counter.vhd(40) because it does not hold its value outside the clock edge File: H:/ADD/advanced-digital-design/lab2/BCD_counter/bcd_counter.vhd Line: 40
Info (10041): Inferred latch for "count_val_ten[3]" at bcd_counter.vhd(32)
Error (10818): Can't infer register for "count_val_unit[0]" at bcd_counter.vhd(40) because it does not hold its value outside the clock edge File: H:/ADD/advanced-digital-design/lab2/BCD_counter/bcd_counter.vhd Line: 40
Info (10041): Inferred latch for "count_val_unit[0]" at bcd_counter.vhd(32)
Error (10818): Can't infer register for "count_val_unit[1]" at bcd_counter.vhd(40) because it does not hold its value outside the clock edge File: H:/ADD/advanced-digital-design/lab2/BCD_counter/bcd_counter.vhd Line: 40
Info (10041): Inferred latch for "count_val_unit[1]" at bcd_counter.vhd(32)
Error (10818): Can't infer register for "count_val_unit[2]" at bcd_counter.vhd(40) because it does not hold its value outside the clock edge File: H:/ADD/advanced-digital-design/lab2/BCD_counter/bcd_counter.vhd Line: 40
Info (10041): Inferred latch for "count_val_unit[2]" at bcd_counter.vhd(32)
Error (10818): Can't infer register for "count_val_unit[3]" at bcd_counter.vhd(40) because it does not hold its value outside the clock edge File: H:/ADD/advanced-digital-design/lab2/BCD_counter/bcd_counter.vhd Line: 40
Info (10041): Inferred latch for "count_val_unit[3]" at bcd_counter.vhd(32)
Error (10822): HDL error at bcd_counter.vhd(40): couldn't implement registers for assignments on this clock edge File: H:/ADD/advanced-digital-design/lab2/BCD_counter/bcd_counter.vhd Line: 40
Error: Can't elaborate top-level user hierarchy
Error: Quartus II Analysis & Synthesis was unsuccessful. 14 errors, 35 warnings
    Error: Peak virtual memory: 239 megabytes
    Error: Processing ended: Wed Apr 26 13:44:07 2017
    Error: Elapsed time: 00:00:04
    Error: Total CPU time (on all processors): 00:00:01


