Classic Timing Analyzer report for BCD_counter
Wed Apr 26 13:06:18 2017
Quartus II Version 9.1 Build 350 03/24/2010 Service Pack 2 SJ Full Version


---------------------
; Table of Contents ;
---------------------
  1. Legal Notice
  2. Timing Analyzer Summary
  3. Timing Analyzer Settings
  4. Clock Settings Summary
  5. Parallel Compilation
  6. Clock Setup: 'CLOCK_50'
  7. tco
  8. Timing Analyzer Messages



----------------
; Legal Notice ;
----------------
Copyright (C) 1991-2010 Altera Corporation
Your use of Altera Corporation's design tools, logic functions 
and other software and tools, and its AMPP partner logic 
functions, and any output files from any of the foregoing 
(including device programming or simulation files), and any 
associated documentation or information are expressly subject 
to the terms and conditions of the Altera Program License 
Subscription Agreement, Altera MegaCore Function License 
Agreement, or other applicable license agreement, including, 
without limitation, that your use is for the sole purpose of 
programming logic devices manufactured by Altera and sold by 
Altera or its authorized distributors.  Please refer to the 
applicable agreement for further details.



+-----------------------------------------------------------------------------------------------------------------------------------------------------------------------+
; Timing Analyzer Summary                                                                                                                                               ;
+------------------------------+-------+---------------+----------------------------------+-------------------+------------------+------------+----------+--------------+
; Type                         ; Slack ; Required Time ; Actual Time                      ; From              ; To               ; From Clock ; To Clock ; Failed Paths ;
+------------------------------+-------+---------------+----------------------------------+-------------------+------------------+------------+----------+--------------+
; Worst-case tco               ; N/A   ; None          ; 8.731 ns                         ; count_val_hun[0]  ; HEX2[6]          ; CLOCK_50   ; --       ; 0            ;
; Clock Setup: 'CLOCK_50'      ; N/A   ; None          ; 296.56 MHz ( period = 3.372 ns ) ; count_val_unit[1] ; count_val_hun[2] ; CLOCK_50   ; CLOCK_50 ; 0            ;
; Total number of failed paths ;       ;               ;                                  ;                   ;                  ;            ;          ; 0            ;
+------------------------------+-------+---------------+----------------------------------+-------------------+------------------+------------+----------+--------------+


+-----------------------------------------------------------------------------------------------------------------------------------------------------+
; Timing Analyzer Settings                                                                                                                            ;
+------------------------------------------------------------------------------------------------------+--------------------+------+----+-------------+
; Option                                                                                               ; Setting            ; From ; To ; Entity Name ;
+------------------------------------------------------------------------------------------------------+--------------------+------+----+-------------+
; Device Name                                                                                          ; EP2C20F484C7       ;      ;    ;             ;
; Timing Models                                                                                        ; Final              ;      ;    ;             ;
; Default hold multicycle                                                                              ; Same as Multicycle ;      ;    ;             ;
; Cut paths between unrelated clock domains                                                            ; On                 ;      ;    ;             ;
; Cut off read during write signal paths                                                               ; On                 ;      ;    ;             ;
; Cut off feedback from I/O pins                                                                       ; On                 ;      ;    ;             ;
; Report Combined Fast/Slow Timing                                                                     ; Off                ;      ;    ;             ;
; Ignore Clock Settings                                                                                ; Off                ;      ;    ;             ;
; Analyze latches as synchronous elements                                                              ; On                 ;      ;    ;             ;
; Enable Recovery/Removal analysis                                                                     ; Off                ;      ;    ;             ;
; Enable Clock Latency                                                                                 ; Off                ;      ;    ;             ;
; Use TimeQuest Timing Analyzer                                                                        ; Off                ;      ;    ;             ;
; Minimum Core Junction Temperature                                                                    ; 0                  ;      ;    ;             ;
; Maximum Core Junction Temperature                                                                    ; 85                 ;      ;    ;             ;
; Number of source nodes to report per destination node                                                ; 10                 ;      ;    ;             ;
; Number of destination nodes to report                                                                ; 10                 ;      ;    ;             ;
; Number of paths to report                                                                            ; 200                ;      ;    ;             ;
; Report Minimum Timing Checks                                                                         ; Off                ;      ;    ;             ;
; Use Fast Timing Models                                                                               ; Off                ;      ;    ;             ;
; Report IO Paths Separately                                                                           ; Off                ;      ;    ;             ;
; Perform Multicorner Analysis                                                                         ; On                 ;      ;    ;             ;
; Reports the worst-case path for each clock domain and analysis                                       ; Off                ;      ;    ;             ;
; Reports worst-case timing paths for each clock domain and analysis                                   ; On                 ;      ;    ;             ;
; Specifies the maximum number of worst-case timing paths to report for each clock domain and analysis ; 100                ;      ;    ;             ;
; Removes common clock path pessimism (CCPP) during slack computation                                  ; Off                ;      ;    ;             ;
; Output I/O Timing Endpoint                                                                           ; Near End           ;      ;    ;             ;
+------------------------------------------------------------------------------------------------------+--------------------+------+----+-------------+


+------------------------------------------------------------------------------------------------------------------------------------------------------------------------------------+
; Clock Settings Summary                                                                                                                                                             ;
+-----------------+--------------------+----------+------------------+---------------+--------------+----------+-----------------------+---------------------+--------+--------------+
; Clock Node Name ; Clock Setting Name ; Type     ; Fmax Requirement ; Early Latency ; Late Latency ; Based on ; Multiply Base Fmax by ; Divide Base Fmax by ; Offset ; Phase offset ;
+-----------------+--------------------+----------+------------------+---------------+--------------+----------+-----------------------+---------------------+--------+--------------+
; CLOCK_50        ;                    ; User Pin ; None             ; 0.000 ns      ; 0.000 ns     ; --       ; N/A                   ; N/A                 ; N/A    ;              ;
+-----------------+--------------------+----------+------------------+---------------+--------------+----------+-----------------------+---------------------+--------+--------------+


+------------------------------------------+
; Parallel Compilation                     ;
+----------------------------+-------------+
; Processors                 ; Number      ;
+----------------------------+-------------+
; Number detected on machine ; 4           ;
; Maximum allowed            ; 4           ;
;                            ;             ;
; Average used               ; 1.00        ;
; Maximum used               ; 1           ;
;                            ;             ;
; Usage by Processor         ; % Time Used ;
;     1 processor            ; 100.0%      ;
;     2-4 processors         ;   0.0%      ;
+----------------------------+-------------+


+------------------------------------------------------------------------------------------------------------------------------------------------------------------------------------------------------------+
; Clock Setup: 'CLOCK_50'                                                                                                                                                                                    ;
+-------+------------------------------------------------+-------------------+-------------------+------------+----------+-----------------------------+---------------------------+-------------------------+
; Slack ; Actual fmax (period)                           ; From              ; To                ; From Clock ; To Clock ; Required Setup Relationship ; Required Longest P2P Time ; Actual Longest P2P Time ;
+-------+------------------------------------------------+-------------------+-------------------+------------+----------+-----------------------------+---------------------------+-------------------------+
; N/A   ; 296.56 MHz ( period = 3.372 ns )               ; count_val_unit[1] ; count_val_hun[2]  ; CLOCK_50   ; CLOCK_50 ; None                        ; None                      ; 3.141 ns                ;
; N/A   ; 309.89 MHz ( period = 3.227 ns )               ; count_val_unit[1] ; count_val_hun[3]  ; CLOCK_50   ; CLOCK_50 ; None                        ; None                      ; 2.987 ns                ;
; N/A   ; 309.89 MHz ( period = 3.227 ns )               ; count_val_unit[1] ; count_val_hun[1]  ; CLOCK_50   ; CLOCK_50 ; None                        ; None                      ; 2.987 ns                ;
; N/A   ; 309.89 MHz ( period = 3.227 ns )               ; count_val_unit[1] ; count_val_hun[0]  ; CLOCK_50   ; CLOCK_50 ; None                        ; None                      ; 2.987 ns                ;
; N/A   ; 310.66 MHz ( period = 3.219 ns )               ; count_val_unit[1] ; count_val_ten[3]  ; CLOCK_50   ; CLOCK_50 ; None                        ; None                      ; 2.979 ns                ;
; N/A   ; 310.66 MHz ( period = 3.219 ns )               ; count_val_unit[1] ; count_val_ten[1]  ; CLOCK_50   ; CLOCK_50 ; None                        ; None                      ; 2.979 ns                ;
; N/A   ; 310.66 MHz ( period = 3.219 ns )               ; count_val_unit[1] ; count_val_ten[0]  ; CLOCK_50   ; CLOCK_50 ; None                        ; None                      ; 2.979 ns                ;
; N/A   ; 313.38 MHz ( period = 3.191 ns )               ; count_val_unit[0] ; count_val_hun[2]  ; CLOCK_50   ; CLOCK_50 ; None                        ; None                      ; 2.960 ns                ;
; N/A   ; 328.30 MHz ( period = 3.046 ns )               ; count_val_unit[0] ; count_val_hun[3]  ; CLOCK_50   ; CLOCK_50 ; None                        ; None                      ; 2.806 ns                ;
; N/A   ; 328.30 MHz ( period = 3.046 ns )               ; count_val_unit[0] ; count_val_hun[1]  ; CLOCK_50   ; CLOCK_50 ; None                        ; None                      ; 2.806 ns                ;
; N/A   ; 328.30 MHz ( period = 3.046 ns )               ; count_val_unit[0] ; count_val_hun[0]  ; CLOCK_50   ; CLOCK_50 ; None                        ; None                      ; 2.806 ns                ;
; N/A   ; 329.16 MHz ( period = 3.038 ns )               ; count_val_unit[0] ; count_val_ten[3]  ; CLOCK_50   ; CLOCK_50 ; None                        ; None                      ; 2.798 ns                ;
; N/A   ; 329.16 MHz ( period = 3.038 ns )               ; count_val_unit[0] ; count_val_ten[1]  ; CLOCK_50   ; CLOCK_50 ; None                        ; None                      ; 2.798 ns                ;
; N/A   ; 329.16 MHz ( period = 3.038 ns )               ; count_val_unit[0] ; count_val_ten[0]  ; CLOCK_50   ; CLOCK_50 ; None                        ; None                      ; 2.798 ns                ;
; N/A   ; 333.00 MHz ( period = 3.003 ns )               ; count_val_unit[3] ; count_val_hun[2]  ; CLOCK_50   ; CLOCK_50 ; None                        ; None                      ; 2.772 ns                ;
; N/A   ; 338.64 MHz ( period = 2.953 ns )               ; count_val_unit[1] ; count_val_ten[2]  ; CLOCK_50   ; CLOCK_50 ; None                        ; None                      ; 2.722 ns                ;
; N/A   ; 349.90 MHz ( period = 2.858 ns )               ; count_val_unit[3] ; count_val_hun[3]  ; CLOCK_50   ; CLOCK_50 ; None                        ; None                      ; 2.618 ns                ;
; N/A   ; 349.90 MHz ( period = 2.858 ns )               ; count_val_unit[3] ; count_val_hun[1]  ; CLOCK_50   ; CLOCK_50 ; None                        ; None                      ; 2.618 ns                ;
; N/A   ; 349.90 MHz ( period = 2.858 ns )               ; count_val_unit[3] ; count_val_hun[0]  ; CLOCK_50   ; CLOCK_50 ; None                        ; None                      ; 2.618 ns                ;
; N/A   ; 350.88 MHz ( period = 2.850 ns )               ; count_val_unit[3] ; count_val_ten[3]  ; CLOCK_50   ; CLOCK_50 ; None                        ; None                      ; 2.610 ns                ;
; N/A   ; 350.88 MHz ( period = 2.850 ns )               ; count_val_unit[3] ; count_val_ten[1]  ; CLOCK_50   ; CLOCK_50 ; None                        ; None                      ; 2.610 ns                ;
; N/A   ; 350.88 MHz ( period = 2.850 ns )               ; count_val_unit[3] ; count_val_ten[0]  ; CLOCK_50   ; CLOCK_50 ; None                        ; None                      ; 2.610 ns                ;
; N/A   ; 351.99 MHz ( period = 2.841 ns )               ; count_val_unit[2] ; count_val_hun[2]  ; CLOCK_50   ; CLOCK_50 ; None                        ; None                      ; 2.610 ns                ;
; N/A   ; 360.75 MHz ( period = 2.772 ns )               ; count_val_unit[0] ; count_val_ten[2]  ; CLOCK_50   ; CLOCK_50 ; None                        ; None                      ; 2.541 ns                ;
; N/A   ; 367.78 MHz ( period = 2.719 ns )               ; count_val_ten[3]  ; count_val_hun[3]  ; CLOCK_50   ; CLOCK_50 ; None                        ; None                      ; 2.480 ns                ;
; N/A   ; 367.78 MHz ( period = 2.719 ns )               ; count_val_ten[3]  ; count_val_hun[1]  ; CLOCK_50   ; CLOCK_50 ; None                        ; None                      ; 2.480 ns                ;
; N/A   ; 367.78 MHz ( period = 2.719 ns )               ; count_val_ten[3]  ; count_val_hun[0]  ; CLOCK_50   ; CLOCK_50 ; None                        ; None                      ; 2.480 ns                ;
; N/A   ; 370.92 MHz ( period = 2.696 ns )               ; count_val_unit[2] ; count_val_hun[3]  ; CLOCK_50   ; CLOCK_50 ; None                        ; None                      ; 2.456 ns                ;
; N/A   ; 370.92 MHz ( period = 2.696 ns )               ; count_val_unit[2] ; count_val_hun[1]  ; CLOCK_50   ; CLOCK_50 ; None                        ; None                      ; 2.456 ns                ;
; N/A   ; 370.92 MHz ( period = 2.696 ns )               ; count_val_unit[2] ; count_val_hun[0]  ; CLOCK_50   ; CLOCK_50 ; None                        ; None                      ; 2.456 ns                ;
; N/A   ; 372.02 MHz ( period = 2.688 ns )               ; count_val_unit[2] ; count_val_ten[3]  ; CLOCK_50   ; CLOCK_50 ; None                        ; None                      ; 2.448 ns                ;
; N/A   ; 372.02 MHz ( period = 2.688 ns )               ; count_val_unit[2] ; count_val_ten[1]  ; CLOCK_50   ; CLOCK_50 ; None                        ; None                      ; 2.448 ns                ;
; N/A   ; 372.02 MHz ( period = 2.688 ns )               ; count_val_unit[2] ; count_val_ten[0]  ; CLOCK_50   ; CLOCK_50 ; None                        ; None                      ; 2.448 ns                ;
; N/A   ; Restricted to 380.08 MHz ( period = 2.631 ns ) ; count_val_ten[1]  ; count_val_hun[3]  ; CLOCK_50   ; CLOCK_50 ; None                        ; None                      ; 2.360 ns                ;
; N/A   ; Restricted to 380.08 MHz ( period = 2.631 ns ) ; count_val_ten[1]  ; count_val_hun[1]  ; CLOCK_50   ; CLOCK_50 ; None                        ; None                      ; 2.360 ns                ;
; N/A   ; Restricted to 380.08 MHz ( period = 2.631 ns ) ; count_val_ten[1]  ; count_val_hun[0]  ; CLOCK_50   ; CLOCK_50 ; None                        ; None                      ; 2.360 ns                ;
; N/A   ; Restricted to 380.08 MHz ( period = 2.631 ns ) ; count_val_unit[3] ; count_val_ten[2]  ; CLOCK_50   ; CLOCK_50 ; None                        ; None                      ; 2.353 ns                ;
; N/A   ; Restricted to 380.08 MHz ( period = 2.631 ns ) ; count_val_ten[2]  ; count_val_hun[3]  ; CLOCK_50   ; CLOCK_50 ; None                        ; None                      ; 2.296 ns                ;
; N/A   ; Restricted to 380.08 MHz ( period = 2.631 ns ) ; count_val_ten[2]  ; count_val_hun[1]  ; CLOCK_50   ; CLOCK_50 ; None                        ; None                      ; 2.296 ns                ;
; N/A   ; Restricted to 380.08 MHz ( period = 2.631 ns ) ; count_val_ten[2]  ; count_val_hun[0]  ; CLOCK_50   ; CLOCK_50 ; None                        ; None                      ; 2.296 ns                ;
; N/A   ; Restricted to 380.08 MHz ( period = 2.631 ns ) ; count_val_hun[1]  ; count_val_hun[2]  ; CLOCK_50   ; CLOCK_50 ; None                        ; None                      ; 2.290 ns                ;
; N/A   ; Restricted to 380.08 MHz ( period = 2.631 ns ) ; count_val_ten[0]  ; count_val_hun[3]  ; CLOCK_50   ; CLOCK_50 ; None                        ; None                      ; 2.214 ns                ;
; N/A   ; Restricted to 380.08 MHz ( period = 2.631 ns ) ; count_val_ten[0]  ; count_val_hun[1]  ; CLOCK_50   ; CLOCK_50 ; None                        ; None                      ; 2.214 ns                ;
; N/A   ; Restricted to 380.08 MHz ( period = 2.631 ns ) ; count_val_ten[0]  ; count_val_hun[0]  ; CLOCK_50   ; CLOCK_50 ; None                        ; None                      ; 2.214 ns                ;
; N/A   ; Restricted to 380.08 MHz ( period = 2.631 ns ) ; count_val_unit[2] ; count_val_ten[2]  ; CLOCK_50   ; CLOCK_50 ; None                        ; None                      ; 2.191 ns                ;
; N/A   ; Restricted to 380.08 MHz ( period = 2.631 ns ) ; count_val_hun[0]  ; count_val_hun[2]  ; CLOCK_50   ; CLOCK_50 ; None                        ; None                      ; 2.132 ns                ;
; N/A   ; Restricted to 380.08 MHz ( period = 2.631 ns ) ; count_val_ten[3]  ; count_val_hun[2]  ; CLOCK_50   ; CLOCK_50 ; None                        ; None                      ; 2.087 ns                ;
; N/A   ; Restricted to 380.08 MHz ( period = 2.631 ns ) ; count_val_ten[1]  ; count_val_ten[2]  ; CLOCK_50   ; CLOCK_50 ; None                        ; None                      ; 2.038 ns                ;
; N/A   ; Restricted to 380.08 MHz ( period = 2.631 ns ) ; count_val_ten[1]  ; count_val_hun[2]  ; CLOCK_50   ; CLOCK_50 ; None                        ; None                      ; 1.967 ns                ;
; N/A   ; Restricted to 380.08 MHz ( period = 2.631 ns ) ; count_val_ten[2]  ; count_val_hun[2]  ; CLOCK_50   ; CLOCK_50 ; None                        ; None                      ; 1.903 ns                ;
; N/A   ; Restricted to 380.08 MHz ( period = 2.631 ns ) ; count_val_ten[0]  ; count_val_hun[2]  ; CLOCK_50   ; CLOCK_50 ; None                        ; None                      ; 1.821 ns                ;
; N/A   ; Restricted to 380.08 MHz ( period = 2.631 ns ) ; count_val_ten[0]  ; count_val_ten[2]  ; CLOCK_50   ; CLOCK_50 ; None                        ; None                      ; 1.665 ns                ;
; N/A   ; Restricted to 380.08 MHz ( period = 2.631 ns ) ; count_val_hun[2]  ; count_val_hun[1]  ; CLOCK_50   ; CLOCK_50 ; None                        ; None                      ; 1.601 ns                ;
; N/A   ; Restricted to 380.08 MHz ( period = 2.631 ns ) ; count_val_ten[0]  ; count_val_ten[3]  ; CLOCK_50   ; CLOCK_50 ; None                        ; None                      ; 1.300 ns                ;
; N/A   ; Restricted to 380.08 MHz ( period = 2.631 ns ) ; count_val_ten[0]  ; count_val_ten[1]  ; CLOCK_50   ; CLOCK_50 ; None                        ; None                      ; 1.295 ns                ;
; N/A   ; Restricted to 380.08 MHz ( period = 2.631 ns ) ; count_val_unit[1] ; count_val_unit[3] ; CLOCK_50   ; CLOCK_50 ; None                        ; None                      ; 1.292 ns                ;
; N/A   ; Restricted to 380.08 MHz ( period = 2.631 ns ) ; count_val_ten[1]  ; count_val_ten[3]  ; CLOCK_50   ; CLOCK_50 ; None                        ; None                      ; 1.291 ns                ;
; N/A   ; Restricted to 380.08 MHz ( period = 2.631 ns ) ; count_val_ten[2]  ; count_val_ten[1]  ; CLOCK_50   ; CLOCK_50 ; None                        ; None                      ; 1.253 ns                ;
; N/A   ; Restricted to 380.08 MHz ( period = 2.631 ns ) ; count_val_ten[2]  ; count_val_ten[3]  ; CLOCK_50   ; CLOCK_50 ; None                        ; None                      ; 1.252 ns                ;
; N/A   ; Restricted to 380.08 MHz ( period = 2.631 ns ) ; count_val_unit[3] ; count_val_unit[1] ; CLOCK_50   ; CLOCK_50 ; None                        ; None                      ; 1.257 ns                ;
; N/A   ; Restricted to 380.08 MHz ( period = 2.631 ns ) ; count_val_hun[2]  ; count_val_hun[3]  ; CLOCK_50   ; CLOCK_50 ; None                        ; None                      ; 1.211 ns                ;
; N/A   ; Restricted to 380.08 MHz ( period = 2.631 ns ) ; count_val_ten[3]  ; count_val_ten[1]  ; CLOCK_50   ; CLOCK_50 ; None                        ; None                      ; 1.053 ns                ;
; N/A   ; Restricted to 380.08 MHz ( period = 2.631 ns ) ; count_val_hun[1]  ; count_val_hun[3]  ; CLOCK_50   ; CLOCK_50 ; None                        ; None                      ; 1.047 ns                ;
; N/A   ; Restricted to 380.08 MHz ( period = 2.631 ns ) ; count_val_unit[1] ; count_val_unit[2] ; CLOCK_50   ; CLOCK_50 ; None                        ; None                      ; 1.045 ns                ;
; N/A   ; Restricted to 380.08 MHz ( period = 2.631 ns ) ; count_val_unit[2] ; count_val_unit[1] ; CLOCK_50   ; CLOCK_50 ; None                        ; None                      ; 1.044 ns                ;
; N/A   ; Restricted to 380.08 MHz ( period = 2.631 ns ) ; count_val_unit[2] ; count_val_unit[3] ; CLOCK_50   ; CLOCK_50 ; None                        ; None                      ; 1.038 ns                ;
; N/A   ; Restricted to 380.08 MHz ( period = 2.631 ns ) ; count_val_hun[0]  ; count_val_hun[3]  ; CLOCK_50   ; CLOCK_50 ; None                        ; None                      ; 0.999 ns                ;
; N/A   ; Restricted to 380.08 MHz ( period = 2.631 ns ) ; count_val_hun[3]  ; count_val_hun[1]  ; CLOCK_50   ; CLOCK_50 ; None                        ; None                      ; 0.992 ns                ;
; N/A   ; Restricted to 380.08 MHz ( period = 2.631 ns ) ; count_val_unit[0] ; count_val_unit[1] ; CLOCK_50   ; CLOCK_50 ; None                        ; None                      ; 0.649 ns                ;
; N/A   ; Restricted to 380.08 MHz ( period = 2.631 ns ) ; count_val_hun[0]  ; count_val_hun[1]  ; CLOCK_50   ; CLOCK_50 ; None                        ; None                      ; 0.648 ns                ;
; N/A   ; Restricted to 380.08 MHz ( period = 2.631 ns ) ; count_val_unit[0] ; count_val_unit[3] ; CLOCK_50   ; CLOCK_50 ; None                        ; None                      ; 0.646 ns                ;
; N/A   ; Restricted to 380.08 MHz ( period = 2.631 ns ) ; count_val_unit[0] ; count_val_unit[2] ; CLOCK_50   ; CLOCK_50 ; None                        ; None                      ; 0.643 ns                ;
; N/A   ; Restricted to 380.08 MHz ( period = 2.631 ns ) ; count_val_unit[3] ; count_val_unit[3] ; CLOCK_50   ; CLOCK_50 ; None                        ; None                      ; 0.454 ns                ;
; N/A   ; Restricted to 380.08 MHz ( period = 2.631 ns ) ; count_val_unit[1] ; count_val_unit[1] ; CLOCK_50   ; CLOCK_50 ; None                        ; None                      ; 0.454 ns                ;
; N/A   ; Restricted to 380.08 MHz ( period = 2.631 ns ) ; count_val_unit[2] ; count_val_unit[2] ; CLOCK_50   ; CLOCK_50 ; None                        ; None                      ; 0.454 ns                ;
; N/A   ; Restricted to 380.08 MHz ( period = 2.631 ns ) ; count_val_unit[0] ; count_val_unit[0] ; CLOCK_50   ; CLOCK_50 ; None                        ; None                      ; 0.454 ns                ;
; N/A   ; Restricted to 380.08 MHz ( period = 2.631 ns ) ; count_val_ten[3]  ; count_val_ten[3]  ; CLOCK_50   ; CLOCK_50 ; None                        ; None                      ; 0.454 ns                ;
; N/A   ; Restricted to 380.08 MHz ( period = 2.631 ns ) ; count_val_ten[1]  ; count_val_ten[1]  ; CLOCK_50   ; CLOCK_50 ; None                        ; None                      ; 0.454 ns                ;
; N/A   ; Restricted to 380.08 MHz ( period = 2.631 ns ) ; count_val_ten[0]  ; count_val_ten[0]  ; CLOCK_50   ; CLOCK_50 ; None                        ; None                      ; 0.454 ns                ;
; N/A   ; Restricted to 380.08 MHz ( period = 2.631 ns ) ; count_val_ten[2]  ; count_val_ten[2]  ; CLOCK_50   ; CLOCK_50 ; None                        ; None                      ; 0.454 ns                ;
; N/A   ; Restricted to 380.08 MHz ( period = 2.631 ns ) ; count_val_hun[3]  ; count_val_hun[3]  ; CLOCK_50   ; CLOCK_50 ; None                        ; None                      ; 0.454 ns                ;
; N/A   ; Restricted to 380.08 MHz ( period = 2.631 ns ) ; count_val_hun[1]  ; count_val_hun[1]  ; CLOCK_50   ; CLOCK_50 ; None                        ; None                      ; 0.454 ns                ;
; N/A   ; Restricted to 380.08 MHz ( period = 2.631 ns ) ; count_val_hun[0]  ; count_val_hun[0]  ; CLOCK_50   ; CLOCK_50 ; None                        ; None                      ; 0.454 ns                ;
; N/A   ; Restricted to 380.08 MHz ( period = 2.631 ns ) ; count_val_hun[2]  ; count_val_hun[2]  ; CLOCK_50   ; CLOCK_50 ; None                        ; None                      ; 0.454 ns                ;
+-------+------------------------------------------------+-------------------+-------------------+------------+----------+-----------------------------+---------------------------+-------------------------+


+------------------------------------------------------------------------------+
; tco                                                                          ;
+-------+--------------+------------+-------------------+---------+------------+
; Slack ; Required tco ; Actual tco ; From              ; To      ; From Clock ;
+-------+--------------+------------+-------------------+---------+------------+
; N/A   ; None         ; 8.731 ns   ; count_val_hun[0]  ; HEX2[6] ; CLOCK_50   ;
; N/A   ; None         ; 8.686 ns   ; count_val_hun[0]  ; HEX2[4] ; CLOCK_50   ;
; N/A   ; None         ; 8.671 ns   ; count_val_hun[0]  ; HEX2[5] ; CLOCK_50   ;
; N/A   ; None         ; 8.423 ns   ; count_val_ten[0]  ; HEX1[6] ; CLOCK_50   ;
; N/A   ; None         ; 8.419 ns   ; count_val_ten[0]  ; HEX1[5] ; CLOCK_50   ;
; N/A   ; None         ; 8.409 ns   ; count_val_hun[3]  ; HEX2[6] ; CLOCK_50   ;
; N/A   ; None         ; 8.365 ns   ; count_val_hun[3]  ; HEX2[4] ; CLOCK_50   ;
; N/A   ; None         ; 8.359 ns   ; count_val_hun[0]  ; HEX2[3] ; CLOCK_50   ;
; N/A   ; None         ; 8.350 ns   ; count_val_hun[3]  ; HEX2[5] ; CLOCK_50   ;
; N/A   ; None         ; 8.331 ns   ; count_val_ten[2]  ; HEX1[4] ; CLOCK_50   ;
; N/A   ; None         ; 8.327 ns   ; count_val_hun[0]  ; HEX2[2] ; CLOCK_50   ;
; N/A   ; None         ; 8.316 ns   ; count_val_hun[0]  ; HEX2[1] ; CLOCK_50   ;
; N/A   ; None         ; 8.314 ns   ; count_val_ten[2]  ; HEX1[3] ; CLOCK_50   ;
; N/A   ; None         ; 8.302 ns   ; count_val_ten[2]  ; HEX1[1] ; CLOCK_50   ;
; N/A   ; None         ; 8.287 ns   ; count_val_unit[0] ; HEX0[1] ; CLOCK_50   ;
; N/A   ; None         ; 8.282 ns   ; count_val_unit[0] ; HEX0[3] ; CLOCK_50   ;
; N/A   ; None         ; 8.274 ns   ; count_val_ten[2]  ; HEX1[2] ; CLOCK_50   ;
; N/A   ; None         ; 8.268 ns   ; count_val_unit[0] ; HEX0[2] ; CLOCK_50   ;
; N/A   ; None         ; 8.238 ns   ; count_val_hun[1]  ; HEX2[6] ; CLOCK_50   ;
; N/A   ; None         ; 8.211 ns   ; count_val_hun[2]  ; HEX2[6] ; CLOCK_50   ;
; N/A   ; None         ; 8.192 ns   ; count_val_hun[1]  ; HEX2[4] ; CLOCK_50   ;
; N/A   ; None         ; 8.182 ns   ; count_val_hun[1]  ; HEX2[5] ; CLOCK_50   ;
; N/A   ; None         ; 8.171 ns   ; count_val_hun[2]  ; HEX2[4] ; CLOCK_50   ;
; N/A   ; None         ; 8.145 ns   ; count_val_hun[2]  ; HEX2[5] ; CLOCK_50   ;
; N/A   ; None         ; 8.123 ns   ; count_val_ten[1]  ; HEX1[5] ; CLOCK_50   ;
; N/A   ; None         ; 8.120 ns   ; count_val_ten[1]  ; HEX1[6] ; CLOCK_50   ;
; N/A   ; None         ; 8.094 ns   ; count_val_ten[1]  ; HEX1[0] ; CLOCK_50   ;
; N/A   ; None         ; 8.036 ns   ; count_val_hun[3]  ; HEX2[2] ; CLOCK_50   ;
; N/A   ; None         ; 8.035 ns   ; count_val_hun[3]  ; HEX2[3] ; CLOCK_50   ;
; N/A   ; None         ; 8.013 ns   ; count_val_ten[1]  ; HEX1[4] ; CLOCK_50   ;
; N/A   ; None         ; 8.010 ns   ; count_val_unit[1] ; HEX0[1] ; CLOCK_50   ;
; N/A   ; None         ; 8.006 ns   ; count_val_unit[1] ; HEX0[3] ; CLOCK_50   ;
; N/A   ; None         ; 7.998 ns   ; count_val_ten[1]  ; HEX1[3] ; CLOCK_50   ;
; N/A   ; None         ; 7.993 ns   ; count_val_hun[3]  ; HEX2[1] ; CLOCK_50   ;
; N/A   ; None         ; 7.993 ns   ; count_val_hun[3]  ; HEX2[0] ; CLOCK_50   ;
; N/A   ; None         ; 7.992 ns   ; count_val_unit[1] ; HEX0[2] ; CLOCK_50   ;
; N/A   ; None         ; 7.988 ns   ; count_val_ten[3]  ; HEX1[6] ; CLOCK_50   ;
; N/A   ; None         ; 7.987 ns   ; count_val_ten[3]  ; HEX1[5] ; CLOCK_50   ;
; N/A   ; None         ; 7.985 ns   ; count_val_ten[1]  ; HEX1[2] ; CLOCK_50   ;
; N/A   ; None         ; 7.983 ns   ; count_val_ten[1]  ; HEX1[1] ; CLOCK_50   ;
; N/A   ; None         ; 7.974 ns   ; count_val_unit[2] ; HEX0[0] ; CLOCK_50   ;
; N/A   ; None         ; 7.965 ns   ; count_val_unit[0] ; HEX0[4] ; CLOCK_50   ;
; N/A   ; None         ; 7.963 ns   ; count_val_ten[3]  ; HEX1[0] ; CLOCK_50   ;
; N/A   ; None         ; 7.945 ns   ; count_val_unit[0] ; HEX0[6] ; CLOCK_50   ;
; N/A   ; None         ; 7.943 ns   ; count_val_unit[0] ; HEX0[5] ; CLOCK_50   ;
; N/A   ; None         ; 7.866 ns   ; count_val_hun[1]  ; HEX2[3] ; CLOCK_50   ;
; N/A   ; None         ; 7.864 ns   ; count_val_hun[1]  ; HEX2[2] ; CLOCK_50   ;
; N/A   ; None         ; 7.834 ns   ; count_val_hun[2]  ; HEX2[3] ; CLOCK_50   ;
; N/A   ; None         ; 7.823 ns   ; count_val_hun[1]  ; HEX2[0] ; CLOCK_50   ;
; N/A   ; None         ; 7.817 ns   ; count_val_hun[1]  ; HEX2[1] ; CLOCK_50   ;
; N/A   ; None         ; 7.806 ns   ; count_val_unit[3] ; HEX0[1] ; CLOCK_50   ;
; N/A   ; None         ; 7.805 ns   ; count_val_ten[0]  ; HEX1[3] ; CLOCK_50   ;
; N/A   ; None         ; 7.804 ns   ; count_val_hun[2]  ; HEX2[1] ; CLOCK_50   ;
; N/A   ; None         ; 7.801 ns   ; count_val_hun[2]  ; HEX2[2] ; CLOCK_50   ;
; N/A   ; None         ; 7.801 ns   ; count_val_unit[3] ; HEX0[3] ; CLOCK_50   ;
; N/A   ; None         ; 7.799 ns   ; count_val_ten[0]  ; HEX1[1] ; CLOCK_50   ;
; N/A   ; None         ; 7.788 ns   ; count_val_unit[3] ; HEX0[2] ; CLOCK_50   ;
; N/A   ; None         ; 7.786 ns   ; count_val_ten[0]  ; HEX1[2] ; CLOCK_50   ;
; N/A   ; None         ; 7.776 ns   ; count_val_ten[0]  ; HEX1[4] ; CLOCK_50   ;
; N/A   ; None         ; 7.773 ns   ; count_val_ten[2]  ; HEX1[5] ; CLOCK_50   ;
; N/A   ; None         ; 7.772 ns   ; count_val_ten[2]  ; HEX1[6] ; CLOCK_50   ;
; N/A   ; None         ; 7.767 ns   ; count_val_unit[3] ; HEX0[0] ; CLOCK_50   ;
; N/A   ; None         ; 7.762 ns   ; count_val_hun[2]  ; HEX2[0] ; CLOCK_50   ;
; N/A   ; None         ; 7.715 ns   ; count_val_ten[2]  ; HEX1[0] ; CLOCK_50   ;
; N/A   ; None         ; 7.688 ns   ; count_val_unit[1] ; HEX0[4] ; CLOCK_50   ;
; N/A   ; None         ; 7.675 ns   ; count_val_unit[1] ; HEX0[6] ; CLOCK_50   ;
; N/A   ; None         ; 7.666 ns   ; count_val_unit[2] ; HEX0[1] ; CLOCK_50   ;
; N/A   ; None         ; 7.660 ns   ; count_val_unit[2] ; HEX0[3] ; CLOCK_50   ;
; N/A   ; None         ; 7.648 ns   ; count_val_unit[2] ; HEX0[2] ; CLOCK_50   ;
; N/A   ; None         ; 7.625 ns   ; count_val_ten[3]  ; HEX1[4] ; CLOCK_50   ;
; N/A   ; None         ; 7.622 ns   ; count_val_unit[1] ; HEX0[0] ; CLOCK_50   ;
; N/A   ; None         ; 7.620 ns   ; count_val_unit[1] ; HEX0[5] ; CLOCK_50   ;
; N/A   ; None         ; 7.607 ns   ; count_val_ten[3]  ; HEX1[3] ; CLOCK_50   ;
; N/A   ; None         ; 7.598 ns   ; count_val_ten[3]  ; HEX1[2] ; CLOCK_50   ;
; N/A   ; None         ; 7.596 ns   ; count_val_ten[3]  ; HEX1[1] ; CLOCK_50   ;
; N/A   ; None         ; 7.484 ns   ; count_val_unit[3] ; HEX0[4] ; CLOCK_50   ;
; N/A   ; None         ; 7.464 ns   ; count_val_unit[3] ; HEX0[6] ; CLOCK_50   ;
; N/A   ; None         ; 7.464 ns   ; count_val_unit[3] ; HEX0[5] ; CLOCK_50   ;
; N/A   ; None         ; 7.344 ns   ; count_val_unit[2] ; HEX0[4] ; CLOCK_50   ;
; N/A   ; None         ; 7.323 ns   ; count_val_unit[2] ; HEX0[6] ; CLOCK_50   ;
; N/A   ; None         ; 7.321 ns   ; count_val_unit[2] ; HEX0[5] ; CLOCK_50   ;
+-------+--------------+------------+-------------------+---------+------------+


+--------------------------+
; Timing Analyzer Messages ;
+--------------------------+
Info: *******************************************************************
Info: Running Quartus II Classic Timing Analyzer
    Info: Version 9.1 Build 350 03/24/2010 Service Pack 2 SJ Full Version
    Info: Processing started: Wed Apr 26 13:06:17 2017
Info: Command: quartus_tan --read_settings_files=off --write_settings_files=off BCD_counter -c BCD_counter --timing_analysis_only
Info: Parallel compilation is enabled and will use 4 of the 4 processors detected
Warning: Found combinational loop of 1 nodes
    Warning: Node "count_val_hun[0]~8"
Warning: Found pins functioning as undefined clocks and/or memory enables
    Info: Assuming node "CLOCK_50" is an undefined clock
Info: Clock "CLOCK_50" has Internal fmax of 296.56 MHz between source register "count_val_unit[1]" and destination register "count_val_hun[2]" (period= 3.372 ns)
    Info: + Longest register to register delay is 3.141 ns
        Info: 1: + IC(0.000 ns) + CELL(0.000 ns) = 0.000 ns; Loc. = LCFF_X2_Y20_N29; Fanout = 11; REG Node = 'count_val_unit[1]'
        Info: 2: + IC(0.842 ns) + CELL(0.457 ns) = 1.299 ns; Loc. = LCCOMB_X1_Y20_N20; Fanout = 4; COMB Node = 'Equal1~0'
        Info: 3: + IC(1.225 ns) + CELL(0.521 ns) = 3.045 ns; Loc. = LCCOMB_X1_Y19_N16; Fanout = 1; COMB Node = 'count_val_hun[2]~5'
        Info: 4: + IC(0.000 ns) + CELL(0.096 ns) = 3.141 ns; Loc. = LCFF_X1_Y19_N17; Fanout = 10; REG Node = 'count_val_hun[2]'
        Info: Total cell delay = 1.074 ns ( 34.19 % )
        Info: Total interconnect delay = 2.067 ns ( 65.81 % )
    Info: - Smallest clock skew is 0.008 ns
        Info: + Shortest clock path from clock "CLOCK_50" to destination register is 2.844 ns
            Info: 1: + IC(0.000 ns) + CELL(1.026 ns) = 1.026 ns; Loc. = PIN_L1; Fanout = 1; CLK Node = 'CLOCK_50'
            Info: 2: + IC(0.238 ns) + CELL(0.000 ns) = 1.264 ns; Loc. = CLKCTRL_G2; Fanout = 12; COMB Node = 'CLOCK_50~clkctrl'
            Info: 3: + IC(0.978 ns) + CELL(0.602 ns) = 2.844 ns; Loc. = LCFF_X1_Y19_N17; Fanout = 10; REG Node = 'count_val_hun[2]'
            Info: Total cell delay = 1.628 ns ( 57.24 % )
            Info: Total interconnect delay = 1.216 ns ( 42.76 % )
        Info: - Longest clock path from clock "CLOCK_50" to source register is 2.836 ns
            Info: 1: + IC(0.000 ns) + CELL(1.026 ns) = 1.026 ns; Loc. = PIN_L1; Fanout = 1; CLK Node = 'CLOCK_50'
            Info: 2: + IC(0.238 ns) + CELL(0.000 ns) = 1.264 ns; Loc. = CLKCTRL_G2; Fanout = 12; COMB Node = 'CLOCK_50~clkctrl'
            Info: 3: + IC(0.970 ns) + CELL(0.602 ns) = 2.836 ns; Loc. = LCFF_X2_Y20_N29; Fanout = 11; REG Node = 'count_val_unit[1]'
            Info: Total cell delay = 1.628 ns ( 57.40 % )
            Info: Total interconnect delay = 1.208 ns ( 42.60 % )
    Info: + Micro clock to output delay of source is 0.277 ns
    Info: + Micro setup delay of destination is -0.038 ns
Info: tco from clock "CLOCK_50" to destination pin "HEX2[6]" through register "count_val_hun[0]" is 8.731 ns
    Info: + Longest clock path from clock "CLOCK_50" to source register is 2.835 ns
        Info: 1: + IC(0.000 ns) + CELL(1.026 ns) = 1.026 ns; Loc. = PIN_L1; Fanout = 1; CLK Node = 'CLOCK_50'
        Info: 2: + IC(0.238 ns) + CELL(0.000 ns) = 1.264 ns; Loc. = CLKCTRL_G2; Fanout = 12; COMB Node = 'CLOCK_50~clkctrl'
        Info: 3: + IC(0.969 ns) + CELL(0.602 ns) = 2.835 ns; Loc. = LCFF_X1_Y20_N19; Fanout = 10; REG Node = 'count_val_hun[0]'
        Info: Total cell delay = 1.628 ns ( 57.43 % )
        Info: Total interconnect delay = 1.207 ns ( 42.57 % )
    Info: + Micro clock to output delay of source is 0.277 ns
    Info: + Longest register to pin delay is 5.619 ns
        Info: 1: + IC(0.000 ns) + CELL(0.000 ns) = 0.000 ns; Loc. = LCFF_X1_Y20_N19; Fanout = 10; REG Node = 'count_val_hun[0]'
        Info: 2: + IC(0.980 ns) + CELL(0.521 ns) = 1.501 ns; Loc. = LCCOMB_X1_Y19_N30; Fanout = 1; COMB Node = 'HEX2~6'
        Info: 3: + IC(1.278 ns) + CELL(2.840 ns) = 5.619 ns; Loc. = PIN_D3; Fanout = 0; PIN Node = 'HEX2[6]'
        Info: Total cell delay = 3.361 ns ( 59.81 % )
        Info: Total interconnect delay = 2.258 ns ( 40.19 % )
Info: Quartus II Classic Timing Analyzer was successful. 0 errors, 3 warnings
    Info: Peak virtual memory: 184 megabytes
    Info: Processing ended: Wed Apr 26 13:06:18 2017
    Info: Elapsed time: 00:00:01
    Info: Total CPU time (on all processors): 00:00:00


