Classic Timing Analyzer report for counters_struct
Sun Apr 16 14:52:41 2017
Quartus II Version 9.0 Build 184 04/29/2009 Service Pack 1 SJ Web Edition


---------------------
; Table of Contents ;
---------------------
  1. Legal Notice
  2. Timing Analyzer Summary
  3. Timing Analyzer Settings
  4. Clock Settings Summary
  5. Parallel Compilation
  6. Clock Setup: 'Clk'
  7. tsu
  8. tco
  9. th
 10. Timing Analyzer Messages



----------------
; Legal Notice ;
----------------
Copyright (C) 1991-2009 Altera Corporation
Your use of Altera Corporation's design tools, logic functions 
and other software and tools, and its AMPP partner logic 
functions, and any output files from any of the foregoing 
(including device programming or simulation files), and any 
associated documentation or information are expressly subject 
to the terms and conditions of the Altera Program License 
Subscription Agreement, Altera MegaCore Function License 
Agreement, or other applicable license agreement, including, 
without limitation, that your use is for the sole purpose of 
programming logic devices manufactured by Altera and sold by 
Altera or its authorized distributors.  Please refer to the 
applicable agreement for further details.



+---------------------------------------------------------------------------------------------------------------------------------------------------------------------------------------------------------------------------------------------------------+
; Timing Analyzer Summary                                                                                                                                                                                                                                 ;
+------------------------------+-------+---------------+----------------------------------+---------------------------------------------------------+--------------------------------------------------------------+------------+----------+--------------+
; Type                         ; Slack ; Required Time ; Actual Time                      ; From                                                    ; To                                                           ; From Clock ; To Clock ; Failed Paths ;
+------------------------------+-------+---------------+----------------------------------+---------------------------------------------------------+--------------------------------------------------------------+------------+----------+--------------+
; Worst-case tsu               ; N/A   ; None          ; 6.503 ns                         ; En                                                      ; T_Flop:flop_0|T_Flop_comp:\T_flop_part:15:actual_flop|not_op ; --         ; Clk      ; 0            ;
; Worst-case tco               ; N/A   ; None          ; 9.916 ns                         ; T_Flop:flop_0|T_Flop_comp:\T_flop_part:2:actual_flop|op ; Count[2]                                                     ; Clk        ; --       ; 0            ;
; Worst-case th                ; N/A   ; None          ; -3.492 ns                        ; En                                                      ; T_Flop:flop_0|T_Flop_comp:\T_flop_part:0:actual_flop|op      ; --         ; Clk      ; 0            ;
; Clock Setup: 'Clk'           ; N/A   ; None          ; 248.57 MHz ( period = 4.023 ns ) ; T_Flop:flop_0|T_Flop_comp:\T_flop_part:3:actual_flop|op ; T_Flop:flop_0|T_Flop_comp:\T_flop_part:15:actual_flop|not_op ; Clk        ; Clk      ; 0            ;
; Total number of failed paths ;       ;               ;                                  ;                                                         ;                                                              ;            ;          ; 0            ;
+------------------------------+-------+---------------+----------------------------------+---------------------------------------------------------+--------------------------------------------------------------+------------+----------+--------------+


+--------------------------------------------------------------------------------------------------------------------+
; Timing Analyzer Settings                                                                                           ;
+---------------------------------------------------------------------+--------------------+------+----+-------------+
; Option                                                              ; Setting            ; From ; To ; Entity Name ;
+---------------------------------------------------------------------+--------------------+------+----+-------------+
; Device Name                                                         ; EP2C20F484C7       ;      ;    ;             ;
; Timing Models                                                       ; Final              ;      ;    ;             ;
; Default hold multicycle                                             ; Same as Multicycle ;      ;    ;             ;
; Cut paths between unrelated clock domains                           ; On                 ;      ;    ;             ;
; Cut off read during write signal paths                              ; On                 ;      ;    ;             ;
; Cut off feedback from I/O pins                                      ; On                 ;      ;    ;             ;
; Report Combined Fast/Slow Timing                                    ; Off                ;      ;    ;             ;
; Ignore Clock Settings                                               ; Off                ;      ;    ;             ;
; Analyze latches as synchronous elements                             ; On                 ;      ;    ;             ;
; Enable Recovery/Removal analysis                                    ; Off                ;      ;    ;             ;
; Enable Clock Latency                                                ; Off                ;      ;    ;             ;
; Use TimeQuest Timing Analyzer                                       ; Off                ;      ;    ;             ;
; Minimum Core Junction Temperature                                   ; 0                  ;      ;    ;             ;
; Maximum Core Junction Temperature                                   ; 85                 ;      ;    ;             ;
; Number of source nodes to report per destination node               ; 10                 ;      ;    ;             ;
; Number of destination nodes to report                               ; 10                 ;      ;    ;             ;
; Number of paths to report                                           ; 200                ;      ;    ;             ;
; Report Minimum Timing Checks                                        ; Off                ;      ;    ;             ;
; Use Fast Timing Models                                              ; Off                ;      ;    ;             ;
; Report IO Paths Separately                                          ; Off                ;      ;    ;             ;
; Perform Multicorner Analysis                                        ; On                 ;      ;    ;             ;
; Reports the worst-case path for each clock domain and analysis      ; Off                ;      ;    ;             ;
; Removes common clock path pessimism (CCPP) during slack computation ; Off                ;      ;    ;             ;
; Output I/O Timing Endpoint                                          ; Near End           ;      ;    ;             ;
+---------------------------------------------------------------------+--------------------+------+----+-------------+


+------------------------------------------------------------------------------------------------------------------------------------------------------------------------------------+
; Clock Settings Summary                                                                                                                                                             ;
+-----------------+--------------------+----------+------------------+---------------+--------------+----------+-----------------------+---------------------+--------+--------------+
; Clock Node Name ; Clock Setting Name ; Type     ; Fmax Requirement ; Early Latency ; Late Latency ; Based on ; Multiply Base Fmax by ; Divide Base Fmax by ; Offset ; Phase offset ;
+-----------------+--------------------+----------+------------------+---------------+--------------+----------+-----------------------+---------------------+--------+--------------+
; Clk             ;                    ; User Pin ; None             ; 0.000 ns      ; 0.000 ns     ; --       ; N/A                   ; N/A                 ; N/A    ;              ;
+-----------------+--------------------+----------+------------------+---------------+--------------+----------+-----------------------+---------------------+--------+--------------+


Parallel compilation was disabled, but you have multiple processors available. Enable parallel compilation to reduce compilation time.
+-------------------------------------+
; Parallel Compilation                ;
+----------------------------+--------+
; Processors                 ; Number ;
+----------------------------+--------+
; Number detected on machine ; 2      ;
; Maximum allowed            ; 1      ;
+----------------------------+--------+


+--------------------------------------------------------------------------------------------------------------------------------------------------------------------------------------------------------------------------------------------------------------------------------------------------+
; Clock Setup: 'Clk'                                                                                                                                                                                                                                                                               ;
+-------+------------------------------------------------+--------------------------------------------------------------+--------------------------------------------------------------+------------+----------+-----------------------------+---------------------------+-------------------------+
; Slack ; Actual fmax (period)                           ; From                                                         ; To                                                           ; From Clock ; To Clock ; Required Setup Relationship ; Required Longest P2P Time ; Actual Longest P2P Time ;
+-------+------------------------------------------------+--------------------------------------------------------------+--------------------------------------------------------------+------------+----------+-----------------------------+---------------------------+-------------------------+
; N/A   ; 248.57 MHz ( period = 4.023 ns )               ; T_Flop:flop_0|T_Flop_comp:\T_flop_part:3:actual_flop|op      ; T_Flop:flop_0|T_Flop_comp:\T_flop_part:15:actual_flop|op     ; Clk        ; Clk      ; None                        ; None                      ; 3.784 ns                ;
; N/A   ; 248.57 MHz ( period = 4.023 ns )               ; T_Flop:flop_0|T_Flop_comp:\T_flop_part:3:actual_flop|op      ; T_Flop:flop_0|T_Flop_comp:\T_flop_part:15:actual_flop|not_op ; Clk        ; Clk      ; None                        ; None                      ; 3.784 ns                ;
; N/A   ; 266.88 MHz ( period = 3.747 ns )               ; T_Flop:flop_0|T_Flop_comp:\T_flop_part:8:actual_flop|op      ; T_Flop:flop_0|T_Flop_comp:\T_flop_part:15:actual_flop|op     ; Clk        ; Clk      ; None                        ; None                      ; 3.508 ns                ;
; N/A   ; 266.88 MHz ( period = 3.747 ns )               ; T_Flop:flop_0|T_Flop_comp:\T_flop_part:8:actual_flop|op      ; T_Flop:flop_0|T_Flop_comp:\T_flop_part:15:actual_flop|not_op ; Clk        ; Clk      ; None                        ; None                      ; 3.508 ns                ;
; N/A   ; 276.47 MHz ( period = 3.617 ns )               ; T_Flop:flop_0|T_Flop_comp:\T_flop_part:0:actual_flop|op      ; T_Flop:flop_0|T_Flop_comp:\T_flop_part:15:actual_flop|op     ; Clk        ; Clk      ; None                        ; None                      ; 3.378 ns                ;
; N/A   ; 276.47 MHz ( period = 3.617 ns )               ; T_Flop:flop_0|T_Flop_comp:\T_flop_part:0:actual_flop|op      ; T_Flop:flop_0|T_Flop_comp:\T_flop_part:15:actual_flop|not_op ; Clk        ; Clk      ; None                        ; None                      ; 3.378 ns                ;
; N/A   ; 279.33 MHz ( period = 3.580 ns )               ; T_Flop:flop_0|T_Flop_comp:\T_flop_part:4:actual_flop|op      ; T_Flop:flop_0|T_Flop_comp:\T_flop_part:15:actual_flop|op     ; Clk        ; Clk      ; None                        ; None                      ; 3.341 ns                ;
; N/A   ; 279.33 MHz ( period = 3.580 ns )               ; T_Flop:flop_0|T_Flop_comp:\T_flop_part:4:actual_flop|op      ; T_Flop:flop_0|T_Flop_comp:\T_flop_part:15:actual_flop|not_op ; Clk        ; Clk      ; None                        ; None                      ; 3.341 ns                ;
; N/A   ; 287.52 MHz ( period = 3.478 ns )               ; T_Flop:flop_0|T_Flop_comp:\T_flop_part:3:actual_flop|op      ; T_Flop:flop_0|T_Flop_comp:\T_flop_part:14:actual_flop|op     ; Clk        ; Clk      ; None                        ; None                      ; 3.239 ns                ;
; N/A   ; 290.44 MHz ( period = 3.443 ns )               ; T_Flop:flop_0|T_Flop_comp:\T_flop_part:2:actual_flop|op      ; T_Flop:flop_0|T_Flop_comp:\T_flop_part:15:actual_flop|op     ; Clk        ; Clk      ; None                        ; None                      ; 3.204 ns                ;
; N/A   ; 290.44 MHz ( period = 3.443 ns )               ; T_Flop:flop_0|T_Flop_comp:\T_flop_part:2:actual_flop|op      ; T_Flop:flop_0|T_Flop_comp:\T_flop_part:15:actual_flop|not_op ; Clk        ; Clk      ; None                        ; None                      ; 3.204 ns                ;
; N/A   ; 292.65 MHz ( period = 3.417 ns )               ; T_Flop:flop_0|T_Flop_comp:\T_flop_part:5:actual_flop|op      ; T_Flop:flop_0|T_Flop_comp:\T_flop_part:15:actual_flop|op     ; Clk        ; Clk      ; None                        ; None                      ; 3.178 ns                ;
; N/A   ; 292.65 MHz ( period = 3.417 ns )               ; T_Flop:flop_0|T_Flop_comp:\T_flop_part:5:actual_flop|op      ; T_Flop:flop_0|T_Flop_comp:\T_flop_part:15:actual_flop|not_op ; Clk        ; Clk      ; None                        ; None                      ; 3.178 ns                ;
; N/A   ; 296.03 MHz ( period = 3.378 ns )               ; T_Flop:flop_0|T_Flop_comp:\T_flop_part:6:actual_flop|op      ; T_Flop:flop_0|T_Flop_comp:\T_flop_part:15:actual_flop|op     ; Clk        ; Clk      ; None                        ; None                      ; 3.140 ns                ;
; N/A   ; 296.03 MHz ( period = 3.378 ns )               ; T_Flop:flop_0|T_Flop_comp:\T_flop_part:6:actual_flop|op      ; T_Flop:flop_0|T_Flop_comp:\T_flop_part:15:actual_flop|not_op ; Clk        ; Clk      ; None                        ; None                      ; 3.140 ns                ;
; N/A   ; 299.76 MHz ( period = 3.336 ns )               ; T_Flop:flop_0|T_Flop_comp:\T_flop_part:7:actual_flop|op      ; T_Flop:flop_0|T_Flop_comp:\T_flop_part:15:actual_flop|op     ; Clk        ; Clk      ; None                        ; None                      ; 3.098 ns                ;
; N/A   ; 299.76 MHz ( period = 3.336 ns )               ; T_Flop:flop_0|T_Flop_comp:\T_flop_part:7:actual_flop|op      ; T_Flop:flop_0|T_Flop_comp:\T_flop_part:15:actual_flop|not_op ; Clk        ; Clk      ; None                        ; None                      ; 3.098 ns                ;
; N/A   ; 303.77 MHz ( period = 3.292 ns )               ; T_Flop:flop_0|T_Flop_comp:\T_flop_part:3:actual_flop|op      ; T_Flop:flop_0|T_Flop_comp:\T_flop_part:12:actual_flop|op     ; Clk        ; Clk      ; None                        ; None                      ; 3.054 ns                ;
; N/A   ; 303.95 MHz ( period = 3.290 ns )               ; T_Flop:flop_0|T_Flop_comp:\T_flop_part:1:actual_flop|op      ; T_Flop:flop_0|T_Flop_comp:\T_flop_part:15:actual_flop|op     ; Clk        ; Clk      ; None                        ; None                      ; 3.051 ns                ;
; N/A   ; 303.95 MHz ( period = 3.290 ns )               ; T_Flop:flop_0|T_Flop_comp:\T_flop_part:1:actual_flop|op      ; T_Flop:flop_0|T_Flop_comp:\T_flop_part:15:actual_flop|not_op ; Clk        ; Clk      ; None                        ; None                      ; 3.051 ns                ;
; N/A   ; 307.79 MHz ( period = 3.249 ns )               ; T_Flop:flop_0|T_Flop_comp:\T_flop_part:11:actual_flop|op     ; T_Flop:flop_0|T_Flop_comp:\T_flop_part:15:actual_flop|op     ; Clk        ; Clk      ; None                        ; None                      ; 3.019 ns                ;
; N/A   ; 307.79 MHz ( period = 3.249 ns )               ; T_Flop:flop_0|T_Flop_comp:\T_flop_part:11:actual_flop|op     ; T_Flop:flop_0|T_Flop_comp:\T_flop_part:15:actual_flop|not_op ; Clk        ; Clk      ; None                        ; None                      ; 3.019 ns                ;
; N/A   ; 312.30 MHz ( period = 3.202 ns )               ; T_Flop:flop_0|T_Flop_comp:\T_flop_part:8:actual_flop|op      ; T_Flop:flop_0|T_Flop_comp:\T_flop_part:14:actual_flop|op     ; Clk        ; Clk      ; None                        ; None                      ; 2.963 ns                ;
; N/A   ; 313.38 MHz ( period = 3.191 ns )               ; T_Flop:flop_0|T_Flop_comp:\T_flop_part:3:actual_flop|op      ; T_Flop:flop_0|T_Flop_comp:\T_flop_part:9:actual_flop|op      ; Clk        ; Clk      ; None                        ; None                      ; 2.943 ns                ;
; N/A   ; 313.38 MHz ( period = 3.191 ns )               ; T_Flop:flop_0|T_Flop_comp:\T_flop_part:3:actual_flop|op      ; T_Flop:flop_0|T_Flop_comp:\T_flop_part:10:actual_flop|op     ; Clk        ; Clk      ; None                        ; None                      ; 2.943 ns                ;
; N/A   ; 313.58 MHz ( period = 3.189 ns )               ; T_Flop:flop_0|T_Flop_comp:\T_flop_part:3:actual_flop|op      ; T_Flop:flop_0|T_Flop_comp:\T_flop_part:11:actual_flop|op     ; Clk        ; Clk      ; None                        ; None                      ; 2.941 ns                ;
; N/A   ; 324.04 MHz ( period = 3.086 ns )               ; T_Flop:flop_0|T_Flop_comp:\T_flop_part:3:actual_flop|op      ; T_Flop:flop_0|T_Flop_comp:\T_flop_part:13:actual_flop|op     ; Clk        ; Clk      ; None                        ; None                      ; 2.847 ns                ;
; N/A   ; 325.52 MHz ( period = 3.072 ns )               ; T_Flop:flop_0|T_Flop_comp:\T_flop_part:0:actual_flop|op      ; T_Flop:flop_0|T_Flop_comp:\T_flop_part:14:actual_flop|op     ; Clk        ; Clk      ; None                        ; None                      ; 2.833 ns                ;
; N/A   ; 329.49 MHz ( period = 3.035 ns )               ; T_Flop:flop_0|T_Flop_comp:\T_flop_part:4:actual_flop|op      ; T_Flop:flop_0|T_Flop_comp:\T_flop_part:14:actual_flop|op     ; Clk        ; Clk      ; None                        ; None                      ; 2.796 ns                ;
; N/A   ; 331.56 MHz ( period = 3.016 ns )               ; T_Flop:flop_0|T_Flop_comp:\T_flop_part:8:actual_flop|op      ; T_Flop:flop_0|T_Flop_comp:\T_flop_part:12:actual_flop|op     ; Clk        ; Clk      ; None                        ; None                      ; 2.778 ns                ;
; N/A   ; 332.56 MHz ( period = 3.007 ns )               ; T_Flop:flop_0|T_Flop_comp:\T_flop_part:10:actual_flop|op     ; T_Flop:flop_0|T_Flop_comp:\T_flop_part:15:actual_flop|op     ; Clk        ; Clk      ; None                        ; None                      ; 2.777 ns                ;
; N/A   ; 332.56 MHz ( period = 3.007 ns )               ; T_Flop:flop_0|T_Flop_comp:\T_flop_part:10:actual_flop|op     ; T_Flop:flop_0|T_Flop_comp:\T_flop_part:15:actual_flop|not_op ; Clk        ; Clk      ; None                        ; None                      ; 2.777 ns                ;
; N/A   ; 343.05 MHz ( period = 2.915 ns )               ; T_Flop:flop_0|T_Flop_comp:\T_flop_part:8:actual_flop|op      ; T_Flop:flop_0|T_Flop_comp:\T_flop_part:9:actual_flop|op      ; Clk        ; Clk      ; None                        ; None                      ; 2.667 ns                ;
; N/A   ; 343.05 MHz ( period = 2.915 ns )               ; T_Flop:flop_0|T_Flop_comp:\T_flop_part:8:actual_flop|op      ; T_Flop:flop_0|T_Flop_comp:\T_flop_part:10:actual_flop|op     ; Clk        ; Clk      ; None                        ; None                      ; 2.667 ns                ;
; N/A   ; 343.29 MHz ( period = 2.913 ns )               ; T_Flop:flop_0|T_Flop_comp:\T_flop_part:8:actual_flop|op      ; T_Flop:flop_0|T_Flop_comp:\T_flop_part:11:actual_flop|op     ; Clk        ; Clk      ; None                        ; None                      ; 2.665 ns                ;
; N/A   ; 345.07 MHz ( period = 2.898 ns )               ; T_Flop:flop_0|T_Flop_comp:\T_flop_part:2:actual_flop|op      ; T_Flop:flop_0|T_Flop_comp:\T_flop_part:14:actual_flop|op     ; Clk        ; Clk      ; None                        ; None                      ; 2.659 ns                ;
; N/A   ; 346.50 MHz ( period = 2.886 ns )               ; T_Flop:flop_0|T_Flop_comp:\T_flop_part:0:actual_flop|op      ; T_Flop:flop_0|T_Flop_comp:\T_flop_part:12:actual_flop|op     ; Clk        ; Clk      ; None                        ; None                      ; 2.648 ns                ;
; N/A   ; 348.19 MHz ( period = 2.872 ns )               ; T_Flop:flop_0|T_Flop_comp:\T_flop_part:5:actual_flop|op      ; T_Flop:flop_0|T_Flop_comp:\T_flop_part:14:actual_flop|op     ; Clk        ; Clk      ; None                        ; None                      ; 2.633 ns                ;
; N/A   ; 349.28 MHz ( period = 2.863 ns )               ; T_Flop:flop_0|T_Flop_comp:\T_flop_part:9:actual_flop|op      ; T_Flop:flop_0|T_Flop_comp:\T_flop_part:15:actual_flop|op     ; Clk        ; Clk      ; None                        ; None                      ; 2.633 ns                ;
; N/A   ; 349.28 MHz ( period = 2.863 ns )               ; T_Flop:flop_0|T_Flop_comp:\T_flop_part:9:actual_flop|op      ; T_Flop:flop_0|T_Flop_comp:\T_flop_part:15:actual_flop|not_op ; Clk        ; Clk      ; None                        ; None                      ; 2.633 ns                ;
; N/A   ; 351.00 MHz ( period = 2.849 ns )               ; T_Flop:flop_0|T_Flop_comp:\T_flop_part:4:actual_flop|op      ; T_Flop:flop_0|T_Flop_comp:\T_flop_part:12:actual_flop|op     ; Clk        ; Clk      ; None                        ; None                      ; 2.611 ns                ;
; N/A   ; 352.98 MHz ( period = 2.833 ns )               ; T_Flop:flop_0|T_Flop_comp:\T_flop_part:6:actual_flop|op      ; T_Flop:flop_0|T_Flop_comp:\T_flop_part:14:actual_flop|op     ; Clk        ; Clk      ; None                        ; None                      ; 2.595 ns                ;
; N/A   ; 355.87 MHz ( period = 2.810 ns )               ; T_Flop:flop_0|T_Flop_comp:\T_flop_part:8:actual_flop|op      ; T_Flop:flop_0|T_Flop_comp:\T_flop_part:13:actual_flop|op     ; Clk        ; Clk      ; None                        ; None                      ; 2.571 ns                ;
; N/A   ; 358.29 MHz ( period = 2.791 ns )               ; T_Flop:flop_0|T_Flop_comp:\T_flop_part:7:actual_flop|op      ; T_Flop:flop_0|T_Flop_comp:\T_flop_part:14:actual_flop|op     ; Clk        ; Clk      ; None                        ; None                      ; 2.553 ns                ;
; N/A   ; 359.07 MHz ( period = 2.785 ns )               ; T_Flop:flop_0|T_Flop_comp:\T_flop_part:0:actual_flop|op      ; T_Flop:flop_0|T_Flop_comp:\T_flop_part:9:actual_flop|op      ; Clk        ; Clk      ; None                        ; None                      ; 2.537 ns                ;
; N/A   ; 359.07 MHz ( period = 2.785 ns )               ; T_Flop:flop_0|T_Flop_comp:\T_flop_part:0:actual_flop|op      ; T_Flop:flop_0|T_Flop_comp:\T_flop_part:10:actual_flop|op     ; Clk        ; Clk      ; None                        ; None                      ; 2.537 ns                ;
; N/A   ; 359.32 MHz ( period = 2.783 ns )               ; T_Flop:flop_0|T_Flop_comp:\T_flop_part:0:actual_flop|op      ; T_Flop:flop_0|T_Flop_comp:\T_flop_part:11:actual_flop|op     ; Clk        ; Clk      ; None                        ; None                      ; 2.535 ns                ;
; N/A   ; 359.97 MHz ( period = 2.778 ns )               ; T_Flop:flop_0|T_Flop_comp:\T_flop_part:0:actual_flop|op      ; T_Flop:flop_0|T_Flop_comp:\T_flop_part:8:actual_flop|op      ; Clk        ; Clk      ; None                        ; None                      ; 2.539 ns                ;
; N/A   ; 363.90 MHz ( period = 2.748 ns )               ; T_Flop:flop_0|T_Flop_comp:\T_flop_part:4:actual_flop|op      ; T_Flop:flop_0|T_Flop_comp:\T_flop_part:9:actual_flop|op      ; Clk        ; Clk      ; None                        ; None                      ; 2.500 ns                ;
; N/A   ; 363.90 MHz ( period = 2.748 ns )               ; T_Flop:flop_0|T_Flop_comp:\T_flop_part:4:actual_flop|op      ; T_Flop:flop_0|T_Flop_comp:\T_flop_part:10:actual_flop|op     ; Clk        ; Clk      ; None                        ; None                      ; 2.500 ns                ;
; N/A   ; 364.17 MHz ( period = 2.746 ns )               ; T_Flop:flop_0|T_Flop_comp:\T_flop_part:4:actual_flop|op      ; T_Flop:flop_0|T_Flop_comp:\T_flop_part:11:actual_flop|op     ; Clk        ; Clk      ; None                        ; None                      ; 2.498 ns                ;
; N/A   ; 364.30 MHz ( period = 2.745 ns )               ; T_Flop:flop_0|T_Flop_comp:\T_flop_part:1:actual_flop|op      ; T_Flop:flop_0|T_Flop_comp:\T_flop_part:14:actual_flop|op     ; Clk        ; Clk      ; None                        ; None                      ; 2.506 ns                ;
; N/A   ; 368.73 MHz ( period = 2.712 ns )               ; T_Flop:flop_0|T_Flop_comp:\T_flop_part:2:actual_flop|op      ; T_Flop:flop_0|T_Flop_comp:\T_flop_part:12:actual_flop|op     ; Clk        ; Clk      ; None                        ; None                      ; 2.474 ns                ;
; N/A   ; 369.82 MHz ( period = 2.704 ns )               ; T_Flop:flop_0|T_Flop_comp:\T_flop_part:11:actual_flop|op     ; T_Flop:flop_0|T_Flop_comp:\T_flop_part:14:actual_flop|op     ; Clk        ; Clk      ; None                        ; None                      ; 2.474 ns                ;
; N/A   ; 372.30 MHz ( period = 2.686 ns )               ; T_Flop:flop_0|T_Flop_comp:\T_flop_part:5:actual_flop|op      ; T_Flop:flop_0|T_Flop_comp:\T_flop_part:12:actual_flop|op     ; Clk        ; Clk      ; None                        ; None                      ; 2.448 ns                ;
; N/A   ; 373.13 MHz ( period = 2.680 ns )               ; T_Flop:flop_0|T_Flop_comp:\T_flop_part:0:actual_flop|op      ; T_Flop:flop_0|T_Flop_comp:\T_flop_part:13:actual_flop|op     ; Clk        ; Clk      ; None                        ; None                      ; 2.441 ns                ;
; N/A   ; 377.79 MHz ( period = 2.647 ns )               ; T_Flop:flop_0|T_Flop_comp:\T_flop_part:6:actual_flop|op      ; T_Flop:flop_0|T_Flop_comp:\T_flop_part:12:actual_flop|op     ; Clk        ; Clk      ; None                        ; None                      ; 2.410 ns                ;
; N/A   ; 378.36 MHz ( period = 2.643 ns )               ; T_Flop:flop_0|T_Flop_comp:\T_flop_part:4:actual_flop|op      ; T_Flop:flop_0|T_Flop_comp:\T_flop_part:13:actual_flop|op     ; Clk        ; Clk      ; None                        ; None                      ; 2.404 ns                ;
; N/A   ; Restricted to 380.08 MHz ( period = 2.631 ns ) ; T_Flop:flop_0|T_Flop_comp:\T_flop_part:2:actual_flop|op      ; T_Flop:flop_0|T_Flop_comp:\T_flop_part:9:actual_flop|op      ; Clk        ; Clk      ; None                        ; None                      ; 2.363 ns                ;
; N/A   ; Restricted to 380.08 MHz ( period = 2.631 ns ) ; T_Flop:flop_0|T_Flop_comp:\T_flop_part:2:actual_flop|op      ; T_Flop:flop_0|T_Flop_comp:\T_flop_part:10:actual_flop|op     ; Clk        ; Clk      ; None                        ; None                      ; 2.363 ns                ;
; N/A   ; Restricted to 380.08 MHz ( period = 2.631 ns ) ; T_Flop:flop_0|T_Flop_comp:\T_flop_part:2:actual_flop|op      ; T_Flop:flop_0|T_Flop_comp:\T_flop_part:11:actual_flop|op     ; Clk        ; Clk      ; None                        ; None                      ; 2.361 ns                ;
; N/A   ; Restricted to 380.08 MHz ( period = 2.631 ns ) ; T_Flop:flop_0|T_Flop_comp:\T_flop_part:7:actual_flop|op      ; T_Flop:flop_0|T_Flop_comp:\T_flop_part:12:actual_flop|op     ; Clk        ; Clk      ; None                        ; None                      ; 2.368 ns                ;
; N/A   ; Restricted to 380.08 MHz ( period = 2.631 ns ) ; T_Flop:flop_0|T_Flop_comp:\T_flop_part:2:actual_flop|op      ; T_Flop:flop_0|T_Flop_comp:\T_flop_part:8:actual_flop|op      ; Clk        ; Clk      ; None                        ; None                      ; 2.365 ns                ;
; N/A   ; Restricted to 380.08 MHz ( period = 2.631 ns ) ; T_Flop:flop_0|T_Flop_comp:\T_flop_part:5:actual_flop|op      ; T_Flop:flop_0|T_Flop_comp:\T_flop_part:9:actual_flop|op      ; Clk        ; Clk      ; None                        ; None                      ; 2.337 ns                ;
; N/A   ; Restricted to 380.08 MHz ( period = 2.631 ns ) ; T_Flop:flop_0|T_Flop_comp:\T_flop_part:5:actual_flop|op      ; T_Flop:flop_0|T_Flop_comp:\T_flop_part:10:actual_flop|op     ; Clk        ; Clk      ; None                        ; None                      ; 2.337 ns                ;
; N/A   ; Restricted to 380.08 MHz ( period = 2.631 ns ) ; T_Flop:flop_0|T_Flop_comp:\T_flop_part:5:actual_flop|op      ; T_Flop:flop_0|T_Flop_comp:\T_flop_part:11:actual_flop|op     ; Clk        ; Clk      ; None                        ; None                      ; 2.335 ns                ;
; N/A   ; Restricted to 380.08 MHz ( period = 2.631 ns ) ; T_Flop:flop_0|T_Flop_comp:\T_flop_part:1:actual_flop|op      ; T_Flop:flop_0|T_Flop_comp:\T_flop_part:12:actual_flop|op     ; Clk        ; Clk      ; None                        ; None                      ; 2.321 ns                ;
; N/A   ; Restricted to 380.08 MHz ( period = 2.631 ns ) ; T_Flop:flop_0|T_Flop_comp:\T_flop_part:0:actual_flop|op      ; T_Flop:flop_0|T_Flop_comp:\T_flop_part:6:actual_flop|op      ; Clk        ; Clk      ; None                        ; None                      ; 2.310 ns                ;
; N/A   ; Restricted to 380.08 MHz ( period = 2.631 ns ) ; T_Flop:flop_0|T_Flop_comp:\T_flop_part:0:actual_flop|op      ; T_Flop:flop_0|T_Flop_comp:\T_flop_part:7:actual_flop|op      ; Clk        ; Clk      ; None                        ; None                      ; 2.308 ns                ;
; N/A   ; Restricted to 380.08 MHz ( period = 2.631 ns ) ; T_Flop:flop_0|T_Flop_comp:\T_flop_part:6:actual_flop|op      ; T_Flop:flop_0|T_Flop_comp:\T_flop_part:9:actual_flop|op      ; Clk        ; Clk      ; None                        ; None                      ; 2.299 ns                ;
; N/A   ; Restricted to 380.08 MHz ( period = 2.631 ns ) ; T_Flop:flop_0|T_Flop_comp:\T_flop_part:6:actual_flop|op      ; T_Flop:flop_0|T_Flop_comp:\T_flop_part:10:actual_flop|op     ; Clk        ; Clk      ; None                        ; None                      ; 2.299 ns                ;
; N/A   ; Restricted to 380.08 MHz ( period = 2.631 ns ) ; T_Flop:flop_0|T_Flop_comp:\T_flop_part:6:actual_flop|op      ; T_Flop:flop_0|T_Flop_comp:\T_flop_part:11:actual_flop|op     ; Clk        ; Clk      ; None                        ; None                      ; 2.297 ns                ;
; N/A   ; Restricted to 380.08 MHz ( period = 2.631 ns ) ; T_Flop:flop_0|T_Flop_comp:\T_flop_part:11:actual_flop|op     ; T_Flop:flop_0|T_Flop_comp:\T_flop_part:12:actual_flop|op     ; Clk        ; Clk      ; None                        ; None                      ; 2.289 ns                ;
; N/A   ; Restricted to 380.08 MHz ( period = 2.631 ns ) ; T_Flop:flop_0|T_Flop_comp:\T_flop_part:2:actual_flop|op      ; T_Flop:flop_0|T_Flop_comp:\T_flop_part:13:actual_flop|op     ; Clk        ; Clk      ; None                        ; None                      ; 2.267 ns                ;
; N/A   ; Restricted to 380.08 MHz ( period = 2.631 ns ) ; T_Flop:flop_0|T_Flop_comp:\T_flop_part:7:actual_flop|op      ; T_Flop:flop_0|T_Flop_comp:\T_flop_part:9:actual_flop|op      ; Clk        ; Clk      ; None                        ; None                      ; 2.257 ns                ;
; N/A   ; Restricted to 380.08 MHz ( period = 2.631 ns ) ; T_Flop:flop_0|T_Flop_comp:\T_flop_part:7:actual_flop|op      ; T_Flop:flop_0|T_Flop_comp:\T_flop_part:10:actual_flop|op     ; Clk        ; Clk      ; None                        ; None                      ; 2.257 ns                ;
; N/A   ; Restricted to 380.08 MHz ( period = 2.631 ns ) ; T_Flop:flop_0|T_Flop_comp:\T_flop_part:7:actual_flop|op      ; T_Flop:flop_0|T_Flop_comp:\T_flop_part:11:actual_flop|op     ; Clk        ; Clk      ; None                        ; None                      ; 2.255 ns                ;
; N/A   ; Restricted to 380.08 MHz ( period = 2.631 ns ) ; T_Flop:flop_0|T_Flop_comp:\T_flop_part:5:actual_flop|op      ; T_Flop:flop_0|T_Flop_comp:\T_flop_part:13:actual_flop|op     ; Clk        ; Clk      ; None                        ; None                      ; 2.241 ns                ;
; N/A   ; Restricted to 380.08 MHz ( period = 2.631 ns ) ; T_Flop:flop_0|T_Flop_comp:\T_flop_part:10:actual_flop|op     ; T_Flop:flop_0|T_Flop_comp:\T_flop_part:14:actual_flop|op     ; Clk        ; Clk      ; None                        ; None                      ; 2.232 ns                ;
; N/A   ; Restricted to 380.08 MHz ( period = 2.631 ns ) ; T_Flop:flop_0|T_Flop_comp:\T_flop_part:1:actual_flop|op      ; T_Flop:flop_0|T_Flop_comp:\T_flop_part:9:actual_flop|op      ; Clk        ; Clk      ; None                        ; None                      ; 2.210 ns                ;
; N/A   ; Restricted to 380.08 MHz ( period = 2.631 ns ) ; T_Flop:flop_0|T_Flop_comp:\T_flop_part:1:actual_flop|op      ; T_Flop:flop_0|T_Flop_comp:\T_flop_part:10:actual_flop|op     ; Clk        ; Clk      ; None                        ; None                      ; 2.210 ns                ;
; N/A   ; Restricted to 380.08 MHz ( period = 2.631 ns ) ; T_Flop:flop_0|T_Flop_comp:\T_flop_part:1:actual_flop|op      ; T_Flop:flop_0|T_Flop_comp:\T_flop_part:11:actual_flop|op     ; Clk        ; Clk      ; None                        ; None                      ; 2.208 ns                ;
; N/A   ; Restricted to 380.08 MHz ( period = 2.631 ns ) ; T_Flop:flop_0|T_Flop_comp:\T_flop_part:1:actual_flop|op      ; T_Flop:flop_0|T_Flop_comp:\T_flop_part:8:actual_flop|op      ; Clk        ; Clk      ; None                        ; None                      ; 2.212 ns                ;
; N/A   ; Restricted to 380.08 MHz ( period = 2.631 ns ) ; T_Flop:flop_0|T_Flop_comp:\T_flop_part:6:actual_flop|op      ; T_Flop:flop_0|T_Flop_comp:\T_flop_part:13:actual_flop|op     ; Clk        ; Clk      ; None                        ; None                      ; 2.203 ns                ;
; N/A   ; Restricted to 380.08 MHz ( period = 2.631 ns ) ; T_Flop:flop_0|T_Flop_comp:\T_flop_part:3:actual_flop|op      ; T_Flop:flop_0|T_Flop_comp:\T_flop_part:8:actual_flop|op      ; Clk        ; Clk      ; None                        ; None                      ; 2.180 ns                ;
; N/A   ; Restricted to 380.08 MHz ( period = 2.631 ns ) ; T_Flop:flop_0|T_Flop_comp:\T_flop_part:7:actual_flop|op      ; T_Flop:flop_0|T_Flop_comp:\T_flop_part:13:actual_flop|op     ; Clk        ; Clk      ; None                        ; None                      ; 2.161 ns                ;
; N/A   ; Restricted to 380.08 MHz ( period = 2.631 ns ) ; T_Flop:flop_0|T_Flop_comp:\T_flop_part:2:actual_flop|op      ; T_Flop:flop_0|T_Flop_comp:\T_flop_part:6:actual_flop|op      ; Clk        ; Clk      ; None                        ; None                      ; 2.136 ns                ;
; N/A   ; Restricted to 380.08 MHz ( period = 2.631 ns ) ; T_Flop:flop_0|T_Flop_comp:\T_flop_part:12:actual_flop|op     ; T_Flop:flop_0|T_Flop_comp:\T_flop_part:15:actual_flop|op     ; Clk        ; Clk      ; None                        ; None                      ; 2.136 ns                ;
; N/A   ; Restricted to 380.08 MHz ( period = 2.631 ns ) ; T_Flop:flop_0|T_Flop_comp:\T_flop_part:12:actual_flop|op     ; T_Flop:flop_0|T_Flop_comp:\T_flop_part:15:actual_flop|not_op ; Clk        ; Clk      ; None                        ; None                      ; 2.136 ns                ;
; N/A   ; Restricted to 380.08 MHz ( period = 2.631 ns ) ; T_Flop:flop_0|T_Flop_comp:\T_flop_part:2:actual_flop|op      ; T_Flop:flop_0|T_Flop_comp:\T_flop_part:7:actual_flop|op      ; Clk        ; Clk      ; None                        ; None                      ; 2.134 ns                ;
; N/A   ; Restricted to 380.08 MHz ( period = 2.631 ns ) ; T_Flop:flop_0|T_Flop_comp:\T_flop_part:13:actual_flop|op     ; T_Flop:flop_0|T_Flop_comp:\T_flop_part:15:actual_flop|op     ; Clk        ; Clk      ; None                        ; None                      ; 2.128 ns                ;
; N/A   ; Restricted to 380.08 MHz ( period = 2.631 ns ) ; T_Flop:flop_0|T_Flop_comp:\T_flop_part:13:actual_flop|op     ; T_Flop:flop_0|T_Flop_comp:\T_flop_part:15:actual_flop|not_op ; Clk        ; Clk      ; None                        ; None                      ; 2.128 ns                ;
; N/A   ; Restricted to 380.08 MHz ( period = 2.631 ns ) ; T_Flop:flop_0|T_Flop_comp:\T_flop_part:1:actual_flop|op      ; T_Flop:flop_0|T_Flop_comp:\T_flop_part:13:actual_flop|op     ; Clk        ; Clk      ; None                        ; None                      ; 2.114 ns                ;
; N/A   ; Restricted to 380.08 MHz ( period = 2.631 ns ) ; T_Flop:flop_0|T_Flop_comp:\T_flop_part:9:actual_flop|op      ; T_Flop:flop_0|T_Flop_comp:\T_flop_part:14:actual_flop|op     ; Clk        ; Clk      ; None                        ; None                      ; 2.088 ns                ;
; N/A   ; Restricted to 380.08 MHz ( period = 2.631 ns ) ; T_Flop:flop_0|T_Flop_comp:\T_flop_part:11:actual_flop|op     ; T_Flop:flop_0|T_Flop_comp:\T_flop_part:13:actual_flop|op     ; Clk        ; Clk      ; None                        ; None                      ; 2.082 ns                ;
; N/A   ; Restricted to 380.08 MHz ( period = 2.631 ns ) ; T_Flop:flop_0|T_Flop_comp:\T_flop_part:10:actual_flop|op     ; T_Flop:flop_0|T_Flop_comp:\T_flop_part:12:actual_flop|op     ; Clk        ; Clk      ; None                        ; None                      ; 2.047 ns                ;
; N/A   ; Restricted to 380.08 MHz ( period = 2.631 ns ) ; T_Flop:flop_0|T_Flop_comp:\T_flop_part:1:actual_flop|op      ; T_Flop:flop_0|T_Flop_comp:\T_flop_part:6:actual_flop|op      ; Clk        ; Clk      ; None                        ; None                      ; 1.983 ns                ;
; N/A   ; Restricted to 380.08 MHz ( period = 2.631 ns ) ; T_Flop:flop_0|T_Flop_comp:\T_flop_part:1:actual_flop|op      ; T_Flop:flop_0|T_Flop_comp:\T_flop_part:7:actual_flop|op      ; Clk        ; Clk      ; None                        ; None                      ; 1.981 ns                ;
; N/A   ; Restricted to 380.08 MHz ( period = 2.631 ns ) ; T_Flop:flop_0|T_Flop_comp:\T_flop_part:0:actual_flop|op      ; T_Flop:flop_0|T_Flop_comp:\T_flop_part:3:actual_flop|op      ; Clk        ; Clk      ; None                        ; None                      ; 1.968 ns                ;
; N/A   ; Restricted to 380.08 MHz ( period = 2.631 ns ) ; T_Flop:flop_0|T_Flop_comp:\T_flop_part:0:actual_flop|op      ; T_Flop:flop_0|T_Flop_comp:\T_flop_part:4:actual_flop|op      ; Clk        ; Clk      ; None                        ; None                      ; 1.968 ns                ;
; N/A   ; Restricted to 380.08 MHz ( period = 2.631 ns ) ; T_Flop:flop_0|T_Flop_comp:\T_flop_part:0:actual_flop|op      ; T_Flop:flop_0|T_Flop_comp:\T_flop_part:5:actual_flop|op      ; Clk        ; Clk      ; None                        ; None                      ; 1.965 ns                ;
; N/A   ; Restricted to 380.08 MHz ( period = 2.631 ns ) ; T_Flop:flop_0|T_Flop_comp:\T_flop_part:3:actual_flop|op      ; T_Flop:flop_0|T_Flop_comp:\T_flop_part:6:actual_flop|op      ; Clk        ; Clk      ; None                        ; None                      ; 1.951 ns                ;
; N/A   ; Restricted to 380.08 MHz ( period = 2.631 ns ) ; T_Flop:flop_0|T_Flop_comp:\T_flop_part:3:actual_flop|op      ; T_Flop:flop_0|T_Flop_comp:\T_flop_part:7:actual_flop|op      ; Clk        ; Clk      ; None                        ; None                      ; 1.949 ns                ;
; N/A   ; Restricted to 380.08 MHz ( period = 2.631 ns ) ; T_Flop:flop_0|T_Flop_comp:\T_flop_part:9:actual_flop|op      ; T_Flop:flop_0|T_Flop_comp:\T_flop_part:12:actual_flop|op     ; Clk        ; Clk      ; None                        ; None                      ; 1.903 ns                ;
; N/A   ; Restricted to 380.08 MHz ( period = 2.631 ns ) ; T_Flop:flop_0|T_Flop_comp:\T_flop_part:4:actual_flop|op      ; T_Flop:flop_0|T_Flop_comp:\T_flop_part:8:actual_flop|op      ; Clk        ; Clk      ; None                        ; None                      ; 1.891 ns                ;
; N/A   ; Restricted to 380.08 MHz ( period = 2.631 ns ) ; T_Flop:flop_0|T_Flop_comp:\T_flop_part:10:actual_flop|op     ; T_Flop:flop_0|T_Flop_comp:\T_flop_part:13:actual_flop|op     ; Clk        ; Clk      ; None                        ; None                      ; 1.840 ns                ;
; N/A   ; Restricted to 380.08 MHz ( period = 2.631 ns ) ; T_Flop:flop_0|T_Flop_comp:\T_flop_part:2:actual_flop|op      ; T_Flop:flop_0|T_Flop_comp:\T_flop_part:3:actual_flop|op      ; Clk        ; Clk      ; None                        ; None                      ; 1.794 ns                ;
; N/A   ; Restricted to 380.08 MHz ( period = 2.631 ns ) ; T_Flop:flop_0|T_Flop_comp:\T_flop_part:2:actual_flop|op      ; T_Flop:flop_0|T_Flop_comp:\T_flop_part:4:actual_flop|op      ; Clk        ; Clk      ; None                        ; None                      ; 1.794 ns                ;
; N/A   ; Restricted to 380.08 MHz ( period = 2.631 ns ) ; T_Flop:flop_0|T_Flop_comp:\T_flop_part:2:actual_flop|op      ; T_Flop:flop_0|T_Flop_comp:\T_flop_part:5:actual_flop|op      ; Clk        ; Clk      ; None                        ; None                      ; 1.791 ns                ;
; N/A   ; Restricted to 380.08 MHz ( period = 2.631 ns ) ; T_Flop:flop_0|T_Flop_comp:\T_flop_part:14:actual_flop|op     ; T_Flop:flop_0|T_Flop_comp:\T_flop_part:15:actual_flop|op     ; Clk        ; Clk      ; None                        ; None                      ; 1.738 ns                ;
; N/A   ; Restricted to 380.08 MHz ( period = 2.631 ns ) ; T_Flop:flop_0|T_Flop_comp:\T_flop_part:14:actual_flop|op     ; T_Flop:flop_0|T_Flop_comp:\T_flop_part:15:actual_flop|not_op ; Clk        ; Clk      ; None                        ; None                      ; 1.738 ns                ;
; N/A   ; Restricted to 380.08 MHz ( period = 2.631 ns ) ; T_Flop:flop_0|T_Flop_comp:\T_flop_part:9:actual_flop|op      ; T_Flop:flop_0|T_Flop_comp:\T_flop_part:13:actual_flop|op     ; Clk        ; Clk      ; None                        ; None                      ; 1.696 ns                ;
; N/A   ; Restricted to 380.08 MHz ( period = 2.631 ns ) ; T_Flop:flop_0|T_Flop_comp:\T_flop_part:4:actual_flop|op      ; T_Flop:flop_0|T_Flop_comp:\T_flop_part:6:actual_flop|op      ; Clk        ; Clk      ; None                        ; None                      ; 1.662 ns                ;
; N/A   ; Restricted to 380.08 MHz ( period = 2.631 ns ) ; T_Flop:flop_0|T_Flop_comp:\T_flop_part:4:actual_flop|op      ; T_Flop:flop_0|T_Flop_comp:\T_flop_part:7:actual_flop|op      ; Clk        ; Clk      ; None                        ; None                      ; 1.660 ns                ;
; N/A   ; Restricted to 380.08 MHz ( period = 2.631 ns ) ; T_Flop:flop_0|T_Flop_comp:\T_flop_part:1:actual_flop|op      ; T_Flop:flop_0|T_Flop_comp:\T_flop_part:3:actual_flop|op      ; Clk        ; Clk      ; None                        ; None                      ; 1.641 ns                ;
; N/A   ; Restricted to 380.08 MHz ( period = 2.631 ns ) ; T_Flop:flop_0|T_Flop_comp:\T_flop_part:1:actual_flop|op      ; T_Flop:flop_0|T_Flop_comp:\T_flop_part:4:actual_flop|op      ; Clk        ; Clk      ; None                        ; None                      ; 1.641 ns                ;
; N/A   ; Restricted to 380.08 MHz ( period = 2.631 ns ) ; T_Flop:flop_0|T_Flop_comp:\T_flop_part:1:actual_flop|op      ; T_Flop:flop_0|T_Flop_comp:\T_flop_part:5:actual_flop|op      ; Clk        ; Clk      ; None                        ; None                      ; 1.638 ns                ;
; N/A   ; Restricted to 380.08 MHz ( period = 2.631 ns ) ; T_Flop:flop_0|T_Flop_comp:\T_flop_part:5:actual_flop|op      ; T_Flop:flop_0|T_Flop_comp:\T_flop_part:8:actual_flop|op      ; Clk        ; Clk      ; None                        ; None                      ; 1.579 ns                ;
; N/A   ; Restricted to 380.08 MHz ( period = 2.631 ns ) ; T_Flop:flop_0|T_Flop_comp:\T_flop_part:13:actual_flop|op     ; T_Flop:flop_0|T_Flop_comp:\T_flop_part:14:actual_flop|op     ; Clk        ; Clk      ; None                        ; None                      ; 1.463 ns                ;
; N/A   ; Restricted to 380.08 MHz ( period = 2.631 ns ) ; T_Flop:flop_0|T_Flop_comp:\T_flop_part:5:actual_flop|op      ; T_Flop:flop_0|T_Flop_comp:\T_flop_part:6:actual_flop|op      ; Clk        ; Clk      ; None                        ; None                      ; 1.350 ns                ;
; N/A   ; Restricted to 380.08 MHz ( period = 2.631 ns ) ; T_Flop:flop_0|T_Flop_comp:\T_flop_part:5:actual_flop|op      ; T_Flop:flop_0|T_Flop_comp:\T_flop_part:7:actual_flop|op      ; Clk        ; Clk      ; None                        ; None                      ; 1.348 ns                ;
; N/A   ; Restricted to 380.08 MHz ( period = 2.631 ns ) ; T_Flop:flop_0|T_Flop_comp:\T_flop_part:3:actual_flop|op      ; T_Flop:flop_0|T_Flop_comp:\T_flop_part:4:actual_flop|op      ; Clk        ; Clk      ; None                        ; None                      ; 1.275 ns                ;
; N/A   ; Restricted to 380.08 MHz ( period = 2.631 ns ) ; T_Flop:flop_0|T_Flop_comp:\T_flop_part:1:actual_flop|op      ; T_Flop:flop_0|T_Flop_comp:\T_flop_part:2:actual_flop|op      ; Clk        ; Clk      ; None                        ; None                      ; 1.270 ns                ;
; N/A   ; Restricted to 380.08 MHz ( period = 2.631 ns ) ; T_Flop:flop_0|T_Flop_comp:\T_flop_part:6:actual_flop|op      ; T_Flop:flop_0|T_Flop_comp:\T_flop_part:8:actual_flop|op      ; Clk        ; Clk      ; None                        ; None                      ; 1.265 ns                ;
; N/A   ; Restricted to 380.08 MHz ( period = 2.631 ns ) ; T_Flop:flop_0|T_Flop_comp:\T_flop_part:9:actual_flop|op      ; T_Flop:flop_0|T_Flop_comp:\T_flop_part:11:actual_flop|op     ; Clk        ; Clk      ; None                        ; None                      ; 1.263 ns                ;
; N/A   ; Restricted to 380.08 MHz ( period = 2.631 ns ) ; T_Flop:flop_0|T_Flop_comp:\T_flop_part:12:actual_flop|op     ; T_Flop:flop_0|T_Flop_comp:\T_flop_part:13:actual_flop|op     ; Clk        ; Clk      ; None                        ; None                      ; 1.226 ns                ;
; N/A   ; Restricted to 380.08 MHz ( period = 2.631 ns ) ; T_Flop:flop_0|T_Flop_comp:\T_flop_part:7:actual_flop|op      ; T_Flop:flop_0|T_Flop_comp:\T_flop_part:8:actual_flop|op      ; Clk        ; Clk      ; None                        ; None                      ; 1.218 ns                ;
; N/A   ; Restricted to 380.08 MHz ( period = 2.631 ns ) ; T_Flop:flop_0|T_Flop_comp:\T_flop_part:4:actual_flop|op      ; T_Flop:flop_0|T_Flop_comp:\T_flop_part:5:actual_flop|op      ; Clk        ; Clk      ; None                        ; None                      ; 1.040 ns                ;
; N/A   ; Restricted to 380.08 MHz ( period = 2.631 ns ) ; T_Flop:flop_0|T_Flop_comp:\T_flop_part:0:actual_flop|op      ; T_Flop:flop_0|T_Flop_comp:\T_flop_part:2:actual_flop|op      ; Clk        ; Clk      ; None                        ; None                      ; 1.004 ns                ;
; N/A   ; Restricted to 380.08 MHz ( period = 2.631 ns ) ; T_Flop:flop_0|T_Flop_comp:\T_flop_part:0:actual_flop|op      ; T_Flop:flop_0|T_Flop_comp:\T_flop_part:1:actual_flop|op      ; Clk        ; Clk      ; None                        ; None                      ; 1.003 ns                ;
; N/A   ; Restricted to 380.08 MHz ( period = 2.631 ns ) ; T_Flop:flop_0|T_Flop_comp:\T_flop_part:9:actual_flop|op      ; T_Flop:flop_0|T_Flop_comp:\T_flop_part:10:actual_flop|op     ; Clk        ; Clk      ; None                        ; None                      ; 0.998 ns                ;
; N/A   ; Restricted to 380.08 MHz ( period = 2.631 ns ) ; T_Flop:flop_0|T_Flop_comp:\T_flop_part:6:actual_flop|op      ; T_Flop:flop_0|T_Flop_comp:\T_flop_part:7:actual_flop|op      ; Clk        ; Clk      ; None                        ; None                      ; 0.989 ns                ;
; N/A   ; Restricted to 380.08 MHz ( period = 2.631 ns ) ; T_Flop:flop_0|T_Flop_comp:\T_flop_part:3:actual_flop|op      ; T_Flop:flop_0|T_Flop_comp:\T_flop_part:5:actual_flop|op      ; Clk        ; Clk      ; None                        ; None                      ; 0.984 ns                ;
; N/A   ; Restricted to 380.08 MHz ( period = 2.631 ns ) ; T_Flop:flop_0|T_Flop_comp:\T_flop_part:10:actual_flop|op     ; T_Flop:flop_0|T_Flop_comp:\T_flop_part:11:actual_flop|op     ; Clk        ; Clk      ; None                        ; None                      ; 0.978 ns                ;
; N/A   ; Restricted to 380.08 MHz ( period = 2.631 ns ) ; T_Flop:flop_0|T_Flop_comp:\T_flop_part:12:actual_flop|op     ; T_Flop:flop_0|T_Flop_comp:\T_flop_part:14:actual_flop|op     ; Clk        ; Clk      ; None                        ; None                      ; 0.883 ns                ;
; N/A   ; Restricted to 380.08 MHz ( period = 2.631 ns ) ; T_Flop:flop_0|T_Flop_comp:\T_flop_part:15:actual_flop|not_op ; T_Flop:flop_0|T_Flop_comp:\T_flop_part:15:actual_flop|op     ; Clk        ; Clk      ; None                        ; None                      ; 0.625 ns                ;
; N/A   ; Restricted to 380.08 MHz ( period = 2.631 ns ) ; T_Flop:flop_0|T_Flop_comp:\T_flop_part:0:actual_flop|op      ; T_Flop:flop_0|T_Flop_comp:\T_flop_part:0:actual_flop|op      ; Clk        ; Clk      ; None                        ; None                      ; 0.454 ns                ;
; N/A   ; Restricted to 380.08 MHz ( period = 2.631 ns ) ; T_Flop:flop_0|T_Flop_comp:\T_flop_part:1:actual_flop|op      ; T_Flop:flop_0|T_Flop_comp:\T_flop_part:1:actual_flop|op      ; Clk        ; Clk      ; None                        ; None                      ; 0.454 ns                ;
; N/A   ; Restricted to 380.08 MHz ( period = 2.631 ns ) ; T_Flop:flop_0|T_Flop_comp:\T_flop_part:2:actual_flop|op      ; T_Flop:flop_0|T_Flop_comp:\T_flop_part:2:actual_flop|op      ; Clk        ; Clk      ; None                        ; None                      ; 0.454 ns                ;
; N/A   ; Restricted to 380.08 MHz ( period = 2.631 ns ) ; T_Flop:flop_0|T_Flop_comp:\T_flop_part:3:actual_flop|op      ; T_Flop:flop_0|T_Flop_comp:\T_flop_part:3:actual_flop|op      ; Clk        ; Clk      ; None                        ; None                      ; 0.454 ns                ;
; N/A   ; Restricted to 380.08 MHz ( period = 2.631 ns ) ; T_Flop:flop_0|T_Flop_comp:\T_flop_part:4:actual_flop|op      ; T_Flop:flop_0|T_Flop_comp:\T_flop_part:4:actual_flop|op      ; Clk        ; Clk      ; None                        ; None                      ; 0.454 ns                ;
; N/A   ; Restricted to 380.08 MHz ( period = 2.631 ns ) ; T_Flop:flop_0|T_Flop_comp:\T_flop_part:5:actual_flop|op      ; T_Flop:flop_0|T_Flop_comp:\T_flop_part:5:actual_flop|op      ; Clk        ; Clk      ; None                        ; None                      ; 0.454 ns                ;
; N/A   ; Restricted to 380.08 MHz ( period = 2.631 ns ) ; T_Flop:flop_0|T_Flop_comp:\T_flop_part:6:actual_flop|op      ; T_Flop:flop_0|T_Flop_comp:\T_flop_part:6:actual_flop|op      ; Clk        ; Clk      ; None                        ; None                      ; 0.454 ns                ;
; N/A   ; Restricted to 380.08 MHz ( period = 2.631 ns ) ; T_Flop:flop_0|T_Flop_comp:\T_flop_part:7:actual_flop|op      ; T_Flop:flop_0|T_Flop_comp:\T_flop_part:7:actual_flop|op      ; Clk        ; Clk      ; None                        ; None                      ; 0.454 ns                ;
; N/A   ; Restricted to 380.08 MHz ( period = 2.631 ns ) ; T_Flop:flop_0|T_Flop_comp:\T_flop_part:8:actual_flop|op      ; T_Flop:flop_0|T_Flop_comp:\T_flop_part:8:actual_flop|op      ; Clk        ; Clk      ; None                        ; None                      ; 0.454 ns                ;
; N/A   ; Restricted to 380.08 MHz ( period = 2.631 ns ) ; T_Flop:flop_0|T_Flop_comp:\T_flop_part:9:actual_flop|op      ; T_Flop:flop_0|T_Flop_comp:\T_flop_part:9:actual_flop|op      ; Clk        ; Clk      ; None                        ; None                      ; 0.454 ns                ;
; N/A   ; Restricted to 380.08 MHz ( period = 2.631 ns ) ; T_Flop:flop_0|T_Flop_comp:\T_flop_part:10:actual_flop|op     ; T_Flop:flop_0|T_Flop_comp:\T_flop_part:10:actual_flop|op     ; Clk        ; Clk      ; None                        ; None                      ; 0.454 ns                ;
; N/A   ; Restricted to 380.08 MHz ( period = 2.631 ns ) ; T_Flop:flop_0|T_Flop_comp:\T_flop_part:11:actual_flop|op     ; T_Flop:flop_0|T_Flop_comp:\T_flop_part:11:actual_flop|op     ; Clk        ; Clk      ; None                        ; None                      ; 0.454 ns                ;
; N/A   ; Restricted to 380.08 MHz ( period = 2.631 ns ) ; T_Flop:flop_0|T_Flop_comp:\T_flop_part:12:actual_flop|op     ; T_Flop:flop_0|T_Flop_comp:\T_flop_part:12:actual_flop|op     ; Clk        ; Clk      ; None                        ; None                      ; 0.454 ns                ;
; N/A   ; Restricted to 380.08 MHz ( period = 2.631 ns ) ; T_Flop:flop_0|T_Flop_comp:\T_flop_part:13:actual_flop|op     ; T_Flop:flop_0|T_Flop_comp:\T_flop_part:13:actual_flop|op     ; Clk        ; Clk      ; None                        ; None                      ; 0.454 ns                ;
; N/A   ; Restricted to 380.08 MHz ( period = 2.631 ns ) ; T_Flop:flop_0|T_Flop_comp:\T_flop_part:14:actual_flop|op     ; T_Flop:flop_0|T_Flop_comp:\T_flop_part:14:actual_flop|op     ; Clk        ; Clk      ; None                        ; None                      ; 0.454 ns                ;
; N/A   ; Restricted to 380.08 MHz ( period = 2.631 ns ) ; T_Flop:flop_0|T_Flop_comp:\T_flop_part:15:actual_flop|not_op ; T_Flop:flop_0|T_Flop_comp:\T_flop_part:15:actual_flop|not_op ; Clk        ; Clk      ; None                        ; None                      ; 0.454 ns                ;
+-------+------------------------------------------------+--------------------------------------------------------------+--------------------------------------------------------------+------------+----------+-----------------------------+---------------------------+-------------------------+


+--------------------------------------------------------------------------------------------------------------------+
; tsu                                                                                                                ;
+-------+--------------+------------+------+--------------------------------------------------------------+----------+
; Slack ; Required tsu ; Actual tsu ; From ; To                                                           ; To Clock ;
+-------+--------------+------------+------+--------------------------------------------------------------+----------+
; N/A   ; None         ; 6.503 ns   ; En   ; T_Flop:flop_0|T_Flop_comp:\T_flop_part:15:actual_flop|op     ; Clk      ;
; N/A   ; None         ; 6.503 ns   ; En   ; T_Flop:flop_0|T_Flop_comp:\T_flop_part:15:actual_flop|not_op ; Clk      ;
; N/A   ; None         ; 5.958 ns   ; En   ; T_Flop:flop_0|T_Flop_comp:\T_flop_part:14:actual_flop|op     ; Clk      ;
; N/A   ; None         ; 5.772 ns   ; En   ; T_Flop:flop_0|T_Flop_comp:\T_flop_part:12:actual_flop|op     ; Clk      ;
; N/A   ; None         ; 5.671 ns   ; En   ; T_Flop:flop_0|T_Flop_comp:\T_flop_part:9:actual_flop|op      ; Clk      ;
; N/A   ; None         ; 5.671 ns   ; En   ; T_Flop:flop_0|T_Flop_comp:\T_flop_part:10:actual_flop|op     ; Clk      ;
; N/A   ; None         ; 5.669 ns   ; En   ; T_Flop:flop_0|T_Flop_comp:\T_flop_part:11:actual_flop|op     ; Clk      ;
; N/A   ; None         ; 5.664 ns   ; En   ; T_Flop:flop_0|T_Flop_comp:\T_flop_part:8:actual_flop|op      ; Clk      ;
; N/A   ; None         ; 5.566 ns   ; En   ; T_Flop:flop_0|T_Flop_comp:\T_flop_part:13:actual_flop|op     ; Clk      ;
; N/A   ; None         ; 5.436 ns   ; En   ; T_Flop:flop_0|T_Flop_comp:\T_flop_part:6:actual_flop|op      ; Clk      ;
; N/A   ; None         ; 5.434 ns   ; En   ; T_Flop:flop_0|T_Flop_comp:\T_flop_part:7:actual_flop|op      ; Clk      ;
; N/A   ; None         ; 5.093 ns   ; En   ; T_Flop:flop_0|T_Flop_comp:\T_flop_part:3:actual_flop|op      ; Clk      ;
; N/A   ; None         ; 5.093 ns   ; En   ; T_Flop:flop_0|T_Flop_comp:\T_flop_part:4:actual_flop|op      ; Clk      ;
; N/A   ; None         ; 5.090 ns   ; En   ; T_Flop:flop_0|T_Flop_comp:\T_flop_part:5:actual_flop|op      ; Clk      ;
; N/A   ; None         ; 3.745 ns   ; En   ; T_Flop:flop_0|T_Flop_comp:\T_flop_part:2:actual_flop|op      ; Clk      ;
; N/A   ; None         ; 3.742 ns   ; En   ; T_Flop:flop_0|T_Flop_comp:\T_flop_part:1:actual_flop|op      ; Clk      ;
; N/A   ; None         ; 3.740 ns   ; En   ; T_Flop:flop_0|T_Flop_comp:\T_flop_part:0:actual_flop|op      ; Clk      ;
+-------+--------------+------------+------+--------------------------------------------------------------+----------+


+-----------------------------------------------------------------------------------------------------------------------+
; tco                                                                                                                   ;
+-------+--------------+------------+----------------------------------------------------------+-----------+------------+
; Slack ; Required tco ; Actual tco ; From                                                     ; To        ; From Clock ;
+-------+--------------+------------+----------------------------------------------------------+-----------+------------+
; N/A   ; None         ; 9.916 ns   ; T_Flop:flop_0|T_Flop_comp:\T_flop_part:2:actual_flop|op  ; Count[2]  ; Clk        ;
; N/A   ; None         ; 8.239 ns   ; T_Flop:flop_0|T_Flop_comp:\T_flop_part:5:actual_flop|op  ; Count[5]  ; Clk        ;
; N/A   ; None         ; 7.337 ns   ; T_Flop:flop_0|T_Flop_comp:\T_flop_part:1:actual_flop|op  ; Count[1]  ; Clk        ;
; N/A   ; None         ; 7.331 ns   ; T_Flop:flop_0|T_Flop_comp:\T_flop_part:12:actual_flop|op ; Count[12] ; Clk        ;
; N/A   ; None         ; 7.318 ns   ; T_Flop:flop_0|T_Flop_comp:\T_flop_part:0:actual_flop|op  ; Count[0]  ; Clk        ;
; N/A   ; None         ; 7.165 ns   ; T_Flop:flop_0|T_Flop_comp:\T_flop_part:14:actual_flop|op ; Count[14] ; Clk        ;
; N/A   ; None         ; 7.150 ns   ; T_Flop:flop_0|T_Flop_comp:\T_flop_part:13:actual_flop|op ; Count[13] ; Clk        ;
; N/A   ; None         ; 7.140 ns   ; T_Flop:flop_0|T_Flop_comp:\T_flop_part:3:actual_flop|op  ; Count[3]  ; Clk        ;
; N/A   ; None         ; 7.135 ns   ; T_Flop:flop_0|T_Flop_comp:\T_flop_part:4:actual_flop|op  ; Count[4]  ; Clk        ;
; N/A   ; None         ; 7.117 ns   ; T_Flop:flop_0|T_Flop_comp:\T_flop_part:10:actual_flop|op ; Count[10] ; Clk        ;
; N/A   ; None         ; 6.809 ns   ; T_Flop:flop_0|T_Flop_comp:\T_flop_part:11:actual_flop|op ; Count[11] ; Clk        ;
; N/A   ; None         ; 6.789 ns   ; T_Flop:flop_0|T_Flop_comp:\T_flop_part:8:actual_flop|op  ; Count[8]  ; Clk        ;
; N/A   ; None         ; 6.785 ns   ; T_Flop:flop_0|T_Flop_comp:\T_flop_part:9:actual_flop|op  ; Count[9]  ; Clk        ;
; N/A   ; None         ; 6.782 ns   ; T_Flop:flop_0|T_Flop_comp:\T_flop_part:15:actual_flop|op ; Count[15] ; Clk        ;
; N/A   ; None         ; 6.562 ns   ; T_Flop:flop_0|T_Flop_comp:\T_flop_part:6:actual_flop|op  ; Count[6]  ; Clk        ;
; N/A   ; None         ; 6.553 ns   ; T_Flop:flop_0|T_Flop_comp:\T_flop_part:7:actual_flop|op  ; Count[7]  ; Clk        ;
+-------+--------------+------------+----------------------------------------------------------+-----------+------------+


+--------------------------------------------------------------------------------------------------------------------------+
; th                                                                                                                       ;
+---------------+-------------+-----------+------+--------------------------------------------------------------+----------+
; Minimum Slack ; Required th ; Actual th ; From ; To                                                           ; To Clock ;
+---------------+-------------+-----------+------+--------------------------------------------------------------+----------+
; N/A           ; None        ; -3.492 ns ; En   ; T_Flop:flop_0|T_Flop_comp:\T_flop_part:0:actual_flop|op      ; Clk      ;
; N/A           ; None        ; -3.494 ns ; En   ; T_Flop:flop_0|T_Flop_comp:\T_flop_part:1:actual_flop|op      ; Clk      ;
; N/A           ; None        ; -3.497 ns ; En   ; T_Flop:flop_0|T_Flop_comp:\T_flop_part:2:actual_flop|op      ; Clk      ;
; N/A           ; None        ; -4.842 ns ; En   ; T_Flop:flop_0|T_Flop_comp:\T_flop_part:5:actual_flop|op      ; Clk      ;
; N/A           ; None        ; -4.845 ns ; En   ; T_Flop:flop_0|T_Flop_comp:\T_flop_part:3:actual_flop|op      ; Clk      ;
; N/A           ; None        ; -4.845 ns ; En   ; T_Flop:flop_0|T_Flop_comp:\T_flop_part:4:actual_flop|op      ; Clk      ;
; N/A           ; None        ; -5.186 ns ; En   ; T_Flop:flop_0|T_Flop_comp:\T_flop_part:7:actual_flop|op      ; Clk      ;
; N/A           ; None        ; -5.188 ns ; En   ; T_Flop:flop_0|T_Flop_comp:\T_flop_part:6:actual_flop|op      ; Clk      ;
; N/A           ; None        ; -5.318 ns ; En   ; T_Flop:flop_0|T_Flop_comp:\T_flop_part:13:actual_flop|op     ; Clk      ;
; N/A           ; None        ; -5.416 ns ; En   ; T_Flop:flop_0|T_Flop_comp:\T_flop_part:8:actual_flop|op      ; Clk      ;
; N/A           ; None        ; -5.421 ns ; En   ; T_Flop:flop_0|T_Flop_comp:\T_flop_part:11:actual_flop|op     ; Clk      ;
; N/A           ; None        ; -5.423 ns ; En   ; T_Flop:flop_0|T_Flop_comp:\T_flop_part:9:actual_flop|op      ; Clk      ;
; N/A           ; None        ; -5.423 ns ; En   ; T_Flop:flop_0|T_Flop_comp:\T_flop_part:10:actual_flop|op     ; Clk      ;
; N/A           ; None        ; -5.524 ns ; En   ; T_Flop:flop_0|T_Flop_comp:\T_flop_part:12:actual_flop|op     ; Clk      ;
; N/A           ; None        ; -5.710 ns ; En   ; T_Flop:flop_0|T_Flop_comp:\T_flop_part:14:actual_flop|op     ; Clk      ;
; N/A           ; None        ; -6.255 ns ; En   ; T_Flop:flop_0|T_Flop_comp:\T_flop_part:15:actual_flop|op     ; Clk      ;
; N/A           ; None        ; -6.255 ns ; En   ; T_Flop:flop_0|T_Flop_comp:\T_flop_part:15:actual_flop|not_op ; Clk      ;
+---------------+-------------+-----------+------+--------------------------------------------------------------+----------+


+--------------------------+
; Timing Analyzer Messages ;
+--------------------------+
Info: *******************************************************************
Info: Running Quartus II Classic Timing Analyzer
    Info: Version 9.0 Build 184 04/29/2009 Service Pack 1 SJ Web Edition
    Info: Processing started: Sun Apr 16 14:52:41 2017
Info: Command: quartus_tan --read_settings_files=off --write_settings_files=off counters_struct -c counters_struct --timing_analysis_only
Warning: Found pins functioning as undefined clocks and/or memory enables
    Info: Assuming node "Clk" is an undefined clock
Info: Clock "Clk" has Internal fmax of 248.57 MHz between source register "T_Flop:flop_0|T_Flop_comp:\T_flop_part:3:actual_flop|op" and destination register "T_Flop:flop_0|T_Flop_comp:\T_flop_part:15:actual_flop|op" (period= 4.023 ns)
    Info: + Longest register to register delay is 3.784 ns
        Info: 1: + IC(0.000 ns) + CELL(0.000 ns) = 0.000 ns; Loc. = LCFF_X2_Y8_N23; Fanout = 6; REG Node = 'T_Flop:flop_0|T_Flop_comp:\T_flop_part:3:actual_flop|op'
        Info: 2: + IC(0.634 ns) + CELL(0.512 ns) = 1.146 ns; Loc. = LCCOMB_X2_Y8_N14; Fanout = 1; COMB Node = 'T_Flop:flop_0|en_vector[9]~0'
        Info: 3: + IC(0.311 ns) + CELL(0.322 ns) = 1.779 ns; Loc. = LCCOMB_X2_Y8_N0; Fanout = 4; COMB Node = 'T_Flop:flop_0|en_vector[9]'
        Info: 4: + IC(0.298 ns) + CELL(0.178 ns) = 2.255 ns; Loc. = LCCOMB_X2_Y8_N10; Fanout = 4; COMB Node = 'T_Flop:flop_0|en_vector[12]'
        Info: 5: + IC(0.316 ns) + CELL(0.178 ns) = 2.749 ns; Loc. = LCCOMB_X2_Y8_N6; Fanout = 2; COMB Node = 'T_Flop:flop_0|en_vector[15]'
        Info: 6: + IC(0.277 ns) + CELL(0.758 ns) = 3.784 ns; Loc. = LCFF_X2_Y8_N19; Fanout = 1; REG Node = 'T_Flop:flop_0|T_Flop_comp:\T_flop_part:15:actual_flop|op'
        Info: Total cell delay = 1.948 ns ( 51.48 % )
        Info: Total interconnect delay = 1.836 ns ( 48.52 % )
    Info: - Smallest clock skew is 0.000 ns
        Info: + Shortest clock path from clock "Clk" to destination register is 2.846 ns
            Info: 1: + IC(0.000 ns) + CELL(1.026 ns) = 1.026 ns; Loc. = PIN_M1; Fanout = 1; CLK Node = 'Clk'
            Info: 2: + IC(0.238 ns) + CELL(0.000 ns) = 1.264 ns; Loc. = CLKCTRL_G3; Fanout = 17; COMB Node = 'Clk~clkctrl'
            Info: 3: + IC(0.980 ns) + CELL(0.602 ns) = 2.846 ns; Loc. = LCFF_X2_Y8_N19; Fanout = 1; REG Node = 'T_Flop:flop_0|T_Flop_comp:\T_flop_part:15:actual_flop|op'
            Info: Total cell delay = 1.628 ns ( 57.20 % )
            Info: Total interconnect delay = 1.218 ns ( 42.80 % )
        Info: - Longest clock path from clock "Clk" to source register is 2.846 ns
            Info: 1: + IC(0.000 ns) + CELL(1.026 ns) = 1.026 ns; Loc. = PIN_M1; Fanout = 1; CLK Node = 'Clk'
            Info: 2: + IC(0.238 ns) + CELL(0.000 ns) = 1.264 ns; Loc. = CLKCTRL_G3; Fanout = 17; COMB Node = 'Clk~clkctrl'
            Info: 3: + IC(0.980 ns) + CELL(0.602 ns) = 2.846 ns; Loc. = LCFF_X2_Y8_N23; Fanout = 6; REG Node = 'T_Flop:flop_0|T_Flop_comp:\T_flop_part:3:actual_flop|op'
            Info: Total cell delay = 1.628 ns ( 57.20 % )
            Info: Total interconnect delay = 1.218 ns ( 42.80 % )
    Info: + Micro clock to output delay of source is 0.277 ns
    Info: + Micro setup delay of destination is -0.038 ns
Info: tsu for register "T_Flop:flop_0|T_Flop_comp:\T_flop_part:15:actual_flop|op" (data pin = "En", clock pin = "Clk") is 6.503 ns
    Info: + Longest pin to register delay is 9.387 ns
        Info: 1: + IC(0.000 ns) + CELL(0.844 ns) = 0.844 ns; Loc. = PIN_R6; Fanout = 4; PIN Node = 'En'
        Info: 2: + IC(5.528 ns) + CELL(0.512 ns) = 6.884 ns; Loc. = LCCOMB_X2_Y8_N12; Fanout = 5; COMB Node = 'T_Flop:flop_0|en_vector[3]'
        Info: 3: + IC(0.320 ns) + CELL(0.178 ns) = 7.382 ns; Loc. = LCCOMB_X2_Y8_N0; Fanout = 4; COMB Node = 'T_Flop:flop_0|en_vector[9]'
        Info: 4: + IC(0.298 ns) + CELL(0.178 ns) = 7.858 ns; Loc. = LCCOMB_X2_Y8_N10; Fanout = 4; COMB Node = 'T_Flop:flop_0|en_vector[12]'
        Info: 5: + IC(0.316 ns) + CELL(0.178 ns) = 8.352 ns; Loc. = LCCOMB_X2_Y8_N6; Fanout = 2; COMB Node = 'T_Flop:flop_0|en_vector[15]'
        Info: 6: + IC(0.277 ns) + CELL(0.758 ns) = 9.387 ns; Loc. = LCFF_X2_Y8_N19; Fanout = 1; REG Node = 'T_Flop:flop_0|T_Flop_comp:\T_flop_part:15:actual_flop|op'
        Info: Total cell delay = 2.648 ns ( 28.21 % )
        Info: Total interconnect delay = 6.739 ns ( 71.79 % )
    Info: + Micro setup delay of destination is -0.038 ns
    Info: - Shortest clock path from clock "Clk" to destination register is 2.846 ns
        Info: 1: + IC(0.000 ns) + CELL(1.026 ns) = 1.026 ns; Loc. = PIN_M1; Fanout = 1; CLK Node = 'Clk'
        Info: 2: + IC(0.238 ns) + CELL(0.000 ns) = 1.264 ns; Loc. = CLKCTRL_G3; Fanout = 17; COMB Node = 'Clk~clkctrl'
        Info: 3: + IC(0.980 ns) + CELL(0.602 ns) = 2.846 ns; Loc. = LCFF_X2_Y8_N19; Fanout = 1; REG Node = 'T_Flop:flop_0|T_Flop_comp:\T_flop_part:15:actual_flop|op'
        Info: Total cell delay = 1.628 ns ( 57.20 % )
        Info: Total interconnect delay = 1.218 ns ( 42.80 % )
Info: tco from clock "Clk" to destination pin "Count[2]" through register "T_Flop:flop_0|T_Flop_comp:\T_flop_part:2:actual_flop|op" is 9.916 ns
    Info: + Longest clock path from clock "Clk" to source register is 2.846 ns
        Info: 1: + IC(0.000 ns) + CELL(1.026 ns) = 1.026 ns; Loc. = PIN_M1; Fanout = 1; CLK Node = 'Clk'
        Info: 2: + IC(0.238 ns) + CELL(0.000 ns) = 1.264 ns; Loc. = CLKCTRL_G3; Fanout = 17; COMB Node = 'Clk~clkctrl'
        Info: 3: + IC(0.980 ns) + CELL(0.602 ns) = 2.846 ns; Loc. = LCFF_X2_Y8_N21; Fanout = 3; REG Node = 'T_Flop:flop_0|T_Flop_comp:\T_flop_part:2:actual_flop|op'
        Info: Total cell delay = 1.628 ns ( 57.20 % )
        Info: Total interconnect delay = 1.218 ns ( 42.80 % )
    Info: + Micro clock to output delay of source is 0.277 ns
    Info: + Longest register to pin delay is 6.793 ns
        Info: 1: + IC(0.000 ns) + CELL(0.000 ns) = 0.000 ns; Loc. = LCFF_X2_Y8_N21; Fanout = 3; REG Node = 'T_Flop:flop_0|T_Flop_comp:\T_flop_part:2:actual_flop|op'
        Info: 2: + IC(3.973 ns) + CELL(2.820 ns) = 6.793 ns; Loc. = PIN_P17; Fanout = 0; PIN Node = 'Count[2]'
        Info: Total cell delay = 2.820 ns ( 41.51 % )
        Info: Total interconnect delay = 3.973 ns ( 58.49 % )
Info: th for register "T_Flop:flop_0|T_Flop_comp:\T_flop_part:0:actual_flop|op" (data pin = "En", clock pin = "Clk") is -3.492 ns
    Info: + Longest clock path from clock "Clk" to destination register is 2.846 ns
        Info: 1: + IC(0.000 ns) + CELL(1.026 ns) = 1.026 ns; Loc. = PIN_M1; Fanout = 1; CLK Node = 'Clk'
        Info: 2: + IC(0.238 ns) + CELL(0.000 ns) = 1.264 ns; Loc. = CLKCTRL_G3; Fanout = 17; COMB Node = 'Clk~clkctrl'
        Info: 3: + IC(0.980 ns) + CELL(0.602 ns) = 2.846 ns; Loc. = LCFF_X2_Y8_N9; Fanout = 5; REG Node = 'T_Flop:flop_0|T_Flop_comp:\T_flop_part:0:actual_flop|op'
        Info: Total cell delay = 1.628 ns ( 57.20 % )
        Info: Total interconnect delay = 1.218 ns ( 42.80 % )
    Info: + Micro hold delay of destination is 0.286 ns
    Info: - Shortest pin to register delay is 6.624 ns
        Info: 1: + IC(0.000 ns) + CELL(0.844 ns) = 0.844 ns; Loc. = PIN_R6; Fanout = 4; PIN Node = 'En'
        Info: 2: + IC(5.506 ns) + CELL(0.178 ns) = 6.528 ns; Loc. = LCCOMB_X2_Y8_N8; Fanout = 1; COMB Node = 'T_Flop:flop_0|T_Flop_comp:\T_flop_part:0:actual_flop|op~0'
        Info: 3: + IC(0.000 ns) + CELL(0.096 ns) = 6.624 ns; Loc. = LCFF_X2_Y8_N9; Fanout = 5; REG Node = 'T_Flop:flop_0|T_Flop_comp:\T_flop_part:0:actual_flop|op'
        Info: Total cell delay = 1.118 ns ( 16.88 % )
        Info: Total interconnect delay = 5.506 ns ( 83.12 % )
Info: Quartus II Classic Timing Analyzer was successful. 0 errors, 1 warning
    Info: Peak virtual memory: 198 megabytes
    Info: Processing ended: Sun Apr 16 14:52:42 2017
    Info: Elapsed time: 00:00:01
    Info: Total CPU time (on all processors): 00:00:00


