Classic Timing Analyzer report for lab2_latches
Wed Apr 05 18:13:38 2017
Quartus II Version 9.0 Build 184 04/29/2009 Service Pack 1 SJ Web Edition


---------------------
; Table of Contents ;
---------------------
  1. Legal Notice
  2. Timing Analyzer Summary
  3. Timing Analyzer Settings
  4. Clock Settings Summary
  5. Parallel Compilation
  6. tsu
  7. tco
  8. tpd
  9. th
 10. Timing Analyzer Messages



----------------
; Legal Notice ;
----------------
Copyright (C) 1991-2009 Altera Corporation
Your use of Altera Corporation's design tools, logic functions 
and other software and tools, and its AMPP partner logic 
functions, and any output files from any of the foregoing 
(including device programming or simulation files), and any 
associated documentation or information are expressly subject 
to the terms and conditions of the Altera Program License 
Subscription Agreement, Altera MegaCore Function License 
Agreement, or other applicable license agreement, including, 
without limitation, that your use is for the sole purpose of 
programming logic devices manufactured by Altera and sold by 
Altera or its authorized distributors.  Please refer to the 
applicable agreement for further details.



+-------------------------------------------------------------------------------------------------------------------------------+
; Timing Analyzer Summary                                                                                                       ;
+------------------------------+-------+---------------+-------------+---------+---------+------------+----------+--------------+
; Type                         ; Slack ; Required Time ; Actual Time ; From    ; To      ; From Clock ; To Clock ; Failed Paths ;
+------------------------------+-------+---------------+-------------+---------+---------+------------+----------+--------------+
; Worst-case tsu               ; N/A   ; None          ; 3.576 ns    ; D       ; Q1~reg0 ; --         ; Clk      ; 0            ;
; Worst-case tco               ; N/A   ; None          ; 6.559 ns    ; Q1~reg0 ; Q1      ; Clk        ; --       ; 0            ;
; Worst-case tpd               ; N/A   ; None          ; 9.913 ns    ; D       ; Q2      ; --         ; --       ; 0            ;
; Worst-case th                ; N/A   ; None          ; -3.328 ns   ; D       ; Q1~reg0 ; --         ; Clk      ; 0            ;
; Total number of failed paths ;       ;               ;             ;         ;         ;            ;          ; 0            ;
+------------------------------+-------+---------------+-------------+---------+---------+------------+----------+--------------+


+--------------------------------------------------------------------------------------------------------------------+
; Timing Analyzer Settings                                                                                           ;
+---------------------------------------------------------------------+--------------------+------+----+-------------+
; Option                                                              ; Setting            ; From ; To ; Entity Name ;
+---------------------------------------------------------------------+--------------------+------+----+-------------+
; Device Name                                                         ; EP2C20F484C7       ;      ;    ;             ;
; Timing Models                                                       ; Final              ;      ;    ;             ;
; Default hold multicycle                                             ; Same as Multicycle ;      ;    ;             ;
; Cut paths between unrelated clock domains                           ; On                 ;      ;    ;             ;
; Cut off read during write signal paths                              ; On                 ;      ;    ;             ;
; Cut off feedback from I/O pins                                      ; On                 ;      ;    ;             ;
; Report Combined Fast/Slow Timing                                    ; Off                ;      ;    ;             ;
; Ignore Clock Settings                                               ; Off                ;      ;    ;             ;
; Analyze latches as synchronous elements                             ; On                 ;      ;    ;             ;
; Enable Recovery/Removal analysis                                    ; Off                ;      ;    ;             ;
; Enable Clock Latency                                                ; Off                ;      ;    ;             ;
; Use TimeQuest Timing Analyzer                                       ; Off                ;      ;    ;             ;
; Minimum Core Junction Temperature                                   ; 0                  ;      ;    ;             ;
; Maximum Core Junction Temperature                                   ; 85                 ;      ;    ;             ;
; Number of source nodes to report per destination node               ; 10                 ;      ;    ;             ;
; Number of destination nodes to report                               ; 10                 ;      ;    ;             ;
; Number of paths to report                                           ; 200                ;      ;    ;             ;
; Report Minimum Timing Checks                                        ; Off                ;      ;    ;             ;
; Use Fast Timing Models                                              ; Off                ;      ;    ;             ;
; Report IO Paths Separately                                          ; Off                ;      ;    ;             ;
; Perform Multicorner Analysis                                        ; On                 ;      ;    ;             ;
; Reports the worst-case path for each clock domain and analysis      ; Off                ;      ;    ;             ;
; Removes common clock path pessimism (CCPP) during slack computation ; Off                ;      ;    ;             ;
; Output I/O Timing Endpoint                                          ; Near End           ;      ;    ;             ;
+---------------------------------------------------------------------+--------------------+------+----+-------------+


+------------------------------------------------------------------------------------------------------------------------------------------------------------------------------------+
; Clock Settings Summary                                                                                                                                                             ;
+-----------------+--------------------+----------+------------------+---------------+--------------+----------+-----------------------+---------------------+--------+--------------+
; Clock Node Name ; Clock Setting Name ; Type     ; Fmax Requirement ; Early Latency ; Late Latency ; Based on ; Multiply Base Fmax by ; Divide Base Fmax by ; Offset ; Phase offset ;
+-----------------+--------------------+----------+------------------+---------------+--------------+----------+-----------------------+---------------------+--------+--------------+
; Clk             ;                    ; User Pin ; None             ; 0.000 ns      ; 0.000 ns     ; --       ; N/A                   ; N/A                 ; N/A    ;              ;
+-----------------+--------------------+----------+------------------+---------------+--------------+----------+-----------------------+---------------------+--------+--------------+


Parallel compilation was disabled, but you have multiple processors available. Enable parallel compilation to reduce compilation time.
+-------------------------------------+
; Parallel Compilation                ;
+----------------------------+--------+
; Processors                 ; Number ;
+----------------------------+--------+
; Number detected on machine ; 2      ;
; Maximum allowed            ; 1      ;
+----------------------------+--------+


+---------------------------------------------------------------+
; tsu                                                           ;
+-------+--------------+------------+------+---------+----------+
; Slack ; Required tsu ; Actual tsu ; From ; To      ; To Clock ;
+-------+--------------+------------+------+---------+----------+
; N/A   ; None         ; 3.576 ns   ; D    ; Q0~reg0 ; Clk      ;
; N/A   ; None         ; 3.576 ns   ; D    ; Q1~reg0 ; Clk      ;
+-------+--------------+------------+------+---------+----------+


+---------------------------------------------------------------+
; tco                                                           ;
+-------+--------------+------------+---------+----+------------+
; Slack ; Required tco ; Actual tco ; From    ; To ; From Clock ;
+-------+--------------+------------+---------+----+------------+
; N/A   ; None         ; 6.559 ns   ; Q1~reg0 ; Q1 ; Clk        ;
; N/A   ; None         ; 6.529 ns   ; Q0~reg0 ; Q0 ; Clk        ;
+-------+--------------+------------+---------+----+------------+


+---------------------------------------------------------+
; tpd                                                     ;
+-------+-------------------+-----------------+------+----+
; Slack ; Required P2P Time ; Actual P2P Time ; From ; To ;
+-------+-------------------+-----------------+------+----+
; N/A   ; None              ; 9.913 ns        ; D    ; Q2 ;
; N/A   ; None              ; 5.405 ns        ; Clk  ; Q2 ;
+-------+-------------------+-----------------+------+----+


+---------------------------------------------------------------------+
; th                                                                  ;
+---------------+-------------+-----------+------+---------+----------+
; Minimum Slack ; Required th ; Actual th ; From ; To      ; To Clock ;
+---------------+-------------+-----------+------+---------+----------+
; N/A           ; None        ; -3.328 ns ; D    ; Q0~reg0 ; Clk      ;
; N/A           ; None        ; -3.328 ns ; D    ; Q1~reg0 ; Clk      ;
+---------------+-------------+-----------+------+---------+----------+


+--------------------------+
; Timing Analyzer Messages ;
+--------------------------+
Info: *******************************************************************
Info: Running Quartus II Classic Timing Analyzer
    Info: Version 9.0 Build 184 04/29/2009 Service Pack 1 SJ Web Edition
    Info: Processing started: Wed Apr 05 18:13:37 2017
Info: Command: quartus_tan --read_settings_files=off --write_settings_files=off lab2_latches -c lab2_latches --timing_analysis_only
Warning: Found pins functioning as undefined clocks and/or memory enables
    Info: Assuming node "Clk" is an undefined clock
Info: No valid register-to-register data paths exist for clock "Clk"
Info: tsu for register "Q0~reg0" (data pin = "D", clock pin = "Clk") is 3.576 ns
    Info: + Longest pin to register delay is 6.474 ns
        Info: 1: + IC(0.000 ns) + CELL(0.854 ns) = 0.854 ns; Loc. = PIN_P3; Fanout = 3; PIN Node = 'D'
        Info: 2: + IC(5.207 ns) + CELL(0.413 ns) = 6.474 ns; Loc. = LCFF_X1_Y12_N9; Fanout = 1; REG Node = 'Q0~reg0'
        Info: Total cell delay = 1.267 ns ( 19.57 % )
        Info: Total interconnect delay = 5.207 ns ( 80.43 % )
    Info: + Micro setup delay of destination is -0.038 ns
    Info: - Shortest clock path from clock "Clk" to destination register is 2.860 ns
        Info: 1: + IC(0.000 ns) + CELL(1.026 ns) = 1.026 ns; Loc. = PIN_M1; Fanout = 2; CLK Node = 'Clk'
        Info: 2: + IC(0.238 ns) + CELL(0.000 ns) = 1.264 ns; Loc. = CLKCTRL_G3; Fanout = 2; COMB Node = 'Clk~clkctrl'
        Info: 3: + IC(0.994 ns) + CELL(0.602 ns) = 2.860 ns; Loc. = LCFF_X1_Y12_N9; Fanout = 1; REG Node = 'Q0~reg0'
        Info: Total cell delay = 1.628 ns ( 56.92 % )
        Info: Total interconnect delay = 1.232 ns ( 43.08 % )
Info: tco from clock "Clk" to destination pin "Q1" through register "Q1~reg0" is 6.559 ns
    Info: + Longest clock path from clock "Clk" to source register is 2.860 ns
        Info: 1: + IC(0.000 ns) + CELL(1.026 ns) = 1.026 ns; Loc. = PIN_M1; Fanout = 2; CLK Node = 'Clk'
        Info: 2: + IC(0.238 ns) + CELL(0.000 ns) = 1.264 ns; Loc. = CLKCTRL_G3; Fanout = 2; COMB Node = 'Clk~clkctrl'
        Info: 3: + IC(0.994 ns) + CELL(0.602 ns) = 2.860 ns; Loc. = LCFF_X1_Y12_N27; Fanout = 1; REG Node = 'Q1~reg0'
        Info: Total cell delay = 1.628 ns ( 56.92 % )
        Info: Total interconnect delay = 1.232 ns ( 43.08 % )
    Info: + Micro clock to output delay of source is 0.277 ns
    Info: + Longest register to pin delay is 3.422 ns
        Info: 1: + IC(0.000 ns) + CELL(0.000 ns) = 0.000 ns; Loc. = LCFF_X1_Y12_N27; Fanout = 1; REG Node = 'Q1~reg0'
        Info: 2: + IC(0.582 ns) + CELL(2.840 ns) = 3.422 ns; Loc. = PIN_N1; Fanout = 0; PIN Node = 'Q1'
        Info: Total cell delay = 2.840 ns ( 82.99 % )
        Info: Total interconnect delay = 0.582 ns ( 17.01 % )
Info: Longest tpd from source pin "D" to destination pin "Q2" is 9.913 ns
    Info: 1: + IC(0.000 ns) + CELL(0.854 ns) = 0.854 ns; Loc. = PIN_P3; Fanout = 3; PIN Node = 'D'
    Info: 2: + IC(5.208 ns) + CELL(0.521 ns) = 6.583 ns; Loc. = LCCOMB_X1_Y12_N20; Fanout = 1; COMB Node = 'Q2~1'
    Info: 3: + IC(0.520 ns) + CELL(2.810 ns) = 9.913 ns; Loc. = PIN_M5; Fanout = 0; PIN Node = 'Q2'
    Info: Total cell delay = 4.185 ns ( 42.22 % )
    Info: Total interconnect delay = 5.728 ns ( 57.78 % )
Info: th for register "Q0~reg0" (data pin = "D", clock pin = "Clk") is -3.328 ns
    Info: + Longest clock path from clock "Clk" to destination register is 2.860 ns
        Info: 1: + IC(0.000 ns) + CELL(1.026 ns) = 1.026 ns; Loc. = PIN_M1; Fanout = 2; CLK Node = 'Clk'
        Info: 2: + IC(0.238 ns) + CELL(0.000 ns) = 1.264 ns; Loc. = CLKCTRL_G3; Fanout = 2; COMB Node = 'Clk~clkctrl'
        Info: 3: + IC(0.994 ns) + CELL(0.602 ns) = 2.860 ns; Loc. = LCFF_X1_Y12_N9; Fanout = 1; REG Node = 'Q0~reg0'
        Info: Total cell delay = 1.628 ns ( 56.92 % )
        Info: Total interconnect delay = 1.232 ns ( 43.08 % )
    Info: + Micro hold delay of destination is 0.286 ns
    Info: - Shortest pin to register delay is 6.474 ns
        Info: 1: + IC(0.000 ns) + CELL(0.854 ns) = 0.854 ns; Loc. = PIN_P3; Fanout = 3; PIN Node = 'D'
        Info: 2: + IC(5.207 ns) + CELL(0.413 ns) = 6.474 ns; Loc. = LCFF_X1_Y12_N9; Fanout = 1; REG Node = 'Q0~reg0'
        Info: Total cell delay = 1.267 ns ( 19.57 % )
        Info: Total interconnect delay = 5.207 ns ( 80.43 % )
Info: Quartus II Classic Timing Analyzer was successful. 0 errors, 1 warning
    Info: Peak virtual memory: 198 megabytes
    Info: Processing ended: Wed Apr 05 18:13:38 2017
    Info: Elapsed time: 00:00:01
    Info: Total CPU time (on all processors): 00:00:00


