Classic Timing Analyzer report for lab2_counters
Wed Apr 05 15:10:36 2017
Quartus II Version 9.0 Build 184 04/29/2009 Service Pack 1 SJ Web Edition


---------------------
; Table of Contents ;
---------------------
  1. Legal Notice
  2. Timing Analyzer Summary
  3. Timing Analyzer Settings
  4. Clock Settings Summary
  5. Parallel Compilation
  6. Clock Setup: 'clk'
  7. tco
  8. Timing Analyzer Messages



----------------
; Legal Notice ;
----------------
Copyright (C) 1991-2009 Altera Corporation
Your use of Altera Corporation's design tools, logic functions 
and other software and tools, and its AMPP partner logic 
functions, and any output files from any of the foregoing 
(including device programming or simulation files), and any 
associated documentation or information are expressly subject 
to the terms and conditions of the Altera Program License 
Subscription Agreement, Altera MegaCore Function License 
Agreement, or other applicable license agreement, including, 
without limitation, that your use is for the sole purpose of 
programming logic devices manufactured by Altera and sold by 
Altera or its authorized distributors.  Please refer to the 
applicable agreement for further details.



+-----------------------------------------------------------------------------------------------------------------------------------------------------+
; Timing Analyzer Summary                                                                                                                             ;
+------------------------------+-------+---------------+----------------------------------+---------+----------+------------+----------+--------------+
; Type                         ; Slack ; Required Time ; Actual Time                      ; From    ; To       ; From Clock ; To Clock ; Failed Paths ;
+------------------------------+-------+---------------+----------------------------------+---------+----------+------------+----------+--------------+
; Worst-case tco               ; N/A   ; None          ; 11.055 ns                        ; temp[8] ; count[8] ; clk        ; --       ; 0            ;
; Clock Setup: 'clk'           ; N/A   ; None          ; 334.45 MHz ( period = 2.990 ns ) ; temp[0] ; temp[15] ; clk        ; clk      ; 0            ;
; Total number of failed paths ;       ;               ;                                  ;         ;          ;            ;          ; 0            ;
+------------------------------+-------+---------------+----------------------------------+---------+----------+------------+----------+--------------+


+--------------------------------------------------------------------------------------------------------------------+
; Timing Analyzer Settings                                                                                           ;
+---------------------------------------------------------------------+--------------------+------+----+-------------+
; Option                                                              ; Setting            ; From ; To ; Entity Name ;
+---------------------------------------------------------------------+--------------------+------+----+-------------+
; Device Name                                                         ; EP2C20F484C7       ;      ;    ;             ;
; Timing Models                                                       ; Final              ;      ;    ;             ;
; Default hold multicycle                                             ; Same as Multicycle ;      ;    ;             ;
; Cut paths between unrelated clock domains                           ; On                 ;      ;    ;             ;
; Cut off read during write signal paths                              ; On                 ;      ;    ;             ;
; Cut off feedback from I/O pins                                      ; On                 ;      ;    ;             ;
; Report Combined Fast/Slow Timing                                    ; Off                ;      ;    ;             ;
; Ignore Clock Settings                                               ; Off                ;      ;    ;             ;
; Analyze latches as synchronous elements                             ; On                 ;      ;    ;             ;
; Enable Recovery/Removal analysis                                    ; Off                ;      ;    ;             ;
; Enable Clock Latency                                                ; Off                ;      ;    ;             ;
; Use TimeQuest Timing Analyzer                                       ; Off                ;      ;    ;             ;
; Minimum Core Junction Temperature                                   ; 0                  ;      ;    ;             ;
; Maximum Core Junction Temperature                                   ; 85                 ;      ;    ;             ;
; Number of source nodes to report per destination node               ; 10                 ;      ;    ;             ;
; Number of destination nodes to report                               ; 10                 ;      ;    ;             ;
; Number of paths to report                                           ; 200                ;      ;    ;             ;
; Report Minimum Timing Checks                                        ; Off                ;      ;    ;             ;
; Use Fast Timing Models                                              ; Off                ;      ;    ;             ;
; Report IO Paths Separately                                          ; Off                ;      ;    ;             ;
; Perform Multicorner Analysis                                        ; On                 ;      ;    ;             ;
; Reports the worst-case path for each clock domain and analysis      ; Off                ;      ;    ;             ;
; Removes common clock path pessimism (CCPP) during slack computation ; Off                ;      ;    ;             ;
; Output I/O Timing Endpoint                                          ; Near End           ;      ;    ;             ;
+---------------------------------------------------------------------+--------------------+------+----+-------------+


+------------------------------------------------------------------------------------------------------------------------------------------------------------------------------------+
; Clock Settings Summary                                                                                                                                                             ;
+-----------------+--------------------+----------+------------------+---------------+--------------+----------+-----------------------+---------------------+--------+--------------+
; Clock Node Name ; Clock Setting Name ; Type     ; Fmax Requirement ; Early Latency ; Late Latency ; Based on ; Multiply Base Fmax by ; Divide Base Fmax by ; Offset ; Phase offset ;
+-----------------+--------------------+----------+------------------+---------------+--------------+----------+-----------------------+---------------------+--------+--------------+
; clk             ;                    ; User Pin ; None             ; 0.000 ns      ; 0.000 ns     ; --       ; N/A                   ; N/A                 ; N/A    ;              ;
+-----------------+--------------------+----------+------------------+---------------+--------------+----------+-----------------------+---------------------+--------+--------------+


Parallel compilation was disabled, but you have multiple processors available. Enable parallel compilation to reduce compilation time.
+-------------------------------------+
; Parallel Compilation                ;
+----------------------------+--------+
; Processors                 ; Number ;
+----------------------------+--------+
; Number detected on machine ; 2      ;
; Maximum allowed            ; 1      ;
+----------------------------+--------+


+------------------------------------------------------------------------------------------------------------------------------------------------------------------------------------------+
; Clock Setup: 'clk'                                                                                                                                                                       ;
+-------+------------------------------------------------+----------+----------+------------+----------+-----------------------------+---------------------------+-------------------------+
; Slack ; Actual fmax (period)                           ; From     ; To       ; From Clock ; To Clock ; Required Setup Relationship ; Required Longest P2P Time ; Actual Longest P2P Time ;
+-------+------------------------------------------------+----------+----------+------------+----------+-----------------------------+---------------------------+-------------------------+
; N/A   ; 334.45 MHz ( period = 2.990 ns )               ; temp[0]  ; temp[15] ; clk        ; clk      ; None                        ; None                      ; 2.751 ns                ;
; N/A   ; 343.64 MHz ( period = 2.910 ns )               ; temp[0]  ; temp[14] ; clk        ; clk      ; None                        ; None                      ; 2.671 ns                ;
; N/A   ; 353.36 MHz ( period = 2.830 ns )               ; temp[0]  ; temp[13] ; clk        ; clk      ; None                        ; None                      ; 2.591 ns                ;
; N/A   ; 359.45 MHz ( period = 2.782 ns )               ; temp[1]  ; temp[15] ; clk        ; clk      ; None                        ; None                      ; 2.543 ns                ;
; N/A   ; 361.01 MHz ( period = 2.770 ns )               ; temp[4]  ; temp[15] ; clk        ; clk      ; None                        ; None                      ; 2.531 ns                ;
; N/A   ; 363.64 MHz ( period = 2.750 ns )               ; temp[0]  ; temp[12] ; clk        ; clk      ; None                        ; None                      ; 2.511 ns                ;
; N/A   ; 369.14 MHz ( period = 2.709 ns )               ; temp[2]  ; temp[15] ; clk        ; clk      ; None                        ; None                      ; 2.470 ns                ;
; N/A   ; 370.10 MHz ( period = 2.702 ns )               ; temp[1]  ; temp[14] ; clk        ; clk      ; None                        ; None                      ; 2.463 ns                ;
; N/A   ; 371.75 MHz ( period = 2.690 ns )               ; temp[4]  ; temp[14] ; clk        ; clk      ; None                        ; None                      ; 2.451 ns                ;
; N/A   ; 374.53 MHz ( period = 2.670 ns )               ; temp[0]  ; temp[11] ; clk        ; clk      ; None                        ; None                      ; 2.431 ns                ;
; N/A   ; Restricted to 380.08 MHz ( period = 2.631 ns ) ; temp[3]  ; temp[15] ; clk        ; clk      ; None                        ; None                      ; 2.391 ns                ;
; N/A   ; Restricted to 380.08 MHz ( period = 2.631 ns ) ; temp[2]  ; temp[14] ; clk        ; clk      ; None                        ; None                      ; 2.390 ns                ;
; N/A   ; Restricted to 380.08 MHz ( period = 2.631 ns ) ; temp[1]  ; temp[13] ; clk        ; clk      ; None                        ; None                      ; 2.383 ns                ;
; N/A   ; Restricted to 380.08 MHz ( period = 2.631 ns ) ; temp[4]  ; temp[13] ; clk        ; clk      ; None                        ; None                      ; 2.371 ns                ;
; N/A   ; Restricted to 380.08 MHz ( period = 2.631 ns ) ; temp[0]  ; temp[10] ; clk        ; clk      ; None                        ; None                      ; 2.351 ns                ;
; N/A   ; Restricted to 380.08 MHz ( period = 2.631 ns ) ; temp[3]  ; temp[14] ; clk        ; clk      ; None                        ; None                      ; 2.311 ns                ;
; N/A   ; Restricted to 380.08 MHz ( period = 2.631 ns ) ; temp[2]  ; temp[13] ; clk        ; clk      ; None                        ; None                      ; 2.310 ns                ;
; N/A   ; Restricted to 380.08 MHz ( period = 2.631 ns ) ; temp[1]  ; temp[12] ; clk        ; clk      ; None                        ; None                      ; 2.303 ns                ;
; N/A   ; Restricted to 380.08 MHz ( period = 2.631 ns ) ; temp[4]  ; temp[12] ; clk        ; clk      ; None                        ; None                      ; 2.291 ns                ;
; N/A   ; Restricted to 380.08 MHz ( period = 2.631 ns ) ; temp[0]  ; temp[9]  ; clk        ; clk      ; None                        ; None                      ; 2.271 ns                ;
; N/A   ; Restricted to 380.08 MHz ( period = 2.631 ns ) ; temp[5]  ; temp[15] ; clk        ; clk      ; None                        ; None                      ; 2.232 ns                ;
; N/A   ; Restricted to 380.08 MHz ( period = 2.631 ns ) ; temp[3]  ; temp[13] ; clk        ; clk      ; None                        ; None                      ; 2.231 ns                ;
; N/A   ; Restricted to 380.08 MHz ( period = 2.631 ns ) ; temp[2]  ; temp[12] ; clk        ; clk      ; None                        ; None                      ; 2.230 ns                ;
; N/A   ; Restricted to 380.08 MHz ( period = 2.631 ns ) ; temp[1]  ; temp[11] ; clk        ; clk      ; None                        ; None                      ; 2.223 ns                ;
; N/A   ; Restricted to 380.08 MHz ( period = 2.631 ns ) ; temp[4]  ; temp[11] ; clk        ; clk      ; None                        ; None                      ; 2.211 ns                ;
; N/A   ; Restricted to 380.08 MHz ( period = 2.631 ns ) ; temp[6]  ; temp[15] ; clk        ; clk      ; None                        ; None                      ; 2.188 ns                ;
; N/A   ; Restricted to 380.08 MHz ( period = 2.631 ns ) ; temp[5]  ; temp[14] ; clk        ; clk      ; None                        ; None                      ; 2.152 ns                ;
; N/A   ; Restricted to 380.08 MHz ( period = 2.631 ns ) ; temp[3]  ; temp[12] ; clk        ; clk      ; None                        ; None                      ; 2.151 ns                ;
; N/A   ; Restricted to 380.08 MHz ( period = 2.631 ns ) ; temp[2]  ; temp[11] ; clk        ; clk      ; None                        ; None                      ; 2.150 ns                ;
; N/A   ; Restricted to 380.08 MHz ( period = 2.631 ns ) ; temp[1]  ; temp[10] ; clk        ; clk      ; None                        ; None                      ; 2.143 ns                ;
; N/A   ; Restricted to 380.08 MHz ( period = 2.631 ns ) ; temp[4]  ; temp[10] ; clk        ; clk      ; None                        ; None                      ; 2.131 ns                ;
; N/A   ; Restricted to 380.08 MHz ( period = 2.631 ns ) ; temp[6]  ; temp[14] ; clk        ; clk      ; None                        ; None                      ; 2.108 ns                ;
; N/A   ; Restricted to 380.08 MHz ( period = 2.631 ns ) ; temp[7]  ; temp[15] ; clk        ; clk      ; None                        ; None                      ; 2.108 ns                ;
; N/A   ; Restricted to 380.08 MHz ( period = 2.631 ns ) ; temp[0]  ; temp[8]  ; clk        ; clk      ; None                        ; None                      ; 2.097 ns                ;
; N/A   ; Restricted to 380.08 MHz ( period = 2.631 ns ) ; temp[5]  ; temp[13] ; clk        ; clk      ; None                        ; None                      ; 2.072 ns                ;
; N/A   ; Restricted to 380.08 MHz ( period = 2.631 ns ) ; temp[3]  ; temp[11] ; clk        ; clk      ; None                        ; None                      ; 2.071 ns                ;
; N/A   ; Restricted to 380.08 MHz ( period = 2.631 ns ) ; temp[2]  ; temp[10] ; clk        ; clk      ; None                        ; None                      ; 2.070 ns                ;
; N/A   ; Restricted to 380.08 MHz ( period = 2.631 ns ) ; temp[1]  ; temp[9]  ; clk        ; clk      ; None                        ; None                      ; 2.063 ns                ;
; N/A   ; Restricted to 380.08 MHz ( period = 2.631 ns ) ; temp[4]  ; temp[9]  ; clk        ; clk      ; None                        ; None                      ; 2.051 ns                ;
; N/A   ; Restricted to 380.08 MHz ( period = 2.631 ns ) ; temp[6]  ; temp[13] ; clk        ; clk      ; None                        ; None                      ; 2.028 ns                ;
; N/A   ; Restricted to 380.08 MHz ( period = 2.631 ns ) ; temp[7]  ; temp[14] ; clk        ; clk      ; None                        ; None                      ; 2.028 ns                ;
; N/A   ; Restricted to 380.08 MHz ( period = 2.631 ns ) ; temp[0]  ; temp[7]  ; clk        ; clk      ; None                        ; None                      ; 2.017 ns                ;
; N/A   ; Restricted to 380.08 MHz ( period = 2.631 ns ) ; temp[8]  ; temp[15] ; clk        ; clk      ; None                        ; None                      ; 1.999 ns                ;
; N/A   ; Restricted to 380.08 MHz ( period = 2.631 ns ) ; temp[5]  ; temp[12] ; clk        ; clk      ; None                        ; None                      ; 1.992 ns                ;
; N/A   ; Restricted to 380.08 MHz ( period = 2.631 ns ) ; temp[3]  ; temp[10] ; clk        ; clk      ; None                        ; None                      ; 1.991 ns                ;
; N/A   ; Restricted to 380.08 MHz ( period = 2.631 ns ) ; temp[2]  ; temp[9]  ; clk        ; clk      ; None                        ; None                      ; 1.990 ns                ;
; N/A   ; Restricted to 380.08 MHz ( period = 2.631 ns ) ; temp[6]  ; temp[12] ; clk        ; clk      ; None                        ; None                      ; 1.948 ns                ;
; N/A   ; Restricted to 380.08 MHz ( period = 2.631 ns ) ; temp[7]  ; temp[13] ; clk        ; clk      ; None                        ; None                      ; 1.948 ns                ;
; N/A   ; Restricted to 380.08 MHz ( period = 2.631 ns ) ; temp[0]  ; temp[6]  ; clk        ; clk      ; None                        ; None                      ; 1.937 ns                ;
; N/A   ; Restricted to 380.08 MHz ( period = 2.631 ns ) ; temp[8]  ; temp[14] ; clk        ; clk      ; None                        ; None                      ; 1.919 ns                ;
; N/A   ; Restricted to 380.08 MHz ( period = 2.631 ns ) ; temp[5]  ; temp[11] ; clk        ; clk      ; None                        ; None                      ; 1.912 ns                ;
; N/A   ; Restricted to 380.08 MHz ( period = 2.631 ns ) ; temp[3]  ; temp[9]  ; clk        ; clk      ; None                        ; None                      ; 1.911 ns                ;
; N/A   ; Restricted to 380.08 MHz ( period = 2.631 ns ) ; temp[1]  ; temp[8]  ; clk        ; clk      ; None                        ; None                      ; 1.889 ns                ;
; N/A   ; Restricted to 380.08 MHz ( period = 2.631 ns ) ; temp[4]  ; temp[8]  ; clk        ; clk      ; None                        ; None                      ; 1.877 ns                ;
; N/A   ; Restricted to 380.08 MHz ( period = 2.631 ns ) ; temp[6]  ; temp[11] ; clk        ; clk      ; None                        ; None                      ; 1.868 ns                ;
; N/A   ; Restricted to 380.08 MHz ( period = 2.631 ns ) ; temp[7]  ; temp[12] ; clk        ; clk      ; None                        ; None                      ; 1.868 ns                ;
; N/A   ; Restricted to 380.08 MHz ( period = 2.631 ns ) ; temp[0]  ; temp[5]  ; clk        ; clk      ; None                        ; None                      ; 1.857 ns                ;
; N/A   ; Restricted to 380.08 MHz ( period = 2.631 ns ) ; temp[9]  ; temp[15] ; clk        ; clk      ; None                        ; None                      ; 1.857 ns                ;
; N/A   ; Restricted to 380.08 MHz ( period = 2.631 ns ) ; temp[8]  ; temp[13] ; clk        ; clk      ; None                        ; None                      ; 1.839 ns                ;
; N/A   ; Restricted to 380.08 MHz ( period = 2.631 ns ) ; temp[5]  ; temp[10] ; clk        ; clk      ; None                        ; None                      ; 1.832 ns                ;
; N/A   ; Restricted to 380.08 MHz ( period = 2.631 ns ) ; temp[2]  ; temp[8]  ; clk        ; clk      ; None                        ; None                      ; 1.816 ns                ;
; N/A   ; Restricted to 380.08 MHz ( period = 2.631 ns ) ; temp[1]  ; temp[7]  ; clk        ; clk      ; None                        ; None                      ; 1.809 ns                ;
; N/A   ; Restricted to 380.08 MHz ( period = 2.631 ns ) ; temp[4]  ; temp[7]  ; clk        ; clk      ; None                        ; None                      ; 1.797 ns                ;
; N/A   ; Restricted to 380.08 MHz ( period = 2.631 ns ) ; temp[6]  ; temp[10] ; clk        ; clk      ; None                        ; None                      ; 1.788 ns                ;
; N/A   ; Restricted to 380.08 MHz ( period = 2.631 ns ) ; temp[7]  ; temp[11] ; clk        ; clk      ; None                        ; None                      ; 1.788 ns                ;
; N/A   ; Restricted to 380.08 MHz ( period = 2.631 ns ) ; temp[0]  ; temp[4]  ; clk        ; clk      ; None                        ; None                      ; 1.777 ns                ;
; N/A   ; Restricted to 380.08 MHz ( period = 2.631 ns ) ; temp[9]  ; temp[14] ; clk        ; clk      ; None                        ; None                      ; 1.777 ns                ;
; N/A   ; Restricted to 380.08 MHz ( period = 2.631 ns ) ; temp[8]  ; temp[12] ; clk        ; clk      ; None                        ; None                      ; 1.759 ns                ;
; N/A   ; Restricted to 380.08 MHz ( period = 2.631 ns ) ; temp[5]  ; temp[9]  ; clk        ; clk      ; None                        ; None                      ; 1.752 ns                ;
; N/A   ; Restricted to 380.08 MHz ( period = 2.631 ns ) ; temp[3]  ; temp[8]  ; clk        ; clk      ; None                        ; None                      ; 1.737 ns                ;
; N/A   ; Restricted to 380.08 MHz ( period = 2.631 ns ) ; temp[10] ; temp[15] ; clk        ; clk      ; None                        ; None                      ; 1.737 ns                ;
; N/A   ; Restricted to 380.08 MHz ( period = 2.631 ns ) ; temp[2]  ; temp[7]  ; clk        ; clk      ; None                        ; None                      ; 1.736 ns                ;
; N/A   ; Restricted to 380.08 MHz ( period = 2.631 ns ) ; temp[1]  ; temp[6]  ; clk        ; clk      ; None                        ; None                      ; 1.729 ns                ;
; N/A   ; Restricted to 380.08 MHz ( period = 2.631 ns ) ; temp[4]  ; temp[6]  ; clk        ; clk      ; None                        ; None                      ; 1.717 ns                ;
; N/A   ; Restricted to 380.08 MHz ( period = 2.631 ns ) ; temp[6]  ; temp[9]  ; clk        ; clk      ; None                        ; None                      ; 1.708 ns                ;
; N/A   ; Restricted to 380.08 MHz ( period = 2.631 ns ) ; temp[7]  ; temp[10] ; clk        ; clk      ; None                        ; None                      ; 1.708 ns                ;
; N/A   ; Restricted to 380.08 MHz ( period = 2.631 ns ) ; temp[11] ; temp[15] ; clk        ; clk      ; None                        ; None                      ; 1.698 ns                ;
; N/A   ; Restricted to 380.08 MHz ( period = 2.631 ns ) ; temp[0]  ; temp[3]  ; clk        ; clk      ; None                        ; None                      ; 1.697 ns                ;
; N/A   ; Restricted to 380.08 MHz ( period = 2.631 ns ) ; temp[9]  ; temp[13] ; clk        ; clk      ; None                        ; None                      ; 1.697 ns                ;
; N/A   ; Restricted to 380.08 MHz ( period = 2.631 ns ) ; temp[8]  ; temp[11] ; clk        ; clk      ; None                        ; None                      ; 1.679 ns                ;
; N/A   ; Restricted to 380.08 MHz ( period = 2.631 ns ) ; temp[3]  ; temp[7]  ; clk        ; clk      ; None                        ; None                      ; 1.657 ns                ;
; N/A   ; Restricted to 380.08 MHz ( period = 2.631 ns ) ; temp[10] ; temp[14] ; clk        ; clk      ; None                        ; None                      ; 1.657 ns                ;
; N/A   ; Restricted to 380.08 MHz ( period = 2.631 ns ) ; temp[2]  ; temp[6]  ; clk        ; clk      ; None                        ; None                      ; 1.656 ns                ;
; N/A   ; Restricted to 380.08 MHz ( period = 2.631 ns ) ; temp[1]  ; temp[5]  ; clk        ; clk      ; None                        ; None                      ; 1.649 ns                ;
; N/A   ; Restricted to 380.08 MHz ( period = 2.631 ns ) ; temp[4]  ; temp[5]  ; clk        ; clk      ; None                        ; None                      ; 1.637 ns                ;
; N/A   ; Restricted to 380.08 MHz ( period = 2.631 ns ) ; temp[7]  ; temp[9]  ; clk        ; clk      ; None                        ; None                      ; 1.628 ns                ;
; N/A   ; Restricted to 380.08 MHz ( period = 2.631 ns ) ; temp[11] ; temp[14] ; clk        ; clk      ; None                        ; None                      ; 1.618 ns                ;
; N/A   ; Restricted to 380.08 MHz ( period = 2.631 ns ) ; temp[0]  ; temp[2]  ; clk        ; clk      ; None                        ; None                      ; 1.617 ns                ;
; N/A   ; Restricted to 380.08 MHz ( period = 2.631 ns ) ; temp[9]  ; temp[12] ; clk        ; clk      ; None                        ; None                      ; 1.617 ns                ;
; N/A   ; Restricted to 380.08 MHz ( period = 2.631 ns ) ; temp[8]  ; temp[10] ; clk        ; clk      ; None                        ; None                      ; 1.599 ns                ;
; N/A   ; Restricted to 380.08 MHz ( period = 2.631 ns ) ; temp[5]  ; temp[8]  ; clk        ; clk      ; None                        ; None                      ; 1.578 ns                ;
; N/A   ; Restricted to 380.08 MHz ( period = 2.631 ns ) ; temp[12] ; temp[15] ; clk        ; clk      ; None                        ; None                      ; 1.578 ns                ;
; N/A   ; Restricted to 380.08 MHz ( period = 2.631 ns ) ; temp[3]  ; temp[6]  ; clk        ; clk      ; None                        ; None                      ; 1.577 ns                ;
; N/A   ; Restricted to 380.08 MHz ( period = 2.631 ns ) ; temp[10] ; temp[13] ; clk        ; clk      ; None                        ; None                      ; 1.577 ns                ;
; N/A   ; Restricted to 380.08 MHz ( period = 2.631 ns ) ; temp[2]  ; temp[5]  ; clk        ; clk      ; None                        ; None                      ; 1.576 ns                ;
; N/A   ; Restricted to 380.08 MHz ( period = 2.631 ns ) ; temp[1]  ; temp[4]  ; clk        ; clk      ; None                        ; None                      ; 1.569 ns                ;
; N/A   ; Restricted to 380.08 MHz ( period = 2.631 ns ) ; temp[11] ; temp[13] ; clk        ; clk      ; None                        ; None                      ; 1.538 ns                ;
; N/A   ; Restricted to 380.08 MHz ( period = 2.631 ns ) ; temp[13] ; temp[15] ; clk        ; clk      ; None                        ; None                      ; 1.538 ns                ;
; N/A   ; Restricted to 380.08 MHz ( period = 2.631 ns ) ; temp[9]  ; temp[11] ; clk        ; clk      ; None                        ; None                      ; 1.537 ns                ;
; N/A   ; Restricted to 380.08 MHz ( period = 2.631 ns ) ; temp[6]  ; temp[8]  ; clk        ; clk      ; None                        ; None                      ; 1.534 ns                ;
; N/A   ; Restricted to 380.08 MHz ( period = 2.631 ns ) ; temp[8]  ; temp[9]  ; clk        ; clk      ; None                        ; None                      ; 1.519 ns                ;
; N/A   ; Restricted to 380.08 MHz ( period = 2.631 ns ) ; temp[5]  ; temp[7]  ; clk        ; clk      ; None                        ; None                      ; 1.498 ns                ;
; N/A   ; Restricted to 380.08 MHz ( period = 2.631 ns ) ; temp[12] ; temp[14] ; clk        ; clk      ; None                        ; None                      ; 1.498 ns                ;
; N/A   ; Restricted to 380.08 MHz ( period = 2.631 ns ) ; temp[3]  ; temp[5]  ; clk        ; clk      ; None                        ; None                      ; 1.497 ns                ;
; N/A   ; Restricted to 380.08 MHz ( period = 2.631 ns ) ; temp[10] ; temp[12] ; clk        ; clk      ; None                        ; None                      ; 1.497 ns                ;
; N/A   ; Restricted to 380.08 MHz ( period = 2.631 ns ) ; temp[2]  ; temp[4]  ; clk        ; clk      ; None                        ; None                      ; 1.496 ns                ;
; N/A   ; Restricted to 380.08 MHz ( period = 2.631 ns ) ; temp[1]  ; temp[3]  ; clk        ; clk      ; None                        ; None                      ; 1.489 ns                ;
; N/A   ; Restricted to 380.08 MHz ( period = 2.631 ns ) ; temp[11] ; temp[12] ; clk        ; clk      ; None                        ; None                      ; 1.458 ns                ;
; N/A   ; Restricted to 380.08 MHz ( period = 2.631 ns ) ; temp[13] ; temp[14] ; clk        ; clk      ; None                        ; None                      ; 1.458 ns                ;
; N/A   ; Restricted to 380.08 MHz ( period = 2.631 ns ) ; temp[9]  ; temp[10] ; clk        ; clk      ; None                        ; None                      ; 1.457 ns                ;
; N/A   ; Restricted to 380.08 MHz ( period = 2.631 ns ) ; temp[6]  ; temp[7]  ; clk        ; clk      ; None                        ; None                      ; 1.454 ns                ;
; N/A   ; Restricted to 380.08 MHz ( period = 2.631 ns ) ; temp[7]  ; temp[8]  ; clk        ; clk      ; None                        ; None                      ; 1.454 ns                ;
; N/A   ; Restricted to 380.08 MHz ( period = 2.631 ns ) ; temp[5]  ; temp[6]  ; clk        ; clk      ; None                        ; None                      ; 1.418 ns                ;
; N/A   ; Restricted to 380.08 MHz ( period = 2.631 ns ) ; temp[12] ; temp[13] ; clk        ; clk      ; None                        ; None                      ; 1.418 ns                ;
; N/A   ; Restricted to 380.08 MHz ( period = 2.631 ns ) ; temp[3]  ; temp[4]  ; clk        ; clk      ; None                        ; None                      ; 1.417 ns                ;
; N/A   ; Restricted to 380.08 MHz ( period = 2.631 ns ) ; temp[10] ; temp[11] ; clk        ; clk      ; None                        ; None                      ; 1.417 ns                ;
; N/A   ; Restricted to 380.08 MHz ( period = 2.631 ns ) ; temp[2]  ; temp[3]  ; clk        ; clk      ; None                        ; None                      ; 1.416 ns                ;
; N/A   ; Restricted to 380.08 MHz ( period = 2.631 ns ) ; temp[14] ; temp[15] ; clk        ; clk      ; None                        ; None                      ; 1.413 ns                ;
; N/A   ; Restricted to 380.08 MHz ( period = 2.631 ns ) ; temp[1]  ; temp[2]  ; clk        ; clk      ; None                        ; None                      ; 1.409 ns                ;
; N/A   ; Restricted to 380.08 MHz ( period = 2.631 ns ) ; temp[4]  ; temp[4]  ; clk        ; clk      ; None                        ; None                      ; 1.205 ns                ;
; N/A   ; Restricted to 380.08 MHz ( period = 2.631 ns ) ; temp[0]  ; temp[1]  ; clk        ; clk      ; None                        ; None                      ; 1.186 ns                ;
; N/A   ; Restricted to 380.08 MHz ( period = 2.631 ns ) ; temp[11] ; temp[11] ; clk        ; clk      ; None                        ; None                      ; 1.025 ns                ;
; N/A   ; Restricted to 380.08 MHz ( period = 2.631 ns ) ; temp[13] ; temp[13] ; clk        ; clk      ; None                        ; None                      ; 1.025 ns                ;
; N/A   ; Restricted to 380.08 MHz ( period = 2.631 ns ) ; temp[9]  ; temp[9]  ; clk        ; clk      ; None                        ; None                      ; 1.024 ns                ;
; N/A   ; Restricted to 380.08 MHz ( period = 2.631 ns ) ; temp[6]  ; temp[6]  ; clk        ; clk      ; None                        ; None                      ; 1.021 ns                ;
; N/A   ; Restricted to 380.08 MHz ( period = 2.631 ns ) ; temp[7]  ; temp[7]  ; clk        ; clk      ; None                        ; None                      ; 1.021 ns                ;
; N/A   ; Restricted to 380.08 MHz ( period = 2.631 ns ) ; temp[5]  ; temp[5]  ; clk        ; clk      ; None                        ; None                      ; 0.986 ns                ;
; N/A   ; Restricted to 380.08 MHz ( period = 2.631 ns ) ; temp[8]  ; temp[8]  ; clk        ; clk      ; None                        ; None                      ; 0.986 ns                ;
; N/A   ; Restricted to 380.08 MHz ( period = 2.631 ns ) ; temp[12] ; temp[12] ; clk        ; clk      ; None                        ; None                      ; 0.986 ns                ;
; N/A   ; Restricted to 380.08 MHz ( period = 2.631 ns ) ; temp[3]  ; temp[3]  ; clk        ; clk      ; None                        ; None                      ; 0.985 ns                ;
; N/A   ; Restricted to 380.08 MHz ( period = 2.631 ns ) ; temp[10] ; temp[10] ; clk        ; clk      ; None                        ; None                      ; 0.985 ns                ;
; N/A   ; Restricted to 380.08 MHz ( period = 2.631 ns ) ; temp[2]  ; temp[2]  ; clk        ; clk      ; None                        ; None                      ; 0.984 ns                ;
; N/A   ; Restricted to 380.08 MHz ( period = 2.631 ns ) ; temp[14] ; temp[14] ; clk        ; clk      ; None                        ; None                      ; 0.981 ns                ;
; N/A   ; Restricted to 380.08 MHz ( period = 2.631 ns ) ; temp[1]  ; temp[1]  ; clk        ; clk      ; None                        ; None                      ; 0.977 ns                ;
; N/A   ; Restricted to 380.08 MHz ( period = 2.631 ns ) ; temp[15] ; temp[15] ; clk        ; clk      ; None                        ; None                      ; 0.634 ns                ;
; N/A   ; Restricted to 380.08 MHz ( period = 2.631 ns ) ; temp[0]  ; temp[0]  ; clk        ; clk      ; None                        ; None                      ; 0.454 ns                ;
+-------+------------------------------------------------+----------+----------+------------+----------+-----------------------------+---------------------------+-------------------------+


+-----------------------------------------------------------------------+
; tco                                                                   ;
+-------+--------------+------------+----------+-----------+------------+
; Slack ; Required tco ; Actual tco ; From     ; To        ; From Clock ;
+-------+--------------+------------+----------+-----------+------------+
; N/A   ; None         ; 11.055 ns  ; temp[8]  ; count[8]  ; clk        ;
; N/A   ; None         ; 10.215 ns  ; temp[13] ; count[13] ; clk        ;
; N/A   ; None         ; 7.904 ns   ; temp[4]  ; count[4]  ; clk        ;
; N/A   ; None         ; 7.732 ns   ; temp[0]  ; count[0]  ; clk        ;
; N/A   ; None         ; 7.278 ns   ; temp[10] ; count[10] ; clk        ;
; N/A   ; None         ; 7.185 ns   ; temp[14] ; count[14] ; clk        ;
; N/A   ; None         ; 7.168 ns   ; temp[7]  ; count[7]  ; clk        ;
; N/A   ; None         ; 7.160 ns   ; temp[5]  ; count[5]  ; clk        ;
; N/A   ; None         ; 7.159 ns   ; temp[11] ; count[11] ; clk        ;
; N/A   ; None         ; 7.135 ns   ; temp[3]  ; count[3]  ; clk        ;
; N/A   ; None         ; 7.116 ns   ; temp[2]  ; count[2]  ; clk        ;
; N/A   ; None         ; 6.900 ns   ; temp[12] ; count[12] ; clk        ;
; N/A   ; None         ; 6.885 ns   ; temp[6]  ; count[6]  ; clk        ;
; N/A   ; None         ; 6.567 ns   ; temp[15] ; count[15] ; clk        ;
; N/A   ; None         ; 6.541 ns   ; temp[1]  ; count[1]  ; clk        ;
; N/A   ; None         ; 6.538 ns   ; temp[9]  ; count[9]  ; clk        ;
+-------+--------------+------------+----------+-----------+------------+


+--------------------------+
; Timing Analyzer Messages ;
+--------------------------+
Info: *******************************************************************
Info: Running Quartus II Classic Timing Analyzer
    Info: Version 9.0 Build 184 04/29/2009 Service Pack 1 SJ Web Edition
    Info: Processing started: Wed Apr 05 15:10:36 2017
Info: Command: quartus_tan --read_settings_files=off --write_settings_files=off lab2_counters -c lab2_counters --timing_analysis_only
Warning: Found pins functioning as undefined clocks and/or memory enables
    Info: Assuming node "clk" is an undefined clock
Info: Clock "clk" has Internal fmax of 334.45 MHz between source register "temp[0]" and destination register "temp[15]" (period= 2.99 ns)
    Info: + Longest register to register delay is 2.751 ns
        Info: 1: + IC(0.000 ns) + CELL(0.000 ns) = 0.000 ns; Loc. = LCFF_X1_Y12_N31; Fanout = 4; REG Node = 'temp[0]'
        Info: 2: + IC(0.546 ns) + CELL(0.517 ns) = 1.063 ns; Loc. = LCCOMB_X1_Y12_N0; Fanout = 2; COMB Node = 'temp[1]~16'
        Info: 3: + IC(0.000 ns) + CELL(0.080 ns) = 1.143 ns; Loc. = LCCOMB_X1_Y12_N2; Fanout = 2; COMB Node = 'temp[2]~18'
        Info: 4: + IC(0.000 ns) + CELL(0.080 ns) = 1.223 ns; Loc. = LCCOMB_X1_Y12_N4; Fanout = 2; COMB Node = 'temp[3]~20'
        Info: 5: + IC(0.000 ns) + CELL(0.080 ns) = 1.303 ns; Loc. = LCCOMB_X1_Y12_N6; Fanout = 2; COMB Node = 'temp[4]~22'
        Info: 6: + IC(0.000 ns) + CELL(0.080 ns) = 1.383 ns; Loc. = LCCOMB_X1_Y12_N8; Fanout = 2; COMB Node = 'temp[5]~24'
        Info: 7: + IC(0.000 ns) + CELL(0.080 ns) = 1.463 ns; Loc. = LCCOMB_X1_Y12_N10; Fanout = 2; COMB Node = 'temp[6]~26'
        Info: 8: + IC(0.000 ns) + CELL(0.080 ns) = 1.543 ns; Loc. = LCCOMB_X1_Y12_N12; Fanout = 2; COMB Node = 'temp[7]~28'
        Info: 9: + IC(0.000 ns) + CELL(0.174 ns) = 1.717 ns; Loc. = LCCOMB_X1_Y12_N14; Fanout = 2; COMB Node = 'temp[8]~30'
        Info: 10: + IC(0.000 ns) + CELL(0.080 ns) = 1.797 ns; Loc. = LCCOMB_X1_Y12_N16; Fanout = 2; COMB Node = 'temp[9]~32'
        Info: 11: + IC(0.000 ns) + CELL(0.080 ns) = 1.877 ns; Loc. = LCCOMB_X1_Y12_N18; Fanout = 2; COMB Node = 'temp[10]~34'
        Info: 12: + IC(0.000 ns) + CELL(0.080 ns) = 1.957 ns; Loc. = LCCOMB_X1_Y12_N20; Fanout = 2; COMB Node = 'temp[11]~36'
        Info: 13: + IC(0.000 ns) + CELL(0.080 ns) = 2.037 ns; Loc. = LCCOMB_X1_Y12_N22; Fanout = 2; COMB Node = 'temp[12]~38'
        Info: 14: + IC(0.000 ns) + CELL(0.080 ns) = 2.117 ns; Loc. = LCCOMB_X1_Y12_N24; Fanout = 2; COMB Node = 'temp[13]~40'
        Info: 15: + IC(0.000 ns) + CELL(0.080 ns) = 2.197 ns; Loc. = LCCOMB_X1_Y12_N26; Fanout = 1; COMB Node = 'temp[14]~42'
        Info: 16: + IC(0.000 ns) + CELL(0.458 ns) = 2.655 ns; Loc. = LCCOMB_X1_Y12_N28; Fanout = 1; COMB Node = 'temp[15]~43'
        Info: 17: + IC(0.000 ns) + CELL(0.096 ns) = 2.751 ns; Loc. = LCFF_X1_Y12_N29; Fanout = 2; REG Node = 'temp[15]'
        Info: Total cell delay = 2.205 ns ( 80.15 % )
        Info: Total interconnect delay = 0.546 ns ( 19.85 % )
    Info: - Smallest clock skew is 0.000 ns
        Info: + Shortest clock path from clock "clk" to destination register is 2.860 ns
            Info: 1: + IC(0.000 ns) + CELL(1.026 ns) = 1.026 ns; Loc. = PIN_M1; Fanout = 1; CLK Node = 'clk'
            Info: 2: + IC(0.238 ns) + CELL(0.000 ns) = 1.264 ns; Loc. = CLKCTRL_G3; Fanout = 16; COMB Node = 'clk~clkctrl'
            Info: 3: + IC(0.994 ns) + CELL(0.602 ns) = 2.860 ns; Loc. = LCFF_X1_Y12_N29; Fanout = 2; REG Node = 'temp[15]'
            Info: Total cell delay = 1.628 ns ( 56.92 % )
            Info: Total interconnect delay = 1.232 ns ( 43.08 % )
        Info: - Longest clock path from clock "clk" to source register is 2.860 ns
            Info: 1: + IC(0.000 ns) + CELL(1.026 ns) = 1.026 ns; Loc. = PIN_M1; Fanout = 1; CLK Node = 'clk'
            Info: 2: + IC(0.238 ns) + CELL(0.000 ns) = 1.264 ns; Loc. = CLKCTRL_G3; Fanout = 16; COMB Node = 'clk~clkctrl'
            Info: 3: + IC(0.994 ns) + CELL(0.602 ns) = 2.860 ns; Loc. = LCFF_X1_Y12_N31; Fanout = 4; REG Node = 'temp[0]'
            Info: Total cell delay = 1.628 ns ( 56.92 % )
            Info: Total interconnect delay = 1.232 ns ( 43.08 % )
    Info: + Micro clock to output delay of source is 0.277 ns
    Info: + Micro setup delay of destination is -0.038 ns
Info: tco from clock "clk" to destination pin "count[8]" through register "temp[8]" is 11.055 ns
    Info: + Longest clock path from clock "clk" to source register is 2.860 ns
        Info: 1: + IC(0.000 ns) + CELL(1.026 ns) = 1.026 ns; Loc. = PIN_M1; Fanout = 1; CLK Node = 'clk'
        Info: 2: + IC(0.238 ns) + CELL(0.000 ns) = 1.264 ns; Loc. = CLKCTRL_G3; Fanout = 16; COMB Node = 'clk~clkctrl'
        Info: 3: + IC(0.994 ns) + CELL(0.602 ns) = 2.860 ns; Loc. = LCFF_X1_Y12_N15; Fanout = 3; REG Node = 'temp[8]'
        Info: Total cell delay = 1.628 ns ( 56.92 % )
        Info: Total interconnect delay = 1.232 ns ( 43.08 % )
    Info: + Micro clock to output delay of source is 0.277 ns
    Info: + Longest register to pin delay is 7.918 ns
        Info: 1: + IC(0.000 ns) + CELL(0.000 ns) = 0.000 ns; Loc. = LCFF_X1_Y12_N15; Fanout = 3; REG Node = 'temp[8]'
        Info: 2: + IC(4.932 ns) + CELL(2.986 ns) = 7.918 ns; Loc. = PIN_D16; Fanout = 0; PIN Node = 'count[8]'
        Info: Total cell delay = 2.986 ns ( 37.71 % )
        Info: Total interconnect delay = 4.932 ns ( 62.29 % )
Info: Quartus II Classic Timing Analyzer was successful. 0 errors, 1 warning
    Info: Peak virtual memory: 198 megabytes
    Info: Processing ended: Wed Apr 05 15:10:36 2017
    Info: Elapsed time: 00:00:00
    Info: Total CPU time (on all processors): 00:00:00


