Classic Timing Analyzer report for lab2_pt4
Wed Apr 26 23:01:46 2017
Quartus II Version 9.0 Build 184 04/29/2009 Service Pack 1 SJ Web Edition


---------------------
; Table of Contents ;
---------------------
  1. Legal Notice
  2. Timing Analyzer Summary
  3. Timing Analyzer Settings
  4. Clock Settings Summary
  5. Parallel Compilation
  6. Clock Setup: 'CLOCK_50'
  7. tco
  8. Timing Analyzer Messages



----------------
; Legal Notice ;
----------------
Copyright (C) 1991-2009 Altera Corporation
Your use of Altera Corporation's design tools, logic functions 
and other software and tools, and its AMPP partner logic 
functions, and any output files from any of the foregoing 
(including device programming or simulation files), and any 
associated documentation or information are expressly subject 
to the terms and conditions of the Altera Program License 
Subscription Agreement, Altera MegaCore Function License 
Agreement, or other applicable license agreement, including, 
without limitation, that your use is for the sole purpose of 
programming logic devices manufactured by Altera and sold by 
Altera or its authorized distributors.  Please refer to the 
applicable agreement for further details.



+-----------------------------------------------------------------------------------------------------------------------------------------------------------------------+
; Timing Analyzer Summary                                                                                                                                               ;
+------------------------------+-------+---------------+----------------------------------+-------------------+------------------+------------+----------+--------------+
; Type                         ; Slack ; Required Time ; Actual Time                      ; From              ; To               ; From Clock ; To Clock ; Failed Paths ;
+------------------------------+-------+---------------+----------------------------------+-------------------+------------------+------------+----------+--------------+
; Worst-case tco               ; N/A   ; None          ; 9.961 ns                         ; count_val_unit[3] ; Count_unit[3]    ; CLOCK_50   ; --       ; 0            ;
; Clock Setup: 'CLOCK_50'      ; N/A   ; None          ; 233.21 MHz ( period = 4.288 ns ) ; count_val_unit[1] ; count_val_hun[1] ; CLOCK_50   ; CLOCK_50 ; 0            ;
; Total number of failed paths ;       ;               ;                                  ;                   ;                  ;            ;          ; 0            ;
+------------------------------+-------+---------------+----------------------------------+-------------------+------------------+------------+----------+--------------+


+--------------------------------------------------------------------------------------------------------------------+
; Timing Analyzer Settings                                                                                           ;
+---------------------------------------------------------------------+--------------------+------+----+-------------+
; Option                                                              ; Setting            ; From ; To ; Entity Name ;
+---------------------------------------------------------------------+--------------------+------+----+-------------+
; Device Name                                                         ; EP2C20F484C7       ;      ;    ;             ;
; Timing Models                                                       ; Final              ;      ;    ;             ;
; Default hold multicycle                                             ; Same as Multicycle ;      ;    ;             ;
; Cut paths between unrelated clock domains                           ; On                 ;      ;    ;             ;
; Cut off read during write signal paths                              ; On                 ;      ;    ;             ;
; Cut off feedback from I/O pins                                      ; On                 ;      ;    ;             ;
; Report Combined Fast/Slow Timing                                    ; Off                ;      ;    ;             ;
; Ignore Clock Settings                                               ; Off                ;      ;    ;             ;
; Analyze latches as synchronous elements                             ; On                 ;      ;    ;             ;
; Enable Recovery/Removal analysis                                    ; Off                ;      ;    ;             ;
; Enable Clock Latency                                                ; Off                ;      ;    ;             ;
; Use TimeQuest Timing Analyzer                                       ; Off                ;      ;    ;             ;
; Minimum Core Junction Temperature                                   ; 0                  ;      ;    ;             ;
; Maximum Core Junction Temperature                                   ; 85                 ;      ;    ;             ;
; Number of source nodes to report per destination node               ; 10                 ;      ;    ;             ;
; Number of destination nodes to report                               ; 10                 ;      ;    ;             ;
; Number of paths to report                                           ; 200                ;      ;    ;             ;
; Report Minimum Timing Checks                                        ; Off                ;      ;    ;             ;
; Use Fast Timing Models                                              ; Off                ;      ;    ;             ;
; Report IO Paths Separately                                          ; Off                ;      ;    ;             ;
; Perform Multicorner Analysis                                        ; On                 ;      ;    ;             ;
; Reports the worst-case path for each clock domain and analysis      ; Off                ;      ;    ;             ;
; Removes common clock path pessimism (CCPP) during slack computation ; Off                ;      ;    ;             ;
; Output I/O Timing Endpoint                                          ; Near End           ;      ;    ;             ;
+---------------------------------------------------------------------+--------------------+------+----+-------------+


+------------------------------------------------------------------------------------------------------------------------------------------------------------------------------------+
; Clock Settings Summary                                                                                                                                                             ;
+-----------------+--------------------+----------+------------------+---------------+--------------+----------+-----------------------+---------------------+--------+--------------+
; Clock Node Name ; Clock Setting Name ; Type     ; Fmax Requirement ; Early Latency ; Late Latency ; Based on ; Multiply Base Fmax by ; Divide Base Fmax by ; Offset ; Phase offset ;
+-----------------+--------------------+----------+------------------+---------------+--------------+----------+-----------------------+---------------------+--------+--------------+
; CLOCK_50        ;                    ; User Pin ; None             ; 0.000 ns      ; 0.000 ns     ; --       ; N/A                   ; N/A                 ; N/A    ;              ;
+-----------------+--------------------+----------+------------------+---------------+--------------+----------+-----------------------+---------------------+--------+--------------+


Parallel compilation was disabled, but you have multiple processors available. Enable parallel compilation to reduce compilation time.
+-------------------------------------+
; Parallel Compilation                ;
+----------------------------+--------+
; Processors                 ; Number ;
+----------------------------+--------+
; Number detected on machine ; 2      ;
; Maximum allowed            ; 1      ;
+----------------------------+--------+


+------------------------------------------------------------------------------------------------------------------------------------------------------------------------------------------------------------+
; Clock Setup: 'CLOCK_50'                                                                                                                                                                                    ;
+-------+------------------------------------------------+-------------------+-------------------+------------+----------+-----------------------------+---------------------------+-------------------------+
; Slack ; Actual fmax (period)                           ; From              ; To                ; From Clock ; To Clock ; Required Setup Relationship ; Required Longest P2P Time ; Actual Longest P2P Time ;
+-------+------------------------------------------------+-------------------+-------------------+------------+----------+-----------------------------+---------------------------+-------------------------+
; N/A   ; 233.21 MHz ( period = 4.288 ns )               ; count_val_unit[1] ; count_val_hun[3]  ; CLOCK_50   ; CLOCK_50 ; None                        ; None                      ; 4.057 ns                ;
; N/A   ; 233.21 MHz ( period = 4.288 ns )               ; count_val_unit[1] ; count_val_hun[0]  ; CLOCK_50   ; CLOCK_50 ; None                        ; None                      ; 4.057 ns                ;
; N/A   ; 233.21 MHz ( period = 4.288 ns )               ; count_val_unit[1] ; count_val_hun[1]  ; CLOCK_50   ; CLOCK_50 ; None                        ; None                      ; 4.057 ns                ;
; N/A   ; 233.37 MHz ( period = 4.285 ns )               ; count_val_ten[0]  ; count_val_hun[3]  ; CLOCK_50   ; CLOCK_50 ; None                        ; None                      ; 4.055 ns                ;
; N/A   ; 233.37 MHz ( period = 4.285 ns )               ; count_val_ten[0]  ; count_val_hun[0]  ; CLOCK_50   ; CLOCK_50 ; None                        ; None                      ; 4.055 ns                ;
; N/A   ; 233.37 MHz ( period = 4.285 ns )               ; count_val_ten[0]  ; count_val_hun[1]  ; CLOCK_50   ; CLOCK_50 ; None                        ; None                      ; 4.055 ns                ;
; N/A   ; 244.74 MHz ( period = 4.086 ns )               ; count_val_ten[3]  ; count_val_hun[3]  ; CLOCK_50   ; CLOCK_50 ; None                        ; None                      ; 3.856 ns                ;
; N/A   ; 244.74 MHz ( period = 4.086 ns )               ; count_val_ten[3]  ; count_val_hun[0]  ; CLOCK_50   ; CLOCK_50 ; None                        ; None                      ; 3.856 ns                ;
; N/A   ; 244.74 MHz ( period = 4.086 ns )               ; count_val_ten[3]  ; count_val_hun[1]  ; CLOCK_50   ; CLOCK_50 ; None                        ; None                      ; 3.856 ns                ;
; N/A   ; 246.24 MHz ( period = 4.061 ns )               ; count_val_unit[3] ; count_val_hun[3]  ; CLOCK_50   ; CLOCK_50 ; None                        ; None                      ; 3.830 ns                ;
; N/A   ; 246.24 MHz ( period = 4.061 ns )               ; count_val_unit[3] ; count_val_hun[0]  ; CLOCK_50   ; CLOCK_50 ; None                        ; None                      ; 3.830 ns                ;
; N/A   ; 246.24 MHz ( period = 4.061 ns )               ; count_val_unit[3] ; count_val_hun[1]  ; CLOCK_50   ; CLOCK_50 ; None                        ; None                      ; 3.830 ns                ;
; N/A   ; 250.00 MHz ( period = 4.000 ns )               ; count_val_ten[2]  ; count_val_hun[3]  ; CLOCK_50   ; CLOCK_50 ; None                        ; None                      ; 3.769 ns                ;
; N/A   ; 250.00 MHz ( period = 4.000 ns )               ; count_val_ten[2]  ; count_val_hun[0]  ; CLOCK_50   ; CLOCK_50 ; None                        ; None                      ; 3.769 ns                ;
; N/A   ; 250.00 MHz ( period = 4.000 ns )               ; count_val_ten[2]  ; count_val_hun[1]  ; CLOCK_50   ; CLOCK_50 ; None                        ; None                      ; 3.769 ns                ;
; N/A   ; 252.91 MHz ( period = 3.954 ns )               ; count_val_ten[1]  ; count_val_hun[3]  ; CLOCK_50   ; CLOCK_50 ; None                        ; None                      ; 3.724 ns                ;
; N/A   ; 252.91 MHz ( period = 3.954 ns )               ; count_val_ten[1]  ; count_val_hun[0]  ; CLOCK_50   ; CLOCK_50 ; None                        ; None                      ; 3.724 ns                ;
; N/A   ; 252.91 MHz ( period = 3.954 ns )               ; count_val_ten[1]  ; count_val_hun[1]  ; CLOCK_50   ; CLOCK_50 ; None                        ; None                      ; 3.724 ns                ;
; N/A   ; 254.71 MHz ( period = 3.926 ns )               ; count_val_unit[2] ; count_val_hun[3]  ; CLOCK_50   ; CLOCK_50 ; None                        ; None                      ; 3.695 ns                ;
; N/A   ; 254.71 MHz ( period = 3.926 ns )               ; count_val_unit[2] ; count_val_hun[0]  ; CLOCK_50   ; CLOCK_50 ; None                        ; None                      ; 3.695 ns                ;
; N/A   ; 254.71 MHz ( period = 3.926 ns )               ; count_val_unit[2] ; count_val_hun[1]  ; CLOCK_50   ; CLOCK_50 ; None                        ; None                      ; 3.695 ns                ;
; N/A   ; 280.66 MHz ( period = 3.563 ns )               ; count_val_unit[0] ; count_val_hun[3]  ; CLOCK_50   ; CLOCK_50 ; None                        ; None                      ; 3.332 ns                ;
; N/A   ; 280.66 MHz ( period = 3.563 ns )               ; count_val_unit[0] ; count_val_hun[0]  ; CLOCK_50   ; CLOCK_50 ; None                        ; None                      ; 3.332 ns                ;
; N/A   ; 280.66 MHz ( period = 3.563 ns )               ; count_val_unit[0] ; count_val_hun[1]  ; CLOCK_50   ; CLOCK_50 ; None                        ; None                      ; 3.332 ns                ;
; N/A   ; 336.93 MHz ( period = 2.968 ns )               ; count_val_hun[1]  ; count_val_hun[2]  ; CLOCK_50   ; CLOCK_50 ; None                        ; None                      ; 2.721 ns                ;
; N/A   ; 340.37 MHz ( period = 2.938 ns )               ; count_val_unit[3] ; count_val_ten[3]  ; CLOCK_50   ; CLOCK_50 ; None                        ; None                      ; 2.698 ns                ;
; N/A   ; 340.37 MHz ( period = 2.938 ns )               ; count_val_unit[3] ; count_val_ten[0]  ; CLOCK_50   ; CLOCK_50 ; None                        ; None                      ; 2.698 ns                ;
; N/A   ; 340.37 MHz ( period = 2.938 ns )               ; count_val_unit[3] ; count_val_ten[1]  ; CLOCK_50   ; CLOCK_50 ; None                        ; None                      ; 2.698 ns                ;
; N/A   ; 355.49 MHz ( period = 2.813 ns )               ; count_val_ten[0]  ; count_val_hun[2]  ; CLOCK_50   ; CLOCK_50 ; None                        ; None                      ; 2.575 ns                ;
; N/A   ; 355.75 MHz ( period = 2.811 ns )               ; count_val_hun[0]  ; count_val_hun[2]  ; CLOCK_50   ; CLOCK_50 ; None                        ; None                      ; 2.564 ns                ;
; N/A   ; 356.76 MHz ( period = 2.803 ns )               ; count_val_unit[2] ; count_val_ten[3]  ; CLOCK_50   ; CLOCK_50 ; None                        ; None                      ; 2.563 ns                ;
; N/A   ; 356.76 MHz ( period = 2.803 ns )               ; count_val_unit[2] ; count_val_ten[0]  ; CLOCK_50   ; CLOCK_50 ; None                        ; None                      ; 2.563 ns                ;
; N/A   ; 356.76 MHz ( period = 2.803 ns )               ; count_val_unit[2] ; count_val_ten[1]  ; CLOCK_50   ; CLOCK_50 ; None                        ; None                      ; 2.563 ns                ;
; N/A   ; Restricted to 380.08 MHz ( period = 2.631 ns ) ; count_val_ten[3]  ; count_val_hun[2]  ; CLOCK_50   ; CLOCK_50 ; None                        ; None                      ; 2.376 ns                ;
; N/A   ; Restricted to 380.08 MHz ( period = 2.631 ns ) ; count_val_unit[3] ; count_val_hun[2]  ; CLOCK_50   ; CLOCK_50 ; None                        ; None                      ; 2.300 ns                ;
; N/A   ; Restricted to 380.08 MHz ( period = 2.631 ns ) ; count_val_ten[2]  ; count_val_hun[2]  ; CLOCK_50   ; CLOCK_50 ; None                        ; None                      ; 2.289 ns                ;
; N/A   ; Restricted to 380.08 MHz ( period = 2.631 ns ) ; count_val_ten[1]  ; count_val_hun[2]  ; CLOCK_50   ; CLOCK_50 ; None                        ; None                      ; 2.244 ns                ;
; N/A   ; Restricted to 380.08 MHz ( period = 2.631 ns ) ; count_val_unit[1] ; count_val_ten[3]  ; CLOCK_50   ; CLOCK_50 ; None                        ; None                      ; 2.212 ns                ;
; N/A   ; Restricted to 380.08 MHz ( period = 2.631 ns ) ; count_val_unit[1] ; count_val_ten[0]  ; CLOCK_50   ; CLOCK_50 ; None                        ; None                      ; 2.212 ns                ;
; N/A   ; Restricted to 380.08 MHz ( period = 2.631 ns ) ; count_val_unit[1] ; count_val_ten[1]  ; CLOCK_50   ; CLOCK_50 ; None                        ; None                      ; 2.212 ns                ;
; N/A   ; Restricted to 380.08 MHz ( period = 2.631 ns ) ; count_val_unit[0] ; count_val_ten[3]  ; CLOCK_50   ; CLOCK_50 ; None                        ; None                      ; 2.185 ns                ;
; N/A   ; Restricted to 380.08 MHz ( period = 2.631 ns ) ; count_val_unit[0] ; count_val_ten[0]  ; CLOCK_50   ; CLOCK_50 ; None                        ; None                      ; 2.185 ns                ;
; N/A   ; Restricted to 380.08 MHz ( period = 2.631 ns ) ; count_val_unit[0] ; count_val_ten[1]  ; CLOCK_50   ; CLOCK_50 ; None                        ; None                      ; 2.185 ns                ;
; N/A   ; Restricted to 380.08 MHz ( period = 2.631 ns ) ; count_val_unit[2] ; count_val_hun[2]  ; CLOCK_50   ; CLOCK_50 ; None                        ; None                      ; 2.165 ns                ;
; N/A   ; Restricted to 380.08 MHz ( period = 2.631 ns ) ; count_val_hun[2]  ; count_val_hun[3]  ; CLOCK_50   ; CLOCK_50 ; None                        ; None                      ; 2.153 ns                ;
; N/A   ; Restricted to 380.08 MHz ( period = 2.631 ns ) ; count_val_hun[2]  ; count_val_hun[1]  ; CLOCK_50   ; CLOCK_50 ; None                        ; None                      ; 2.153 ns                ;
; N/A   ; Restricted to 380.08 MHz ( period = 2.631 ns ) ; count_val_unit[1] ; count_val_hun[2]  ; CLOCK_50   ; CLOCK_50 ; None                        ; None                      ; 1.814 ns                ;
; N/A   ; Restricted to 380.08 MHz ( period = 2.631 ns ) ; count_val_unit[0] ; count_val_hun[2]  ; CLOCK_50   ; CLOCK_50 ; None                        ; None                      ; 1.787 ns                ;
; N/A   ; Restricted to 380.08 MHz ( period = 2.631 ns ) ; count_val_unit[3] ; count_val_ten[2]  ; CLOCK_50   ; CLOCK_50 ; None                        ; None                      ; 1.717 ns                ;
; N/A   ; Restricted to 380.08 MHz ( period = 2.631 ns ) ; count_val_ten[0]  ; count_val_ten[2]  ; CLOCK_50   ; CLOCK_50 ; None                        ; None                      ; 1.670 ns                ;
; N/A   ; Restricted to 380.08 MHz ( period = 2.631 ns ) ; count_val_unit[0] ; count_val_unit[1] ; CLOCK_50   ; CLOCK_50 ; None                        ; None                      ; 1.611 ns                ;
; N/A   ; Restricted to 380.08 MHz ( period = 2.631 ns ) ; count_val_unit[1] ; count_val_ten[2]  ; CLOCK_50   ; CLOCK_50 ; None                        ; None                      ; 1.589 ns                ;
; N/A   ; Restricted to 380.08 MHz ( period = 2.631 ns ) ; count_val_unit[2] ; count_val_ten[2]  ; CLOCK_50   ; CLOCK_50 ; None                        ; None                      ; 1.582 ns                ;
; N/A   ; Restricted to 380.08 MHz ( period = 2.631 ns ) ; count_val_unit[0] ; count_val_unit[3] ; CLOCK_50   ; CLOCK_50 ; None                        ; None                      ; 1.553 ns                ;
; N/A   ; Restricted to 380.08 MHz ( period = 2.631 ns ) ; count_val_unit[0] ; count_val_unit[2] ; CLOCK_50   ; CLOCK_50 ; None                        ; None                      ; 1.551 ns                ;
; N/A   ; Restricted to 380.08 MHz ( period = 2.631 ns ) ; count_val_ten[1]  ; count_val_ten[2]  ; CLOCK_50   ; CLOCK_50 ; None                        ; None                      ; 1.484 ns                ;
; N/A   ; Restricted to 380.08 MHz ( period = 2.631 ns ) ; count_val_ten[2]  ; count_val_ten[3]  ; CLOCK_50   ; CLOCK_50 ; None                        ; None                      ; 1.345 ns                ;
; N/A   ; Restricted to 380.08 MHz ( period = 2.631 ns ) ; count_val_ten[3]  ; count_val_ten[1]  ; CLOCK_50   ; CLOCK_50 ; None                        ; None                      ; 1.332 ns                ;
; N/A   ; Restricted to 380.08 MHz ( period = 2.631 ns ) ; count_val_unit[0] ; count_val_ten[2]  ; CLOCK_50   ; CLOCK_50 ; None                        ; None                      ; 1.313 ns                ;
; N/A   ; Restricted to 380.08 MHz ( period = 2.631 ns ) ; count_val_unit[1] ; count_val_unit[3] ; CLOCK_50   ; CLOCK_50 ; None                        ; None                      ; 1.087 ns                ;
; N/A   ; Restricted to 380.08 MHz ( period = 2.631 ns ) ; count_val_unit[1] ; count_val_unit[2] ; CLOCK_50   ; CLOCK_50 ; None                        ; None                      ; 1.082 ns                ;
; N/A   ; Restricted to 380.08 MHz ( period = 2.631 ns ) ; count_val_hun[0]  ; count_val_hun[3]  ; CLOCK_50   ; CLOCK_50 ; None                        ; None                      ; 1.069 ns                ;
; N/A   ; Restricted to 380.08 MHz ( period = 2.631 ns ) ; count_val_hun[0]  ; count_val_hun[1]  ; CLOCK_50   ; CLOCK_50 ; None                        ; None                      ; 1.067 ns                ;
; N/A   ; Restricted to 380.08 MHz ( period = 2.631 ns ) ; count_val_unit[2] ; count_val_unit[1] ; CLOCK_50   ; CLOCK_50 ; None                        ; None                      ; 1.024 ns                ;
; N/A   ; Restricted to 380.08 MHz ( period = 2.631 ns ) ; count_val_hun[1]  ; count_val_hun[3]  ; CLOCK_50   ; CLOCK_50 ; None                        ; None                      ; 1.024 ns                ;
; N/A   ; Restricted to 380.08 MHz ( period = 2.631 ns ) ; count_val_ten[0]  ; count_val_ten[3]  ; CLOCK_50   ; CLOCK_50 ; None                        ; None                      ; 0.995 ns                ;
; N/A   ; Restricted to 380.08 MHz ( period = 2.631 ns ) ; count_val_ten[0]  ; count_val_ten[1]  ; CLOCK_50   ; CLOCK_50 ; None                        ; None                      ; 0.990 ns                ;
; N/A   ; Restricted to 380.08 MHz ( period = 2.631 ns ) ; count_val_hun[3]  ; count_val_hun[1]  ; CLOCK_50   ; CLOCK_50 ; None                        ; None                      ; 0.978 ns                ;
; N/A   ; Restricted to 380.08 MHz ( period = 2.631 ns ) ; count_val_ten[2]  ; count_val_ten[1]  ; CLOCK_50   ; CLOCK_50 ; None                        ; None                      ; 0.966 ns                ;
; N/A   ; Restricted to 380.08 MHz ( period = 2.631 ns ) ; count_val_unit[3] ; count_val_unit[1] ; CLOCK_50   ; CLOCK_50 ; None                        ; None                      ; 0.906 ns                ;
; N/A   ; Restricted to 380.08 MHz ( period = 2.631 ns ) ; count_val_ten[1]  ; count_val_ten[3]  ; CLOCK_50   ; CLOCK_50 ; None                        ; None                      ; 0.691 ns                ;
; N/A   ; Restricted to 380.08 MHz ( period = 2.631 ns ) ; count_val_unit[2] ; count_val_unit[3] ; CLOCK_50   ; CLOCK_50 ; None                        ; None                      ; 0.678 ns                ;
; N/A   ; Restricted to 380.08 MHz ( period = 2.631 ns ) ; count_val_unit[3] ; count_val_unit[3] ; CLOCK_50   ; CLOCK_50 ; None                        ; None                      ; 0.454 ns                ;
; N/A   ; Restricted to 380.08 MHz ( period = 2.631 ns ) ; count_val_unit[1] ; count_val_unit[1] ; CLOCK_50   ; CLOCK_50 ; None                        ; None                      ; 0.454 ns                ;
; N/A   ; Restricted to 380.08 MHz ( period = 2.631 ns ) ; count_val_unit[0] ; count_val_unit[0] ; CLOCK_50   ; CLOCK_50 ; None                        ; None                      ; 0.454 ns                ;
; N/A   ; Restricted to 380.08 MHz ( period = 2.631 ns ) ; count_val_unit[2] ; count_val_unit[2] ; CLOCK_50   ; CLOCK_50 ; None                        ; None                      ; 0.454 ns                ;
; N/A   ; Restricted to 380.08 MHz ( period = 2.631 ns ) ; count_val_ten[3]  ; count_val_ten[3]  ; CLOCK_50   ; CLOCK_50 ; None                        ; None                      ; 0.454 ns                ;
; N/A   ; Restricted to 380.08 MHz ( period = 2.631 ns ) ; count_val_ten[2]  ; count_val_ten[2]  ; CLOCK_50   ; CLOCK_50 ; None                        ; None                      ; 0.454 ns                ;
; N/A   ; Restricted to 380.08 MHz ( period = 2.631 ns ) ; count_val_ten[0]  ; count_val_ten[0]  ; CLOCK_50   ; CLOCK_50 ; None                        ; None                      ; 0.454 ns                ;
; N/A   ; Restricted to 380.08 MHz ( period = 2.631 ns ) ; count_val_ten[1]  ; count_val_ten[1]  ; CLOCK_50   ; CLOCK_50 ; None                        ; None                      ; 0.454 ns                ;
; N/A   ; Restricted to 380.08 MHz ( period = 2.631 ns ) ; count_val_hun[3]  ; count_val_hun[3]  ; CLOCK_50   ; CLOCK_50 ; None                        ; None                      ; 0.454 ns                ;
; N/A   ; Restricted to 380.08 MHz ( period = 2.631 ns ) ; count_val_hun[0]  ; count_val_hun[0]  ; CLOCK_50   ; CLOCK_50 ; None                        ; None                      ; 0.454 ns                ;
; N/A   ; Restricted to 380.08 MHz ( period = 2.631 ns ) ; count_val_hun[1]  ; count_val_hun[1]  ; CLOCK_50   ; CLOCK_50 ; None                        ; None                      ; 0.454 ns                ;
; N/A   ; Restricted to 380.08 MHz ( period = 2.631 ns ) ; count_val_hun[2]  ; count_val_hun[2]  ; CLOCK_50   ; CLOCK_50 ; None                        ; None                      ; 0.454 ns                ;
+-------+------------------------------------------------+-------------------+-------------------+------------+----------+-----------------------------+---------------------------+-------------------------+


+------------------------------------------------------------------------------------+
; tco                                                                                ;
+-------+--------------+------------+-------------------+---------------+------------+
; Slack ; Required tco ; Actual tco ; From              ; To            ; From Clock ;
+-------+--------------+------------+-------------------+---------------+------------+
; N/A   ; None         ; 9.961 ns   ; count_val_unit[3] ; Count_unit[3] ; CLOCK_50   ;
; N/A   ; None         ; 9.239 ns   ; count_val_hun[2]  ; HEX2[0]       ; CLOCK_50   ;
; N/A   ; None         ; 9.030 ns   ; count_val_unit[2] ; Count_unit[2] ; CLOCK_50   ;
; N/A   ; None         ; 9.013 ns   ; count_val_hun[3]  ; Count_hun[3]  ; CLOCK_50   ;
; N/A   ; None         ; 8.993 ns   ; count_val_hun[1]  ; Count_hun[1]  ; CLOCK_50   ;
; N/A   ; None         ; 8.929 ns   ; count_val_unit[0] ; HEX0[3]       ; CLOCK_50   ;
; N/A   ; None         ; 8.919 ns   ; count_val_unit[2] ; HEX0[3]       ; CLOCK_50   ;
; N/A   ; None         ; 8.912 ns   ; count_val_hun[2]  ; HEX2[3]       ; CLOCK_50   ;
; N/A   ; None         ; 8.908 ns   ; count_val_unit[2] ; HEX0[0]       ; CLOCK_50   ;
; N/A   ; None         ; 8.905 ns   ; count_val_hun[2]  ; HEX2[2]       ; CLOCK_50   ;
; N/A   ; None         ; 8.893 ns   ; count_val_unit[3] ; HEX0[0]       ; CLOCK_50   ;
; N/A   ; None         ; 8.862 ns   ; count_val_hun[2]  ; HEX2[6]       ; CLOCK_50   ;
; N/A   ; None         ; 8.840 ns   ; count_val_unit[1] ; HEX0[3]       ; CLOCK_50   ;
; N/A   ; None         ; 8.814 ns   ; count_val_unit[1] ; HEX0[0]       ; CLOCK_50   ;
; N/A   ; None         ; 8.812 ns   ; count_val_unit[0] ; HEX0[1]       ; CLOCK_50   ;
; N/A   ; None         ; 8.759 ns   ; count_val_hun[2]  ; HEX2[1]       ; CLOCK_50   ;
; N/A   ; None         ; 8.618 ns   ; count_val_ten[3]  ; HEX1[6]       ; CLOCK_50   ;
; N/A   ; None         ; 8.608 ns   ; count_val_unit[0] ; HEX0[4]       ; CLOCK_50   ;
; N/A   ; None         ; 8.604 ns   ; count_val_unit[0] ; HEX0[5]       ; CLOCK_50   ;
; N/A   ; None         ; 8.602 ns   ; count_val_ten[3]  ; HEX1[5]       ; CLOCK_50   ;
; N/A   ; None         ; 8.601 ns   ; count_val_unit[0] ; HEX0[6]       ; CLOCK_50   ;
; N/A   ; None         ; 8.601 ns   ; count_val_unit[2] ; HEX0[5]       ; CLOCK_50   ;
; N/A   ; None         ; 8.596 ns   ; count_val_unit[2] ; HEX0[6]       ; CLOCK_50   ;
; N/A   ; None         ; 8.590 ns   ; count_val_unit[2] ; HEX0[4]       ; CLOCK_50   ;
; N/A   ; None         ; 8.580 ns   ; count_val_ten[3]  ; HEX1[4]       ; CLOCK_50   ;
; N/A   ; None         ; 8.572 ns   ; count_val_ten[3]  ; HEX1[3]       ; CLOCK_50   ;
; N/A   ; None         ; 8.566 ns   ; count_val_ten[3]  ; HEX1[1]       ; CLOCK_50   ;
; N/A   ; None         ; 8.552 ns   ; count_val_ten[3]  ; HEX1[2]       ; CLOCK_50   ;
; N/A   ; None         ; 8.549 ns   ; count_val_hun[2]  ; HEX2[4]       ; CLOCK_50   ;
; N/A   ; None         ; 8.539 ns   ; count_val_hun[2]  ; HEX2[5]       ; CLOCK_50   ;
; N/A   ; None         ; 8.534 ns   ; count_val_unit[2] ; HEX0[1]       ; CLOCK_50   ;
; N/A   ; None         ; 8.524 ns   ; count_val_unit[3] ; HEX0[3]       ; CLOCK_50   ;
; N/A   ; None         ; 8.515 ns   ; count_val_unit[1] ; HEX0[4]       ; CLOCK_50   ;
; N/A   ; None         ; 8.511 ns   ; count_val_unit[1] ; HEX0[6]       ; CLOCK_50   ;
; N/A   ; None         ; 8.508 ns   ; count_val_unit[1] ; HEX0[5]       ; CLOCK_50   ;
; N/A   ; None         ; 8.487 ns   ; count_val_unit[0] ; Count_unit[0] ; CLOCK_50   ;
; N/A   ; None         ; 8.432 ns   ; count_val_unit[0] ; HEX0[2]       ; CLOCK_50   ;
; N/A   ; None         ; 8.406 ns   ; count_val_ten[3]  ; HEX1[0]       ; CLOCK_50   ;
; N/A   ; None         ; 8.367 ns   ; count_val_ten[1]  ; HEX1[0]       ; CLOCK_50   ;
; N/A   ; None         ; 8.320 ns   ; count_val_ten[1]  ; HEX1[6]       ; CLOCK_50   ;
; N/A   ; None         ; 8.318 ns   ; count_val_ten[0]  ; HEX1[6]       ; CLOCK_50   ;
; N/A   ; None         ; 8.301 ns   ; count_val_ten[0]  ; HEX1[5]       ; CLOCK_50   ;
; N/A   ; None         ; 8.285 ns   ; count_val_ten[2]  ; HEX1[0]       ; CLOCK_50   ;
; N/A   ; None         ; 8.284 ns   ; count_val_ten[1]  ; HEX1[3]       ; CLOCK_50   ;
; N/A   ; None         ; 8.280 ns   ; count_val_ten[1]  ; HEX1[1]       ; CLOCK_50   ;
; N/A   ; None         ; 8.278 ns   ; count_val_ten[1]  ; HEX1[4]       ; CLOCK_50   ;
; N/A   ; None         ; 8.277 ns   ; count_val_ten[0]  ; HEX1[3]       ; CLOCK_50   ;
; N/A   ; None         ; 8.273 ns   ; count_val_ten[0]  ; HEX1[1]       ; CLOCK_50   ;
; N/A   ; None         ; 8.264 ns   ; count_val_ten[1]  ; HEX1[2]       ; CLOCK_50   ;
; N/A   ; None         ; 8.257 ns   ; count_val_ten[0]  ; HEX1[2]       ; CLOCK_50   ;
; N/A   ; None         ; 8.256 ns   ; count_val_ten[2]  ; HEX1[6]       ; CLOCK_50   ;
; N/A   ; None         ; 8.256 ns   ; count_val_ten[1]  ; HEX1[5]       ; CLOCK_50   ;
; N/A   ; None         ; 8.238 ns   ; count_val_ten[2]  ; HEX1[5]       ; CLOCK_50   ;
; N/A   ; None         ; 8.235 ns   ; count_val_ten[0]  ; HEX1[4]       ; CLOCK_50   ;
; N/A   ; None         ; 8.215 ns   ; count_val_ten[2]  ; HEX1[4]       ; CLOCK_50   ;
; N/A   ; None         ; 8.210 ns   ; count_val_ten[2]  ; HEX1[3]       ; CLOCK_50   ;
; N/A   ; None         ; 8.202 ns   ; count_val_ten[2]  ; HEX1[1]       ; CLOCK_50   ;
; N/A   ; None         ; 8.200 ns   ; count_val_hun[2]  ; Count_hun[2]  ; CLOCK_50   ;
; N/A   ; None         ; 8.200 ns   ; count_val_unit[3] ; HEX0[4]       ; CLOCK_50   ;
; N/A   ; None         ; 8.197 ns   ; count_val_unit[3] ; HEX0[5]       ; CLOCK_50   ;
; N/A   ; None         ; 8.196 ns   ; count_val_unit[3] ; HEX0[6]       ; CLOCK_50   ;
; N/A   ; None         ; 8.188 ns   ; count_val_ten[2]  ; HEX1[2]       ; CLOCK_50   ;
; N/A   ; None         ; 8.161 ns   ; count_val_unit[3] ; HEX0[1]       ; CLOCK_50   ;
; N/A   ; None         ; 8.151 ns   ; count_val_unit[2] ; HEX0[2]       ; CLOCK_50   ;
; N/A   ; None         ; 8.117 ns   ; count_val_hun[0]  ; Count_hun[0]  ; CLOCK_50   ;
; N/A   ; None         ; 8.105 ns   ; count_val_unit[1] ; HEX0[1]       ; CLOCK_50   ;
; N/A   ; None         ; 7.909 ns   ; count_val_ten[3]  ; Count_ten[3]  ; CLOCK_50   ;
; N/A   ; None         ; 7.844 ns   ; count_val_ten[1]  ; Count_ten[1]  ; CLOCK_50   ;
; N/A   ; None         ; 7.840 ns   ; count_val_hun[3]  ; HEX2[3]       ; CLOCK_50   ;
; N/A   ; None         ; 7.840 ns   ; count_val_hun[0]  ; HEX2[3]       ; CLOCK_50   ;
; N/A   ; None         ; 7.831 ns   ; count_val_hun[3]  ; HEX2[2]       ; CLOCK_50   ;
; N/A   ; None         ; 7.831 ns   ; count_val_hun[0]  ; HEX2[2]       ; CLOCK_50   ;
; N/A   ; None         ; 7.812 ns   ; count_val_unit[3] ; HEX0[2]       ; CLOCK_50   ;
; N/A   ; None         ; 7.803 ns   ; count_val_hun[1]  ; HEX2[3]       ; CLOCK_50   ;
; N/A   ; None         ; 7.794 ns   ; count_val_hun[1]  ; HEX2[2]       ; CLOCK_50   ;
; N/A   ; None         ; 7.787 ns   ; count_val_hun[3]  ; HEX2[6]       ; CLOCK_50   ;
; N/A   ; None         ; 7.787 ns   ; count_val_hun[0]  ; HEX2[6]       ; CLOCK_50   ;
; N/A   ; None         ; 7.783 ns   ; count_val_unit[1] ; Count_unit[1] ; CLOCK_50   ;
; N/A   ; None         ; 7.755 ns   ; count_val_unit[1] ; HEX0[2]       ; CLOCK_50   ;
; N/A   ; None         ; 7.748 ns   ; count_val_hun[1]  ; HEX2[6]       ; CLOCK_50   ;
; N/A   ; None         ; 7.742 ns   ; count_val_hun[1]  ; HEX2[0]       ; CLOCK_50   ;
; N/A   ; None         ; 7.686 ns   ; count_val_hun[3]  ; HEX2[1]       ; CLOCK_50   ;
; N/A   ; None         ; 7.686 ns   ; count_val_hun[0]  ; HEX2[1]       ; CLOCK_50   ;
; N/A   ; None         ; 7.649 ns   ; count_val_hun[1]  ; HEX2[1]       ; CLOCK_50   ;
; N/A   ; None         ; 7.476 ns   ; count_val_hun[0]  ; HEX2[4]       ; CLOCK_50   ;
; N/A   ; None         ; 7.475 ns   ; count_val_hun[3]  ; HEX2[4]       ; CLOCK_50   ;
; N/A   ; None         ; 7.467 ns   ; count_val_hun[3]  ; HEX2[5]       ; CLOCK_50   ;
; N/A   ; None         ; 7.466 ns   ; count_val_hun[0]  ; HEX2[5]       ; CLOCK_50   ;
; N/A   ; None         ; 7.438 ns   ; count_val_hun[1]  ; HEX2[4]       ; CLOCK_50   ;
; N/A   ; None         ; 7.423 ns   ; count_val_ten[0]  ; Count_ten[0]  ; CLOCK_50   ;
; N/A   ; None         ; 7.384 ns   ; count_val_hun[1]  ; HEX2[5]       ; CLOCK_50   ;
; N/A   ; None         ; 7.373 ns   ; count_val_hun[3]  ; HEX2[0]       ; CLOCK_50   ;
; N/A   ; None         ; 7.092 ns   ; count_val_ten[2]  ; Count_ten[2]  ; CLOCK_50   ;
+-------+--------------+------------+-------------------+---------------+------------+


+--------------------------+
; Timing Analyzer Messages ;
+--------------------------+
Info: *******************************************************************
Info: Running Quartus II Classic Timing Analyzer
    Info: Version 9.0 Build 184 04/29/2009 Service Pack 1 SJ Web Edition
    Info: Processing started: Wed Apr 26 23:01:46 2017
Info: Command: quartus_tan --read_settings_files=off --write_settings_files=off lab2_pt4 -c lab2_pt4 --timing_analysis_only
Warning: Found combinational loop of 1 nodes
    Warning: Node "count_val_hun[0]~20"
Warning: Found pins functioning as undefined clocks and/or memory enables
    Info: Assuming node "CLOCK_50" is an undefined clock
Info: Clock "CLOCK_50" has Internal fmax of 233.21 MHz between source register "count_val_unit[1]" and destination register "count_val_hun[3]" (period= 4.288 ns)
    Info: + Longest register to register delay is 4.057 ns
        Info: 1: + IC(0.000 ns) + CELL(0.000 ns) = 0.000 ns; Loc. = LCFF_X7_Y19_N21; Fanout = 14; REG Node = 'count_val_unit[1]'
        Info: 2: + IC(0.421 ns) + CELL(0.322 ns) = 0.743 ns; Loc. = LCCOMB_X7_Y19_N16; Fanout = 1; COMB Node = 'count_val_hun[0]~15'
        Info: 3: + IC(0.348 ns) + CELL(0.512 ns) = 1.603 ns; Loc. = LCCOMB_X7_Y19_N18; Fanout = 3; COMB Node = 'count_val_hun[0]~16'
        Info: 4: + IC(1.696 ns) + CELL(0.758 ns) = 4.057 ns; Loc. = LCFF_X1_Y24_N1; Fanout = 10; REG Node = 'count_val_hun[3]'
        Info: Total cell delay = 1.592 ns ( 39.24 % )
        Info: Total interconnect delay = 2.465 ns ( 60.76 % )
    Info: - Smallest clock skew is 0.008 ns
        Info: + Shortest clock path from clock "CLOCK_50" to destination register is 2.858 ns
            Info: 1: + IC(0.000 ns) + CELL(1.026 ns) = 1.026 ns; Loc. = PIN_L1; Fanout = 1; CLK Node = 'CLOCK_50'
            Info: 2: + IC(0.238 ns) + CELL(0.000 ns) = 1.264 ns; Loc. = CLKCTRL_G2; Fanout = 12; COMB Node = 'CLOCK_50~clkctrl'
            Info: 3: + IC(0.992 ns) + CELL(0.602 ns) = 2.858 ns; Loc. = LCFF_X1_Y24_N1; Fanout = 10; REG Node = 'count_val_hun[3]'
            Info: Total cell delay = 1.628 ns ( 56.96 % )
            Info: Total interconnect delay = 1.230 ns ( 43.04 % )
        Info: - Longest clock path from clock "CLOCK_50" to source register is 2.850 ns
            Info: 1: + IC(0.000 ns) + CELL(1.026 ns) = 1.026 ns; Loc. = PIN_L1; Fanout = 1; CLK Node = 'CLOCK_50'
            Info: 2: + IC(0.238 ns) + CELL(0.000 ns) = 1.264 ns; Loc. = CLKCTRL_G2; Fanout = 12; COMB Node = 'CLOCK_50~clkctrl'
            Info: 3: + IC(0.984 ns) + CELL(0.602 ns) = 2.850 ns; Loc. = LCFF_X7_Y19_N21; Fanout = 14; REG Node = 'count_val_unit[1]'
            Info: Total cell delay = 1.628 ns ( 57.12 % )
            Info: Total interconnect delay = 1.222 ns ( 42.88 % )
    Info: + Micro clock to output delay of source is 0.277 ns
    Info: + Micro setup delay of destination is -0.038 ns
Info: tco from clock "CLOCK_50" to destination pin "Count_unit[3]" through register "count_val_unit[3]" is 9.961 ns
    Info: + Longest clock path from clock "CLOCK_50" to source register is 2.850 ns
        Info: 1: + IC(0.000 ns) + CELL(1.026 ns) = 1.026 ns; Loc. = PIN_L1; Fanout = 1; CLK Node = 'CLOCK_50'
        Info: 2: + IC(0.238 ns) + CELL(0.000 ns) = 1.264 ns; Loc. = CLKCTRL_G2; Fanout = 12; COMB Node = 'CLOCK_50~clkctrl'
        Info: 3: + IC(0.984 ns) + CELL(0.602 ns) = 2.850 ns; Loc. = LCFF_X7_Y19_N9; Fanout = 11; REG Node = 'count_val_unit[3]'
        Info: Total cell delay = 1.628 ns ( 57.12 % )
        Info: Total interconnect delay = 1.222 ns ( 42.88 % )
    Info: + Micro clock to output delay of source is 0.277 ns
    Info: + Longest register to pin delay is 6.834 ns
        Info: 1: + IC(0.000 ns) + CELL(0.000 ns) = 0.000 ns; Loc. = LCFF_X7_Y19_N9; Fanout = 11; REG Node = 'count_val_unit[3]'
        Info: 2: + IC(4.014 ns) + CELL(2.820 ns) = 6.834 ns; Loc. = PIN_H18; Fanout = 0; PIN Node = 'Count_unit[3]'
        Info: Total cell delay = 2.820 ns ( 41.26 % )
        Info: Total interconnect delay = 4.014 ns ( 58.74 % )
Info: Quartus II Classic Timing Analyzer was successful. 0 errors, 3 warnings
    Info: Peak virtual memory: 198 megabytes
    Info: Processing ended: Wed Apr 26 23:01:46 2017
    Info: Elapsed time: 00:00:00
    Info: Total CPU time (on all processors): 00:00:00


