Classic Timing Analyzer report for structural_counter_onboard
Wed Apr 26 20:25:34 2017
Quartus II Version 9.0 Build 184 04/29/2009 Service Pack 1 SJ Web Edition


---------------------
; Table of Contents ;
---------------------
  1. Legal Notice
  2. Timing Analyzer Summary
  3. Timing Analyzer Settings
  4. Clock Settings Summary
  5. Parallel Compilation
  6. Clock Setup: 'Clk'
  7. tsu
  8. tco
  9. th
 10. Timing Analyzer Messages



----------------
; Legal Notice ;
----------------
Copyright (C) 1991-2009 Altera Corporation
Your use of Altera Corporation's design tools, logic functions 
and other software and tools, and its AMPP partner logic 
functions, and any output files from any of the foregoing 
(including device programming or simulation files), and any 
associated documentation or information are expressly subject 
to the terms and conditions of the Altera Program License 
Subscription Agreement, Altera MegaCore Function License 
Agreement, or other applicable license agreement, including, 
without limitation, that your use is for the sole purpose of 
programming logic devices manufactured by Altera and sold by 
Altera or its authorized distributors.  Please refer to the 
applicable agreement for further details.



+------------------------------------------------------------------------------------------------------------------------------------------------------------------------------------------------------------------------------------------------------------------+
; Timing Analyzer Summary                                                                                                                                                                                                                                          ;
+------------------------------+-------+---------------+------------------------------------------------+---------------------------------------------------------+---------------------------------------------------------+------------+----------+--------------+
; Type                         ; Slack ; Required Time ; Actual Time                                    ; From                                                    ; To                                                      ; From Clock ; To Clock ; Failed Paths ;
+------------------------------+-------+---------------+------------------------------------------------+---------------------------------------------------------+---------------------------------------------------------+------------+----------+--------------+
; Worst-case tsu               ; N/A   ; None          ; 0.311 ns                                       ; En                                                      ; T_Flop:flop_0|T_Flop_comp:\T_flop_part:3:actual_flop|op ; --         ; Clk      ; 0            ;
; Worst-case tco               ; N/A   ; None          ; 9.366 ns                                       ; T_Flop:flop_0|T_Flop_comp:\T_flop_part:1:actual_flop|op ; HEX0[4]                                                 ; Clk        ; --       ; 0            ;
; Worst-case th                ; N/A   ; None          ; 0.738 ns                                       ; En                                                      ; T_Flop:flop_0|T_Flop_comp:\T_flop_part:0:actual_flop|op ; --         ; Clk      ; 0            ;
; Clock Setup: 'Clk'           ; N/A   ; None          ; Restricted to 405.02 MHz ( period = 2.469 ns ) ; T_Flop:flop_0|T_Flop_comp:\T_flop_part:2:actual_flop|op ; T_Flop:flop_0|T_Flop_comp:\T_flop_part:3:actual_flop|op ; Clk        ; Clk      ; 0            ;
; Total number of failed paths ;       ;               ;                                                ;                                                         ;                                                         ;            ;          ; 0            ;
+------------------------------+-------+---------------+------------------------------------------------+---------------------------------------------------------+---------------------------------------------------------+------------+----------+--------------+


+--------------------------------------------------------------------------------------------------------------------+
; Timing Analyzer Settings                                                                                           ;
+---------------------------------------------------------------------+--------------------+------+----+-------------+
; Option                                                              ; Setting            ; From ; To ; Entity Name ;
+---------------------------------------------------------------------+--------------------+------+----+-------------+
; Device Name                                                         ; EP2C20F484C7       ;      ;    ;             ;
; Timing Models                                                       ; Final              ;      ;    ;             ;
; Default hold multicycle                                             ; Same as Multicycle ;      ;    ;             ;
; Cut paths between unrelated clock domains                           ; On                 ;      ;    ;             ;
; Cut off read during write signal paths                              ; On                 ;      ;    ;             ;
; Cut off feedback from I/O pins                                      ; On                 ;      ;    ;             ;
; Report Combined Fast/Slow Timing                                    ; Off                ;      ;    ;             ;
; Ignore Clock Settings                                               ; Off                ;      ;    ;             ;
; Analyze latches as synchronous elements                             ; On                 ;      ;    ;             ;
; Enable Recovery/Removal analysis                                    ; Off                ;      ;    ;             ;
; Enable Clock Latency                                                ; Off                ;      ;    ;             ;
; Use TimeQuest Timing Analyzer                                       ; Off                ;      ;    ;             ;
; Minimum Core Junction Temperature                                   ; 0                  ;      ;    ;             ;
; Maximum Core Junction Temperature                                   ; 85                 ;      ;    ;             ;
; Number of source nodes to report per destination node               ; 10                 ;      ;    ;             ;
; Number of destination nodes to report                               ; 10                 ;      ;    ;             ;
; Number of paths to report                                           ; 200                ;      ;    ;             ;
; Report Minimum Timing Checks                                        ; Off                ;      ;    ;             ;
; Use Fast Timing Models                                              ; Off                ;      ;    ;             ;
; Report IO Paths Separately                                          ; Off                ;      ;    ;             ;
; Perform Multicorner Analysis                                        ; On                 ;      ;    ;             ;
; Reports the worst-case path for each clock domain and analysis      ; Off                ;      ;    ;             ;
; Removes common clock path pessimism (CCPP) during slack computation ; Off                ;      ;    ;             ;
; Output I/O Timing Endpoint                                          ; Near End           ;      ;    ;             ;
+---------------------------------------------------------------------+--------------------+------+----+-------------+


+------------------------------------------------------------------------------------------------------------------------------------------------------------------------------------+
; Clock Settings Summary                                                                                                                                                             ;
+-----------------+--------------------+----------+------------------+---------------+--------------+----------+-----------------------+---------------------+--------+--------------+
; Clock Node Name ; Clock Setting Name ; Type     ; Fmax Requirement ; Early Latency ; Late Latency ; Based on ; Multiply Base Fmax by ; Divide Base Fmax by ; Offset ; Phase offset ;
+-----------------+--------------------+----------+------------------+---------------+--------------+----------+-----------------------+---------------------+--------+--------------+
; Clk             ;                    ; User Pin ; None             ; 0.000 ns      ; 0.000 ns     ; --       ; N/A                   ; N/A                 ; N/A    ;              ;
+-----------------+--------------------+----------+------------------+---------------+--------------+----------+-----------------------+---------------------+--------+--------------+


Parallel compilation was disabled, but you have multiple processors available. Enable parallel compilation to reduce compilation time.
+-------------------------------------+
; Parallel Compilation                ;
+----------------------------+--------+
; Processors                 ; Number ;
+----------------------------+--------+
; Number detected on machine ; 2      ;
; Maximum allowed            ; 1      ;
+----------------------------+--------+


+----------------------------------------------------------------------------------------------------------------------------------------------------------------------------------------------------------------------------------------------------------------------------------------+
; Clock Setup: 'Clk'                                                                                                                                                                                                                                                                     ;
+-------+------------------------------------------------+---------------------------------------------------------+---------------------------------------------------------+------------+----------+-----------------------------+---------------------------+-------------------------+
; Slack ; Actual fmax (period)                           ; From                                                    ; To                                                      ; From Clock ; To Clock ; Required Setup Relationship ; Required Longest P2P Time ; Actual Longest P2P Time ;
+-------+------------------------------------------------+---------------------------------------------------------+---------------------------------------------------------+------------+----------+-----------------------------+---------------------------+-------------------------+
; N/A   ; Restricted to 405.02 MHz ( period = 2.469 ns ) ; T_Flop:flop_0|T_Flop_comp:\T_flop_part:2:actual_flop|op ; T_Flop:flop_0|T_Flop_comp:\T_flop_part:3:actual_flop|op ; Clk        ; Clk      ; None                        ; None                      ; 1.295 ns                ;
; N/A   ; Restricted to 405.02 MHz ( period = 2.469 ns ) ; T_Flop:flop_0|T_Flop_comp:\T_flop_part:0:actual_flop|op ; T_Flop:flop_0|T_Flop_comp:\T_flop_part:3:actual_flop|op ; Clk        ; Clk      ; None                        ; None                      ; 1.151 ns                ;
; N/A   ; Restricted to 405.02 MHz ( period = 2.469 ns ) ; T_Flop:flop_0|T_Flop_comp:\T_flop_part:1:actual_flop|op ; T_Flop:flop_0|T_Flop_comp:\T_flop_part:3:actual_flop|op ; Clk        ; Clk      ; None                        ; None                      ; 1.025 ns                ;
; N/A   ; Restricted to 405.02 MHz ( period = 2.469 ns ) ; T_Flop:flop_0|T_Flop_comp:\T_flop_part:0:actual_flop|op ; T_Flop:flop_0|T_Flop_comp:\T_flop_part:2:actual_flop|op ; Clk        ; Clk      ; None                        ; None                      ; 1.010 ns                ;
; N/A   ; Restricted to 405.02 MHz ( period = 2.469 ns ) ; T_Flop:flop_0|T_Flop_comp:\T_flop_part:1:actual_flop|op ; T_Flop:flop_0|T_Flop_comp:\T_flop_part:2:actual_flop|op ; Clk        ; Clk      ; None                        ; None                      ; 0.678 ns                ;
; N/A   ; Restricted to 405.02 MHz ( period = 2.469 ns ) ; T_Flop:flop_0|T_Flop_comp:\T_flop_part:0:actual_flop|op ; T_Flop:flop_0|T_Flop_comp:\T_flop_part:1:actual_flop|op ; Clk        ; Clk      ; None                        ; None                      ; 0.664 ns                ;
; N/A   ; Restricted to 405.02 MHz ( period = 2.469 ns ) ; T_Flop:flop_0|T_Flop_comp:\T_flop_part:0:actual_flop|op ; T_Flop:flop_0|T_Flop_comp:\T_flop_part:0:actual_flop|op ; Clk        ; Clk      ; None                        ; None                      ; 0.454 ns                ;
; N/A   ; Restricted to 405.02 MHz ( period = 2.469 ns ) ; T_Flop:flop_0|T_Flop_comp:\T_flop_part:1:actual_flop|op ; T_Flop:flop_0|T_Flop_comp:\T_flop_part:1:actual_flop|op ; Clk        ; Clk      ; None                        ; None                      ; 0.454 ns                ;
; N/A   ; Restricted to 405.02 MHz ( period = 2.469 ns ) ; T_Flop:flop_0|T_Flop_comp:\T_flop_part:2:actual_flop|op ; T_Flop:flop_0|T_Flop_comp:\T_flop_part:2:actual_flop|op ; Clk        ; Clk      ; None                        ; None                      ; 0.454 ns                ;
; N/A   ; Restricted to 405.02 MHz ( period = 2.469 ns ) ; T_Flop:flop_0|T_Flop_comp:\T_flop_part:3:actual_flop|op ; T_Flop:flop_0|T_Flop_comp:\T_flop_part:3:actual_flop|op ; Clk        ; Clk      ; None                        ; None                      ; 0.454 ns                ;
+-------+------------------------------------------------+---------------------------------------------------------+---------------------------------------------------------+------------+----------+-----------------------------+---------------------------+-------------------------+


+---------------------------------------------------------------------------------------------------------------+
; tsu                                                                                                           ;
+-------+--------------+------------+------+---------------------------------------------------------+----------+
; Slack ; Required tsu ; Actual tsu ; From ; To                                                      ; To Clock ;
+-------+--------------+------------+------+---------------------------------------------------------+----------+
; N/A   ; None         ; 0.311 ns   ; En   ; T_Flop:flop_0|T_Flop_comp:\T_flop_part:3:actual_flop|op ; Clk      ;
; N/A   ; None         ; -0.148 ns  ; En   ; T_Flop:flop_0|T_Flop_comp:\T_flop_part:1:actual_flop|op ; Clk      ;
; N/A   ; None         ; -0.152 ns  ; En   ; T_Flop:flop_0|T_Flop_comp:\T_flop_part:2:actual_flop|op ; Clk      ;
; N/A   ; None         ; -0.490 ns  ; En   ; T_Flop:flop_0|T_Flop_comp:\T_flop_part:0:actual_flop|op ; Clk      ;
+-------+--------------+------------+------+---------------------------------------------------------+----------+


+--------------------------------------------------------------------------------------------------------------------+
; tco                                                                                                                ;
+-------+--------------+------------+---------------------------------------------------------+---------+------------+
; Slack ; Required tco ; Actual tco ; From                                                    ; To      ; From Clock ;
+-------+--------------+------------+---------------------------------------------------------+---------+------------+
; N/A   ; None         ; 9.366 ns   ; T_Flop:flop_0|T_Flop_comp:\T_flop_part:1:actual_flop|op ; HEX0[4] ; Clk        ;
; N/A   ; None         ; 9.360 ns   ; T_Flop:flop_0|T_Flop_comp:\T_flop_part:1:actual_flop|op ; HEX0[6] ; Clk        ;
; N/A   ; None         ; 9.356 ns   ; T_Flop:flop_0|T_Flop_comp:\T_flop_part:1:actual_flop|op ; HEX0[5] ; Clk        ;
; N/A   ; None         ; 9.342 ns   ; T_Flop:flop_0|T_Flop_comp:\T_flop_part:1:actual_flop|op ; HEX0[2] ; Clk        ;
; N/A   ; None         ; 9.338 ns   ; T_Flop:flop_0|T_Flop_comp:\T_flop_part:1:actual_flop|op ; HEX0[3] ; Clk        ;
; N/A   ; None         ; 9.151 ns   ; T_Flop:flop_0|T_Flop_comp:\T_flop_part:0:actual_flop|op ; HEX0[5] ; Clk        ;
; N/A   ; None         ; 9.141 ns   ; T_Flop:flop_0|T_Flop_comp:\T_flop_part:0:actual_flop|op ; HEX0[6] ; Clk        ;
; N/A   ; None         ; 9.122 ns   ; T_Flop:flop_0|T_Flop_comp:\T_flop_part:0:actual_flop|op ; HEX0[3] ; Clk        ;
; N/A   ; None         ; 9.120 ns   ; T_Flop:flop_0|T_Flop_comp:\T_flop_part:0:actual_flop|op ; HEX0[2] ; Clk        ;
; N/A   ; None         ; 9.107 ns   ; T_Flop:flop_0|T_Flop_comp:\T_flop_part:0:actual_flop|op ; HEX0[4] ; Clk        ;
; N/A   ; None         ; 9.103 ns   ; T_Flop:flop_0|T_Flop_comp:\T_flop_part:3:actual_flop|op ; HEX0[4] ; Clk        ;
; N/A   ; None         ; 9.099 ns   ; T_Flop:flop_0|T_Flop_comp:\T_flop_part:3:actual_flop|op ; HEX0[6] ; Clk        ;
; N/A   ; None         ; 9.095 ns   ; T_Flop:flop_0|T_Flop_comp:\T_flop_part:3:actual_flop|op ; HEX0[5] ; Clk        ;
; N/A   ; None         ; 9.081 ns   ; T_Flop:flop_0|T_Flop_comp:\T_flop_part:3:actual_flop|op ; HEX0[2] ; Clk        ;
; N/A   ; None         ; 9.071 ns   ; T_Flop:flop_0|T_Flop_comp:\T_flop_part:3:actual_flop|op ; HEX0[3] ; Clk        ;
; N/A   ; None         ; 8.993 ns   ; T_Flop:flop_0|T_Flop_comp:\T_flop_part:1:actual_flop|op ; HEX0[1] ; Clk        ;
; N/A   ; None         ; 8.790 ns   ; T_Flop:flop_0|T_Flop_comp:\T_flop_part:0:actual_flop|op ; HEX0[1] ; Clk        ;
; N/A   ; None         ; 8.747 ns   ; T_Flop:flop_0|T_Flop_comp:\T_flop_part:2:actual_flop|op ; HEX0[4] ; Clk        ;
; N/A   ; None         ; 8.743 ns   ; T_Flop:flop_0|T_Flop_comp:\T_flop_part:2:actual_flop|op ; HEX0[6] ; Clk        ;
; N/A   ; None         ; 8.741 ns   ; T_Flop:flop_0|T_Flop_comp:\T_flop_part:2:actual_flop|op ; HEX0[5] ; Clk        ;
; N/A   ; None         ; 8.728 ns   ; T_Flop:flop_0|T_Flop_comp:\T_flop_part:3:actual_flop|op ; HEX0[1] ; Clk        ;
; N/A   ; None         ; 8.728 ns   ; T_Flop:flop_0|T_Flop_comp:\T_flop_part:2:actual_flop|op ; HEX0[0] ; Clk        ;
; N/A   ; None         ; 8.725 ns   ; T_Flop:flop_0|T_Flop_comp:\T_flop_part:2:actual_flop|op ; HEX0[2] ; Clk        ;
; N/A   ; None         ; 8.720 ns   ; T_Flop:flop_0|T_Flop_comp:\T_flop_part:2:actual_flop|op ; HEX0[3] ; Clk        ;
; N/A   ; None         ; 8.669 ns   ; T_Flop:flop_0|T_Flop_comp:\T_flop_part:1:actual_flop|op ; HEX0[0] ; Clk        ;
; N/A   ; None         ; 8.380 ns   ; T_Flop:flop_0|T_Flop_comp:\T_flop_part:2:actual_flop|op ; HEX0[1] ; Clk        ;
; N/A   ; None         ; 8.354 ns   ; T_Flop:flop_0|T_Flop_comp:\T_flop_part:3:actual_flop|op ; HEX0[0] ; Clk        ;
+-------+--------------+------------+---------------------------------------------------------+---------+------------+


+---------------------------------------------------------------------------------------------------------------------+
; th                                                                                                                  ;
+---------------+-------------+-----------+------+---------------------------------------------------------+----------+
; Minimum Slack ; Required th ; Actual th ; From ; To                                                      ; To Clock ;
+---------------+-------------+-----------+------+---------------------------------------------------------+----------+
; N/A           ; None        ; 0.738 ns  ; En   ; T_Flop:flop_0|T_Flop_comp:\T_flop_part:0:actual_flop|op ; Clk      ;
; N/A           ; None        ; 0.400 ns  ; En   ; T_Flop:flop_0|T_Flop_comp:\T_flop_part:2:actual_flop|op ; Clk      ;
; N/A           ; None        ; 0.396 ns  ; En   ; T_Flop:flop_0|T_Flop_comp:\T_flop_part:1:actual_flop|op ; Clk      ;
; N/A           ; None        ; -0.063 ns ; En   ; T_Flop:flop_0|T_Flop_comp:\T_flop_part:3:actual_flop|op ; Clk      ;
+---------------+-------------+-----------+------+---------------------------------------------------------+----------+


+--------------------------+
; Timing Analyzer Messages ;
+--------------------------+
Info: *******************************************************************
Info: Running Quartus II Classic Timing Analyzer
    Info: Version 9.0 Build 184 04/29/2009 Service Pack 1 SJ Web Edition
    Info: Processing started: Wed Apr 26 20:25:34 2017
Info: Command: quartus_tan --read_settings_files=off --write_settings_files=off structural_counter_onboard -c structural_counter_onboard --timing_analysis_only
Warning: Found pins functioning as undefined clocks and/or memory enables
    Info: Assuming node "Clk" is an undefined clock
Info: Clock "Clk" Internal fmax is restricted to 405.02 MHz between source register "T_Flop:flop_0|T_Flop_comp:\T_flop_part:2:actual_flop|op" and destination register "T_Flop:flop_0|T_Flop_comp:\T_flop_part:3:actual_flop|op"
    Info: fmax restricted to clock pin edge rate 2.469 ns. Expand message to see actual delay path.
        Info: + Longest register to register delay is 1.295 ns
            Info: 1: + IC(0.000 ns) + CELL(0.000 ns) = 0.000 ns; Loc. = LCFF_X1_Y18_N29; Fanout = 9; REG Node = 'T_Flop:flop_0|T_Flop_comp:\T_flop_part:2:actual_flop|op'
            Info: 2: + IC(0.654 ns) + CELL(0.545 ns) = 1.199 ns; Loc. = LCCOMB_X1_Y18_N22; Fanout = 1; COMB Node = 'T_Flop:flop_0|T_Flop_comp:\T_flop_part:3:actual_flop|op~0'
            Info: 3: + IC(0.000 ns) + CELL(0.096 ns) = 1.295 ns; Loc. = LCFF_X1_Y18_N23; Fanout = 8; REG Node = 'T_Flop:flop_0|T_Flop_comp:\T_flop_part:3:actual_flop|op'
            Info: Total cell delay = 0.641 ns ( 49.50 % )
            Info: Total interconnect delay = 0.654 ns ( 50.50 % )
        Info: - Smallest clock skew is 0.000 ns
            Info: + Shortest clock path from clock "Clk" to destination register is 4.163 ns
                Info: 1: + IC(0.000 ns) + CELL(0.864 ns) = 0.864 ns; Loc. = PIN_R22; Fanout = 4; CLK Node = 'Clk'
                Info: 2: + IC(2.697 ns) + CELL(0.602 ns) = 4.163 ns; Loc. = LCFF_X1_Y18_N23; Fanout = 8; REG Node = 'T_Flop:flop_0|T_Flop_comp:\T_flop_part:3:actual_flop|op'
                Info: Total cell delay = 1.466 ns ( 35.21 % )
                Info: Total interconnect delay = 2.697 ns ( 64.79 % )
            Info: - Longest clock path from clock "Clk" to source register is 4.163 ns
                Info: 1: + IC(0.000 ns) + CELL(0.864 ns) = 0.864 ns; Loc. = PIN_R22; Fanout = 4; CLK Node = 'Clk'
                Info: 2: + IC(2.697 ns) + CELL(0.602 ns) = 4.163 ns; Loc. = LCFF_X1_Y18_N29; Fanout = 9; REG Node = 'T_Flop:flop_0|T_Flop_comp:\T_flop_part:2:actual_flop|op'
                Info: Total cell delay = 1.466 ns ( 35.21 % )
                Info: Total interconnect delay = 2.697 ns ( 64.79 % )
        Info: + Micro clock to output delay of source is 0.277 ns
        Info: + Micro setup delay of destination is -0.038 ns
Info: tsu for register "T_Flop:flop_0|T_Flop_comp:\T_flop_part:3:actual_flop|op" (data pin = "En", clock pin = "Clk") is 0.311 ns
    Info: + Longest pin to register delay is 4.512 ns
        Info: 1: + IC(0.000 ns) + CELL(1.026 ns) = 1.026 ns; Loc. = PIN_L21; Fanout = 4; PIN Node = 'En'
        Info: 2: + IC(2.410 ns) + CELL(0.491 ns) = 3.927 ns; Loc. = LCCOMB_X1_Y18_N30; Fanout = 1; COMB Node = 'T_Flop:flop_0|en_vector[1]'
        Info: 3: + IC(0.311 ns) + CELL(0.178 ns) = 4.416 ns; Loc. = LCCOMB_X1_Y18_N22; Fanout = 1; COMB Node = 'T_Flop:flop_0|T_Flop_comp:\T_flop_part:3:actual_flop|op~0'
        Info: 4: + IC(0.000 ns) + CELL(0.096 ns) = 4.512 ns; Loc. = LCFF_X1_Y18_N23; Fanout = 8; REG Node = 'T_Flop:flop_0|T_Flop_comp:\T_flop_part:3:actual_flop|op'
        Info: Total cell delay = 1.791 ns ( 39.69 % )
        Info: Total interconnect delay = 2.721 ns ( 60.31 % )
    Info: + Micro setup delay of destination is -0.038 ns
    Info: - Shortest clock path from clock "Clk" to destination register is 4.163 ns
        Info: 1: + IC(0.000 ns) + CELL(0.864 ns) = 0.864 ns; Loc. = PIN_R22; Fanout = 4; CLK Node = 'Clk'
        Info: 2: + IC(2.697 ns) + CELL(0.602 ns) = 4.163 ns; Loc. = LCFF_X1_Y18_N23; Fanout = 8; REG Node = 'T_Flop:flop_0|T_Flop_comp:\T_flop_part:3:actual_flop|op'
        Info: Total cell delay = 1.466 ns ( 35.21 % )
        Info: Total interconnect delay = 2.697 ns ( 64.79 % )
Info: tco from clock "Clk" to destination pin "HEX0[4]" through register "T_Flop:flop_0|T_Flop_comp:\T_flop_part:1:actual_flop|op" is 9.366 ns
    Info: + Longest clock path from clock "Clk" to source register is 4.163 ns
        Info: 1: + IC(0.000 ns) + CELL(0.864 ns) = 0.864 ns; Loc. = PIN_R22; Fanout = 4; CLK Node = 'Clk'
        Info: 2: + IC(2.697 ns) + CELL(0.602 ns) = 4.163 ns; Loc. = LCFF_X1_Y18_N19; Fanout = 10; REG Node = 'T_Flop:flop_0|T_Flop_comp:\T_flop_part:1:actual_flop|op'
        Info: Total cell delay = 1.466 ns ( 35.21 % )
        Info: Total interconnect delay = 2.697 ns ( 64.79 % )
    Info: + Micro clock to output delay of source is 0.277 ns
    Info: + Longest register to pin delay is 4.926 ns
        Info: 1: + IC(0.000 ns) + CELL(0.000 ns) = 0.000 ns; Loc. = LCFF_X1_Y18_N19; Fanout = 10; REG Node = 'T_Flop:flop_0|T_Flop_comp:\T_flop_part:1:actual_flop|op'
        Info: 2: + IC(0.655 ns) + CELL(0.545 ns) = 1.200 ns; Loc. = LCCOMB_X1_Y18_N12; Fanout = 1; COMB Node = 'HEX0~56'
        Info: 3: + IC(0.876 ns) + CELL(2.850 ns) = 4.926 ns; Loc. = PIN_F2; Fanout = 0; PIN Node = 'HEX0[4]'
        Info: Total cell delay = 3.395 ns ( 68.92 % )
        Info: Total interconnect delay = 1.531 ns ( 31.08 % )
Info: th for register "T_Flop:flop_0|T_Flop_comp:\T_flop_part:0:actual_flop|op" (data pin = "En", clock pin = "Clk") is 0.738 ns
    Info: + Longest clock path from clock "Clk" to destination register is 4.163 ns
        Info: 1: + IC(0.000 ns) + CELL(0.864 ns) = 0.864 ns; Loc. = PIN_R22; Fanout = 4; CLK Node = 'Clk'
        Info: 2: + IC(2.697 ns) + CELL(0.602 ns) = 4.163 ns; Loc. = LCFF_X1_Y18_N1; Fanout = 10; REG Node = 'T_Flop:flop_0|T_Flop_comp:\T_flop_part:0:actual_flop|op'
        Info: Total cell delay = 1.466 ns ( 35.21 % )
        Info: Total interconnect delay = 2.697 ns ( 64.79 % )
    Info: + Micro hold delay of destination is 0.286 ns
    Info: - Shortest pin to register delay is 3.711 ns
        Info: 1: + IC(0.000 ns) + CELL(1.026 ns) = 1.026 ns; Loc. = PIN_L21; Fanout = 4; PIN Node = 'En'
        Info: 2: + IC(2.411 ns) + CELL(0.178 ns) = 3.615 ns; Loc. = LCCOMB_X1_Y18_N0; Fanout = 1; COMB Node = 'T_Flop:flop_0|T_Flop_comp:\T_flop_part:0:actual_flop|op~0'
        Info: 3: + IC(0.000 ns) + CELL(0.096 ns) = 3.711 ns; Loc. = LCFF_X1_Y18_N1; Fanout = 10; REG Node = 'T_Flop:flop_0|T_Flop_comp:\T_flop_part:0:actual_flop|op'
        Info: Total cell delay = 1.300 ns ( 35.03 % )
        Info: Total interconnect delay = 2.411 ns ( 64.97 % )
Info: Quartus II Classic Timing Analyzer was successful. 0 errors, 1 warning
    Info: Peak virtual memory: 198 megabytes
    Info: Processing ended: Wed Apr 26 20:25:35 2017
    Info: Elapsed time: 00:00:01
    Info: Total CPU time (on all processors): 00:00:00


