<internal_error>
	<executable>quartus_map.exe</executable>
	<sub_system>AMERGE</sub_system>
	<file>/quartus/atm/amerge/amerge_kpt_op.cpp</file>
	<line>220</line>
	<callstack>
	0x0bd8db87: atm_amerge + 0x3db87 (amerge_mini_merge + 0x3a7a7)
	0x001730d5: ccl_cfg_ini + 0x30d5 (?cfg_force_qexe_mode_off@@YIXXZ + 0x1e15)
	0x0bd8d322: atm_amerge + 0x3d322 (amerge_mini_merge + 0x39f42)
	0x0bd9430d: atm_amerge + 0x4430d (amerge_mini_merge + 0x40f2d)
	0x0bd5321d: atm_amerge + 0x321d
	0x0bd533f1: atm_amerge + 0x33f1 (amerge_mini_merge + 0x11)
	0x00412d94: quartus_map + 0x12d94
	0x011f4b0d: ccl_mem + 0x4b0d (?splay_heap@MEM_SEGMENT_INTERNAL@@AAIPAVMEM_MEGA_PAGE@@PAX@Z + 0x14d)
	0x011fa128: ccl_mem + 0xa128 (?mem_realloc_wrapper@@YIPAXPAXIPAVMEM_TRACKER_THUNK@@PBD@Z + 0x188)
	0x00418601: quartus_map + 0x18601
	0x011f94f2: ccl_mem + 0x94f2 (?locked_allocate@MEM_SEGMENT_INTERNAL@@AAIPAXPADKKPAVMEM_TRACKER_DATA@@@Z + 0x62)
	0x03342931: db_rdb + 0x2931 (??0RDB_WAVEFORM_OBJECT@@QAE@XZ + 0x211)
	0x018a20a6: comp_qcu + 0x20a6 (??1QCU_ACF_SETTING@@QAE@XZ + 0x126)
	0x018a5a66: comp_qcu + 0x5a66 (??4QCU_ACF_SETTING@@QAEAAU0@ABU0@@Z + 0x3366)
	0x011f4b0d: ccl_mem + 0x4b0d (?splay_heap@MEM_SEGMENT_INTERNAL@@AAIPAVMEM_MEGA_PAGE@@PAX@Z + 0x14d)
	0x00409d3b: quartus_map + 0x9d3b
	0x0041ab19: quartus_map + 0x1ab19
	0x0184ce32: comp_qexe + 0xce32 (?qexe_get_command_line@@YIPBDXZ + 0x3a2)
	0x018a38e3: comp_qcu + 0x38e3 (??4QCU_ACF_SETTING@@QAEAAU0@ABU0@@Z + 0x11e3)
	0x018a7c29: comp_qcu + 0x7c29 (?check_license@QCU_FRAMEWORK@@UAI_NXZ + 0x139)
	0x0184fbbd: comp_qexe + 0xfbbd (?qexe_process_cmdline_arguments@@YI_NPAVQEXE_CMDLINE@@HPAPBD@Z + 0x34d)
	</callstack>
	<error>cmp_merge_kpt_db</error>
	<date>Wed Apr 26 22:30:20 2017</date>
	<version>Quartus II Version 9.0 Build 184 04/29/2009 Service Pack 1 SJ Web Edition</version>
	<full_error>cmp_merge_kpt_db
Quartus II Version 9.0 Build 184 04/29/2009 Service Pack 1 SJ Web Edition </full_error>
</internal_error>

